1,-1,854,228,66,23,0.28,2,-1,-1
1,-1,1092,258,85,64,0.6,5,-1,-1
1,-1,1360,264,117,41,0.58,2,-1,-1
1,-1,1277,220,112,52,0.2,5,-1,-1
1,-1,0,529,34,101,0.78,2,-1,-1
2,-1,854,228,66,23,0.28,2,-1,-1
2,-1,1366,264,118,48,0.92,5,-1,-1
2,-1,0,529,34,100,0.79,2,-1,-1
2,-1,1089,257,84,64,0.52,5,-1,-1
2,-1,1360,264,117,41,0.58,2,-1,-1
3,-1,0,529,34,101,0.72,2,-1,-1
3,-1,1366,265,119,48,0.92,5,-1,-1
3,-1,855,228,65,23,0.27,2,-1,-1
3,-1,1084,252,83,65,0.47,5,-1,-1
3,-1,1360,264,117,41,0.59,2,-1,-1
4,-1,0,529,35,101,0.7,2,-1,-1
4,-1,1080,252,84,64,0.45,5,-1,-1
4,-1,1360,264,117,41,0.57,2,-1,-1
4,-1,855,228,66,24,0.3,2,-1,-1
4,-1,1366,265,119,48,0.92,5,-1,-1
5,-1,1085,250,74,66,0.42,5,-1,-1
5,-1,1360,264,118,41,0.58,2,-1,-1
5,-1,1366,265,119,48,0.92,5,-1,-1
5,-1,0,529,36,99,0.74,2,-1,-1
5,-1,866,230,46,16,0.25,2,-1,-1
9,-1,0,528,38,106,0.81,2,-1,-1
9,-1,1366,265,119,48,0.92,5,-1,-1
9,-1,1360,264,117,41,0.57,2,-1,-1
9,-1,1075,249,73,61,0.4,5,-1,-1
9,-1,856,228,65,23,0.32,2,-1,-1
10,-1,1072,249,74,60,0.35,5,-1,-1
10,-1,1366,265,119,48,0.92,5,-1,-1
10,-1,856,229,63,22,0.32,2,-1,-1
10,-1,0,528,40,104,0.87,2,-1,-1
10,-1,1361,264,116,41,0.58,2,-1,-1
12,-1,1366,265,109,40,0.58,2,-1,-1
12,-1,1366,265,119,48,0.92,5,-1,-1
12,-1,855,228,64,23,0.29,2,-1,-1
12,-1,1071,249,72,55,0.4,5,-1,-1
12,-1,0,528,42,110,0.96,2,-1,-1
13,-1,1361,264,116,41,0.58,2,-1,-1
13,-1,1071,250,70,53,0.42,5,-1,-1
13,-1,856,228,63,23,0.28,2,-1,-1
13,-1,1366,265,119,48,0.92,5,-1,-1
13,-1,0,527,44,111,0.97,2,-1,-1
14,-1,856,228,64,23,0.3,2,-1,-1
14,-1,0,529,49,106,0.95,2,-1,-1
14,-1,1072,250,66,51,0.47,5,-1,-1
14,-1,1366,265,119,48,0.92,5,-1,-1
14,-1,1361,264,117,42,0.58,2,-1,-1
15,-1,1367,265,107,40,0.58,2,-1,-1
15,-1,1072,250,64,50,0.46,5,-1,-1
15,-1,858,228,63,23,0.27,2,-1,-1
15,-1,0,529,52,107,0.95,2,-1,-1
15,-1,1366,265,119,48,0.92,5,-1,-1
17,-1,1367,265,107,40,0.59,2,-1,-1
17,-1,0,529,60,106,0.99,2,-1,-1
17,-1,858,228,62,22,0.28,2,-1,-1
17,-1,1366,265,119,48,0.92,5,-1,-1
17,-1,1073,249,58,48,0.39,5,-1,-1
18,-1,859,228,59,22,0.29,2,-1,-1
18,-1,0,532,64,104,1.0,2,-1,-1
18,-1,1366,265,119,48,0.92,5,-1,-1
18,-1,1367,265,107,40,0.59,2,-1,-1
18,-1,1073,250,57,47,0.35,5,-1,-1
19,-1,0,535,66,103,1.0,2,-1,-1
19,-1,1366,265,119,48,0.92,5,-1,-1
19,-1,856,228,63,23,0.31,2,-1,-1
19,-1,1073,248,58,48,0.43,5,-1,-1
19,-1,1366,265,108,40,0.57,2,-1,-1
20,-1,855,229,63,22,0.31,2,-1,-1
20,-1,1276,220,114,52,0.2,2,-1,-1
20,-1,1073,249,55,46,0.34,2,-1,-1
20,-1,0,535,69,103,1.0,2,-1,-1
20,-1,1361,263,115,42,0.58,2,-1,-1
22,-1,1275,219,114,53,0.2,2,-1,-1
22,-1,12,519,78,138,0.2,5,-1,-1
22,-1,1071,245,56,48,0.34,5,-1,-1
22,-1,1361,263,116,42,0.58,2,-1,-1
22,-1,854,229,65,23,0.3,2,-1,-1
23,-1,1071,243,58,49,0.41,5,-1,-1
23,-1,0,534,70,103,0.99,2,-1,-1
23,-1,1366,265,119,48,0.92,5,-1,-1
23,-1,855,228,65,23,0.31,2,-1,-1
23,-1,1361,263,116,42,0.58,2,-1,-1
24,-1,1313,241,73,38,0.48,5,-1,-1
24,-1,1,515,79,149,0.91,2,-1,-1
24,-1,1073,243,58,48,0.4,5,-1,-1
24,-1,1366,265,107,40,0.59,2,-1,-1
24,-1,856,228,64,23,0.3,2,-1,-1
25,-1,12,518,77,140,0.21,2,-1,-1
25,-1,1313,241,73,38,0.48,5,-1,-1
25,-1,1367,265,106,40,0.59,2,-1,-1
25,-1,1073,242,58,47,0.42,5,-1,-1
25,-1,858,228,60,22,0.3,2,-1,-1
26,-1,1313,241,73,38,0.48,5,-1,-1
26,-1,1367,265,106,40,0.59,2,-1,-1
26,-1,12,518,77,140,0.2,2,-1,-1
26,-1,1073,243,58,46,0.38,5,-1,-1
26,-1,858,228,62,23,0.28,2,-1,-1
28,-1,1313,241,73,38,0.48,5,-1,-1
28,-1,857,228,61,22,0.29,2,-1,-1
28,-1,1362,263,115,42,0.59,2,-1,-1
28,-1,1076,242,56,45,0.46,5,-1,-1
29,-1,857,228,61,23,0.31,2,-1,-1
29,-1,1362,264,116,42,0.59,2,-1,-1
29,-1,1313,241,73,38,0.48,5,-1,-1
29,-1,1076,242,56,45,0.45,5,-1,-1
30,-1,1362,264,116,42,0.59,2,-1,-1
30,-1,1313,241,73,38,0.48,5,-1,-1
30,-1,857,229,61,22,0.32,2,-1,-1
30,-1,1076,242,56,44,0.33,5,-1,-1
31,-1,1078,241,55,44,0.41,5,-1,-1
31,-1,1362,264,115,42,0.59,2,-1,-1
31,-1,1890,566,28,183,0.9,2,-1,-1
31,-1,857,229,61,22,0.31,2,-1,-1
31,-1,1276,220,113,52,0.21,5,-1,-1
31,-1,12,518,77,140,0.2,2,-1,-1
32,-1,857,229,61,22,0.31,2,-1,-1
32,-1,1077,241,56,42,0.35,5,-1,-1
32,-1,1362,263,116,42,0.59,2,-1,-1
32,-1,1890,566,28,183,0.9,2,-1,-1
32,-1,0,528,70,105,0.99,2,-1,-1
33,-1,1366,265,107,41,0.59,2,-1,-1
33,-1,857,228,63,22,0.3,5,-1,-1
33,-1,1080,243,52,39,0.29,2,-1,-1
33,-1,1872,600,45,194,0.99,2,-1,-1
33,-1,12,518,77,140,0.2,2,-1,-1
33,-1,1278,220,113,52,0.2,5,-1,-1
34,-1,1366,265,108,40,0.57,2,-1,-1
34,-1,1081,245,52,36,0.25,5,-1,-1
34,-1,864,229,48,17,0.23,2,-1,-1
34,-1,1314,242,72,39,0.45,5,-1,-1
34,-1,1870,601,49,221,0.99,2,-1,-1
34,-1,0,527,70,105,0.99,2,-1,-1
35,-1,864,229,48,17,0.23,2,-1,-1
35,-1,1315,243,71,40,0.42,5,-1,-1
35,-1,1851,543,64,353,0.65,2,-1,-1
35,-1,1,515,80,149,0.88,2,-1,-1
35,-1,1366,265,108,40,0.57,2,-1,-1
35,-1,1082,245,50,35,0.3,5,-1,-1
36,-1,1366,265,108,40,0.57,2,-1,-1
36,-1,864,229,48,17,0.23,2,-1,-1
36,-1,1,515,80,149,0.89,2,-1,-1
36,-1,1856,531,60,397,0.72,2,-1,-1
36,-1,1314,242,72,40,0.44,5,-1,-1
36,-1,1083,245,47,34,0.29,5,-1,-1
37,-1,1365,265,110,40,0.57,2,-1,-1
37,-1,1083,246,45,33,0.27,5,-1,-1
37,-1,864,229,47,17,0.24,2,-1,-1
37,-1,1,515,79,149,0.9,2,-1,-1
37,-1,1313,242,72,39,0.44,5,-1,-1
37,-1,1861,498,56,470,0.68,2,-1,-1
39,-1,1275,220,113,52,0.21,5,-1,-1
39,-1,855,229,63,23,0.28,2,-1,-1
39,-1,1084,244,44,33,0.34,5,-1,-1
39,-1,1360,264,117,41,0.59,2,-1,-1
39,-1,1872,449,46,562,0.46,2,-1,-1
40,-1,855,229,63,23,0.28,5,-1,-1
40,-1,1,515,79,149,0.9,2,-1,-1
40,-1,1275,220,113,52,0.21,5,-1,-1
40,-1,1360,264,117,41,0.58,2,-1,-1
40,-1,1311,242,74,37,0.44,2,-1,-1
41,-1,1,515,79,150,0.91,2,-1,-1
41,-1,1276,219,114,52,0.2,5,-1,-1
41,-1,1361,264,117,41,0.57,2,-1,-1
41,-1,855,228,62,23,0.23,2,-1,-1
41,-1,1077,239,49,38,0.21,5,-1,-1
42,-1,1086,245,41,29,0.2,2,-1,-1
42,-1,1,514,79,150,0.92,2,-1,-1
42,-1,1366,265,109,40,0.58,2,-1,-1
42,-1,1313,241,73,39,0.44,5,-1,-1
42,-1,864,229,46,17,0.23,5,-1,-1
43,-1,1079,238,47,36,0.25,5,-1,-1
43,-1,1364,265,122,48,0.92,2,-1,-1
43,-1,1,514,80,151,0.92,2,-1,-1
43,-1,1314,242,73,39,0.43,5,-1,-1
43,-1,865,229,46,17,0.24,2,-1,-1
44,-1,1080,238,46,36,0.28,5,-1,-1
44,-1,867,230,43,16,0.24,2,-1,-1
44,-1,1364,265,122,48,0.92,2,-1,-1
44,-1,1,514,80,151,0.92,2,-1,-1
44,-1,1314,242,74,40,0.42,5,-1,-1
45,-1,1,514,80,150,0.92,2,-1,-1
45,-1,1365,265,121,48,0.92,2,-1,-1
45,-1,1314,242,74,40,0.42,5,-1,-1
45,-1,1080,239,44,34,0.4,5,-1,-1
45,-1,866,229,45,17,0.24,2,-1,-1
47,-1,1313,241,73,39,0.46,5,-1,-1
47,-1,1363,265,122,48,0.92,2,-1,-1
47,-1,1081,241,42,33,0.48,5,-1,-1
47,-1,864,229,47,17,0.23,2,-1,-1
47,-1,1,515,79,150,0.91,2,-1,-1
48,-1,1,515,79,149,0.91,2,-1,-1
48,-1,1364,265,121,48,0.93,2,-1,-1
48,-1,1082,240,42,34,0.42,5,-1,-1
48,-1,1312,241,74,38,0.47,5,-1,-1
48,-1,854,228,64,23,0.24,2,-1,-1
49,-1,1082,240,40,33,0.42,2,-1,-1
49,-1,1364,265,120,48,0.93,2,-1,-1
49,-1,855,229,63,23,0.26,2,-1,-1
49,-1,1,516,80,149,0.91,2,-1,-1
49,-1,1885,337,30,210,0.34,5,-1,-1
49,-1,1311,241,75,38,0.46,5,-1,-1
50,-1,1,515,80,149,0.91,2,-1,-1
50,-1,1845,390,73,88,0.24,5,-1,-1
50,-1,855,229,64,23,0.25,2,-1,-1
50,-1,1311,241,75,38,0.45,5,-1,-1
50,-1,1083,239,38,32,0.44,5,-1,-1
50,-1,1365,265,119,48,0.93,2,-1,-1
51,-1,1311,241,75,38,0.46,5,-1,-1
51,-1,1084,238,36,30,0.46,5,-1,-1
51,-1,1364,265,121,48,0.92,2,-1,-1
51,-1,1791,367,119,123,0.63,5,-1,-1
51,-1,867,230,44,16,0.24,2,-1,-1
51,-1,1,515,79,150,0.92,2,-1,-1
52,-1,1312,241,75,39,0.46,5,-1,-1
52,-1,864,229,47,18,0.24,2,-1,-1
52,-1,1747,358,171,128,0.58,5,-1,-1
52,-1,1083,238,36,29,0.46,5,-1,-1
52,-1,1364,265,121,48,0.92,2,-1,-1
52,-1,1,514,79,151,0.92,2,-1,-1
53,-1,1699,354,220,133,0.34,5,-1,-1
53,-1,864,229,47,18,0.24,2,-1,-1
53,-1,1312,242,74,39,0.46,5,-1,-1
53,-1,1084,238,36,28,0.41,5,-1,-1
53,-1,1364,265,121,48,0.91,2,-1,-1
53,-1,1,514,79,150,0.9,2,-1,-1
54,-1,1365,265,121,47,0.9,2,-1,-1
54,-1,1312,242,74,39,0.44,5,-1,-1
54,-1,1085,238,35,28,0.32,5,-1,-1
54,-1,1646,355,267,140,0.77,5,-1,-1
54,-1,866,230,46,16,0.24,2,-1,-1
54,-1,1,515,80,150,0.9,2,-1,-1
56,-1,0,515,81,149,0.89,2,-1,-1
56,-1,1309,242,76,38,0.48,5,-1,-1
56,-1,1075,217,44,30,0.23,5,-1,-1
56,-1,867,230,44,16,0.24,2,-1,-1
56,34,1513,339,405,175,1.0,5,-1,-1
56,-1,1364,266,125,47,0.85,2,-1,-1
57,34,1450,337,423,173,1.0,5,-1,-1
57,-1,1,515,81,149,0.89,2,-1,-1
57,-1,1357,263,128,52,0.85,2,-1,-1
57,-1,1308,242,77,37,0.49,5,-1,-1
57,-1,1087,235,44,25,0.3,5,-1,-1
57,-1,866,230,45,15,0.25,2,-1,-1
58,-1,1,515,80,149,0.89,2,-1,-1
58,-1,855,229,63,22,0.25,2,-1,-1
58,-1,1308,241,77,37,0.48,5,-1,-1
58,-1,1356,263,129,53,0.88,2,-1,-1
58,34,1383,335,424,174,1.0,5,-1,-1
58,-1,1089,236,42,24,0.24,2,-1,-1
59,-1,1,515,80,149,0.89,2,-1,-1
59,-1,1356,263,130,54,0.88,2,-1,-1
59,-1,857,229,61,22,0.25,2,-1,-1
59,-1,1091,227,32,34,0.56,5,-1,-1
59,34,1307,336,424,174,1.0,5,-1,-1
59,-1,1327,356,384,134,0.4,5,-1,-1
62,34,1132,331,454,181,1.0,5,-1,-1
62,-1,0,515,81,148,0.84,2,-1,-1
62,-1,1365,266,124,48,0.83,2,-1,-1
62,-1,859,229,59,21,0.27,2,-1,-1
62,-1,1098,236,33,24,0.23,5,-1,-1
62,-1,1312,241,74,40,0.44,5,-1,-1
63,-1,1366,265,125,48,0.82,2,-1,-1
63,-1,1097,235,36,24,0.26,5,-1,-1
63,-1,1312,241,76,41,0.46,5,-1,-1
63,-1,0,516,81,147,0.82,2,-1,-1
63,34,1064,330,442,182,1.0,5,-1,-1
63,-1,859,229,59,21,0.27,2,-1,-1
64,-1,1,516,80,147,0.8,2,-1,-1
64,-1,1366,265,125,48,0.82,2,-1,-1
64,-1,1312,241,77,41,0.45,5,-1,-1
64,-1,1072,216,47,31,0.22,5,-1,-1
64,34,964,335,498,174,1.0,5,-1,-1
64,-1,858,229,61,22,0.23,2,-1,-1
67,-1,855,229,64,22,0.26,2,-1,-1
67,-1,1312,240,73,40,0.49,5,-1,-1
67,-1,1070,210,50,33,0.25,5,-1,-1
67,-1,1,516,79,147,0.83,2,-1,-1
67,-1,1363,265,126,49,0.9,2,-1,-1
67,34,742,334,496,170,1.0,5,-1,-1
68,-1,1,515,79,147,0.86,2,-1,-1
68,-1,1364,265,125,49,0.91,2,-1,-1
68,-1,1313,241,71,40,0.47,5,-1,-1
68,-1,855,229,65,22,0.26,2,-1,-1
68,-1,1071,209,50,35,0.28,5,-1,-1
68,34,674,331,484,174,1.0,5,-1,-1
70,34,447,344,507,169,1.0,5,-1,-1
70,-1,1364,265,125,49,0.9,2,-1,-1
70,-1,1072,210,50,35,0.32,5,-1,-1
70,-1,1,515,79,148,0.86,2,-1,-1
70,-1,858,229,62,22,0.24,2,-1,-1
70,-1,1315,242,71,40,0.44,5,-1,-1
71,-1,858,229,62,22,0.24,2,-1,-1
71,-1,1314,242,73,40,0.45,5,-1,-1
71,-1,1867,310,51,144,0.38,3,-1,-1
71,-1,0,514,80,149,0.84,2,-1,-1
71,-1,1364,266,127,48,0.89,2,-1,-1
71,34,309,350,506,169,1.0,5,-1,-1
71,-1,1071,211,49,34,0.31,5,-1,-1
72,-1,1840,310,78,150,0.25,3,-1,-1
72,-1,1363,266,127,48,0.89,2,-1,-1
72,-1,0,514,81,151,0.82,2,-1,-1
72,-1,1071,213,47,31,0.27,5,-1,-1
72,-1,1314,242,73,39,0.46,5,-1,-1
72,-1,858,229,61,22,0.23,2,-1,-1
72,34,237,350,494,171,1.0,5,-1,-1
73,-1,1072,213,45,30,0.2,5,-1,-1
73,-1,878,230,41,19,0.2,2,-1,-1
73,-1,1822,320,86,139,0.42,3,-1,-1
73,-1,1363,266,126,48,0.89,2,-1,-1
73,34,178,347,464,178,1.0,5,-1,-1
73,-1,0,513,81,153,0.84,2,-1,-1
73,-1,1313,242,74,39,0.47,5,-1,-1
74,-1,1802,317,109,142,0.54,3,-1,-1
74,-1,878,230,40,20,0.22,2,-1,-1
74,-1,1110,238,24,18,0.37,5,-1,-1
74,-1,1312,242,74,38,0.46,5,-1,-1
74,-1,0,513,81,155,0.87,2,-1,-1
74,-1,1364,266,124,48,0.89,2,-1,-1
74,34,173,347,453,175,1.0,5,-1,-1
76,34,9,355,367,182,1.0,5,-1,-1
76,-1,1364,266,123,48,0.91,2,-1,-1
76,-1,1,512,78,155,0.91,2,-1,-1
76,-1,1311,241,75,38,0.48,5,-1,-1
76,-1,1106,226,26,22,0.26,5,-1,-1
76,-1,879,230,39,20,0.21,2,-1,-1
76,-1,1802,317,109,142,0.54,3,-1,-1
77,-1,1731,289,178,165,0.7,3,-1,-1
77,-1,1,512,78,156,0.93,2,-1,-1
77,-1,1363,266,124,48,0.9,2,-1,-1
77,-1,16,373,319,139,0.38,5,-1,-1
77,-1,1310,241,76,39,0.51,5,-1,-1
77,-1,865,228,48,18,0.24,2,-1,-1
77,-1,1104,224,29,24,0.27,5,-1,-1
78,-1,1103,223,30,25,0.27,5,-1,-1
78,-1,862,226,50,22,0.94,2,-1,-1
78,-1,1363,266,124,48,0.89,2,-1,-1
78,-1,1,514,78,154,0.93,2,-1,-1
78,-1,1707,251,211,215,0.74,3,-1,-1
78,-1,1,389,181,116,0.29,5,-1,-1
78,-1,1310,241,76,39,0.52,5,-1,-1
78,-1,1890,391,28,84,0.83,2,-1,-1
79,-1,1,515,79,153,0.92,2,-1,-1
79,-1,1364,265,124,48,0.89,2,-1,-1
79,-1,1687,235,226,232,0.79,3,-1,-1
79,-1,0,395,177,106,0.3,5,-1,-1
79,-1,1310,242,77,39,0.5,5,-1,-1
79,-1,1102,222,31,27,0.23,5,-1,-1
79,-1,1890,391,28,84,0.83,2,-1,-1
79,-1,862,226,50,22,0.94,2,-1,-1
80,-1,1310,242,77,39,0.49,5,-1,-1
80,-1,1792,340,125,148,0.43,5,-1,-1
80,-1,879,231,38,19,0.21,2,-1,-1
80,-1,1103,221,30,28,0.21,5,-1,-1
80,-1,1670,221,241,246,0.77,3,-1,-1
80,-1,3,407,58,91,0.29,5,-1,-1
80,-1,1,516,78,152,0.9,2,-1,-1
80,-1,1364,265,124,48,0.88,2,-1,-1
81,-1,879,230,39,19,0.21,2,-1,-1
81,-1,1310,241,76,39,0.46,5,-1,-1
81,-1,1655,212,262,254,0.63,3,-1,-1
81,-1,1707,296,211,176,0.69,5,-1,-1
81,-1,1103,227,25,22,0.88,5,-1,-1
81,-1,1363,266,126,48,0.88,2,-1,-1
81,-1,1,515,79,152,0.89,2,-1,-1
82,-1,1,514,80,153,0.9,2,-1,-1
82,-1,1104,228,24,21,0.86,5,-1,-1
82,-1,1614,200,299,252,0.99,3,-1,-1
82,-1,1677,311,235,158,0.47,5,-1,-1
82,-1,879,230,39,19,0.21,2,-1,-1
82,-1,1310,241,75,38,0.44,5,-1,-1
82,-1,1363,266,127,48,0.86,2,-1,-1
83,-1,1672,198,240,210,0.35,3,-1,-1
83,-1,1,515,80,151,0.88,2,-1,-1
83,-1,1309,241,76,38,0.42,5,-1,-1
83,-1,1636,358,280,130,0.87,5,-1,-1
83,-1,1103,227,25,22,0.89,5,-1,-1
83,-1,862,226,50,22,0.94,2,-1,-1
83,-1,1356,264,129,52,0.85,2,-1,-1
84,-1,864,226,47,22,0.95,2,-1,-1
84,-1,1670,204,244,194,0.33,3,-1,-1
84,-1,1308,241,78,38,0.42,5,-1,-1
84,-1,1363,266,125,47,0.86,2,-1,-1
84,-1,1104,230,14,19,0.49,5,-1,-1
84,-1,1591,200,325,216,0.98,5,-1,-1
84,-1,1,516,80,149,0.85,2,-1,-1
85,-1,1306,241,81,38,0.41,5,-1,-1
85,-1,1521,322,384,162,0.84,5,-1,-1
85,-1,1104,227,24,21,0.96,5,-1,-1
85,-1,1586,204,320,195,0.35,3,-1,-1
85,-1,864,227,47,21,0.96,2,-1,-1
85,-1,1,517,80,147,0.83,2,-1,-1
85,-1,1355,264,132,51,0.85,2,-1,-1
85,7,1501,318,417,200,1.0,5,-1,-1
86,-1,1,517,80,147,0.83,2,-1,-1
86,-1,864,226,47,22,0.96,2,-1,-1
86,-1,1104,227,24,20,0.93,5,-1,-1
86,-1,1583,201,309,202,0.28,3,-1,-1
86,-1,1305,241,82,38,0.41,5,-1,-1
86,-1,1355,264,133,51,0.86,2,-1,-1
86,7,1437,319,460,199,1.0,5,-1,-1
87,-1,1356,264,133,52,0.87,2,-1,-1
87,7,1373,318,509,199,1.0,5,-1,-1
87,-1,1,517,80,147,0.83,2,-1,-1
87,-1,1507,196,397,249,0.99,3,-1,-1
87,-1,864,226,47,22,0.96,2,-1,-1
87,-1,1306,241,81,38,0.39,5,-1,-1
88,-1,865,226,47,22,0.96,2,-1,-1
88,-1,1,516,80,147,0.82,2,-1,-1
88,-1,1329,336,518,159,0.72,5,-1,-1
88,-1,1467,195,435,276,0.96,3,-1,-1
88,7,1309,316,558,199,1.0,5,-1,-1
88,-1,1358,265,132,52,0.86,2,-1,-1
88,-1,1104,227,25,20,0.91,5,-1,-1
89,-1,1254,319,548,178,0.21,3,-1,-1
89,-1,865,226,47,22,0.95,2,-1,-1
89,-1,1104,225,26,22,0.89,5,-1,-1
89,-1,1308,241,81,39,0.35,5,-1,-1
89,-1,1359,265,132,53,0.83,2,-1,-1
89,-1,1,516,80,147,0.82,2,-1,-1
89,7,1236,319,548,197,1.0,5,-1,-1
90,7,1164,322,537,194,1.0,5,-1,-1
90,-1,1360,265,129,53,0.78,2,-1,-1
90,-1,1308,242,82,39,0.38,5,-1,-1
90,-1,865,226,47,22,0.95,2,-1,-1
90,-1,1,517,80,147,0.82,2,-1,-1
90,-1,1104,224,26,22,0.9,5,-1,-1
90,-1,1465,202,433,267,0.69,3,-1,-1
91,-1,1307,242,83,40,0.42,5,-1,-1
91,-1,1,517,80,147,0.81,2,-1,-1
91,-1,1365,268,121,45,0.84,2,-1,-1
91,-1,865,226,47,22,0.95,2,-1,-1
91,-1,1103,225,27,21,0.93,5,-1,-1
91,-1,1404,194,499,261,0.95,3,-1,-1
91,7,1091,325,526,192,1.0,5,-1,-1
92,-1,1368,268,110,45,0.73,2,-1,-1
92,-1,1,517,80,147,0.82,2,-1,-1
92,7,1018,328,515,189,1.0,5,-1,-1
92,-1,1269,212,60,50,0.27,3,-1,-1
92,-1,1106,226,24,19,0.96,5,-1,-1
92,-1,1306,241,84,41,0.39,5,-1,-1
92,-1,865,226,46,22,0.96,2,-1,-1
652,-1,853,303,48,59,0.91,2,-1,-1
652,-1,889,305,96,88,0.79,5,-1,-1
652,-1,965,349,125,98,0.97,5,-1,-1
652,-1,1181,293,104,73,0.98,2,-1,-1
652,-1,1364,265,122,48,0.89,2,-1,-1
652,-1,877,255,52,29,0.65,5,-1,-1
652,-1,1008,237,36,27,0.6,5,-1,-1
652,-1,1315,240,66,35,0.33,5,-1,-1
652,-1,881,228,36,21,0.22,5,-1,-1
653,-1,1175,293,104,69,0.88,2,-1,-1
653,-1,964,350,130,100,0.97,2,-1,-1
653,-1,888,303,107,87,0.84,5,-1,-1
653,-1,1365,265,122,48,0.9,2,-1,-1
653,-1,1008,239,36,26,0.63,5,-1,-1
653,-1,878,256,51,28,0.67,5,-1,-1
653,-1,881,228,35,21,0.22,5,-1,-1
653,-1,1314,241,67,36,0.32,5,-1,-1
654,-1,879,257,49,26,0.63,5,-1,-1
654,-1,880,228,36,21,0.24,5,-1,-1
654,-1,965,350,131,102,0.95,2,-1,-1
654,-1,889,303,111,89,0.89,5,-1,-1
654,-1,1365,265,122,48,0.9,2,-1,-1
654,-1,853,302,48,58,0.85,2,-1,-1
654,-1,1156,292,106,65,0.75,2,-1,-1
654,-1,1007,239,35,25,0.64,5,-1,-1
654,-1,1314,241,67,36,0.32,5,-1,-1
655,-1,1314,241,68,37,0.36,5,-1,-1
655,-1,880,255,45,24,0.5,5,-1,-1
655,-1,853,302,51,59,0.75,2,-1,-1
655,-1,879,228,37,22,0.32,5,-1,-1
655,-1,892,302,114,92,0.92,5,-1,-1
655,-1,1151,293,107,66,0.97,2,-1,-1
655,-1,967,351,143,109,0.95,2,-1,-1
655,-1,1003,225,34,25,0.25,5,-1,-1
655,-1,1365,265,122,48,0.91,2,-1,-1
656,-1,879,252,44,24,0.39,5,-1,-1
656,-1,1314,241,68,37,0.39,5,-1,-1
656,-1,1005,239,36,25,0.67,5,-1,-1
656,-1,1364,265,123,48,0.91,2,-1,-1
656,-1,894,302,115,93,0.88,5,-1,-1
656,-1,1145,291,106,65,0.98,2,-1,-1
656,-1,970,350,145,116,0.94,2,-1,-1
656,-1,877,229,39,23,0.36,5,-1,-1
657,-1,898,311,108,99,0.78,5,-1,-1
657,-1,973,351,149,121,0.93,2,-1,-1
657,-1,877,229,40,23,0.38,5,-1,-1
657,-1,1138,289,105,65,0.93,2,-1,-1
657,-1,879,250,42,23,0.31,5,-1,-1
657,-1,1364,265,123,48,0.91,2,-1,-1
657,-1,1003,238,38,25,0.71,5,-1,-1
657,-1,1314,241,68,37,0.41,5,-1,-1
658,-1,878,250,43,24,0.28,5,-1,-1
658,-1,1313,241,70,38,0.4,5,-1,-1
658,-1,876,229,40,23,0.37,5,-1,-1
658,-1,1147,283,81,61,0.65,2,-1,-1
658,-1,1000,236,40,27,0.78,5,-1,-1
658,-1,1364,265,123,48,0.9,2,-1,-1
658,-1,899,313,109,98,0.2,5,-1,-1
658,-1,976,353,152,123,0.91,2,-1,-1
658,-1,850,302,58,64,0.48,2,-1,-1
660,-1,899,308,129,106,0.3,5,-1,-1
660,-1,877,229,39,22,0.35,5,-1,-1
660,-1,1365,265,121,48,0.89,2,-1,-1
660,-1,862,272,71,58,0.89,2,-1,-1
660,-1,1125,221,18,16,0.23,2,-1,-1
660,-1,1362,266,110,42,1.0,5,-1,-1
660,-1,980,356,162,127,0.92,2,-1,-1
660,-1,996,234,41,29,0.8,5,-1,-1
660,-1,880,251,41,22,0.22,5,-1,-1
671,-1,874,227,43,25,0.48,5,-1,-1
671,-1,1316,240,66,39,0.34,5,-1,-1
671,-1,866,275,62,41,0.8,5,-1,-1
671,-1,1367,264,121,49,0.83,2,-1,-1
671,-1,929,321,152,122,0.92,5,-1,-1
671,-1,832,305,92,80,0.98,2,-1,-1
671,-1,1052,397,205,164,0.67,2,-1,-1
671,-1,1083,269,70,50,0.98,2,-1,-1
671,-1,984,232,40,35,0.85,5,-1,-1
681,-1,980,342,197,156,0.92,5,-1,-1
681,-1,1183,468,318,256,0.41,2,-1,-1
681,-1,961,236,43,35,0.98,5,-1,-1
681,-1,1313,240,72,40,0.43,5,-1,-1
681,-1,876,229,41,24,0.52,5,-1,-1
681,-1,1069,261,62,44,0.8,2,-1,-1
681,-1,715,318,142,89,0.94,2,-1,-1
681,-1,861,279,80,62,0.94,5,-1,-1
681,-1,1366,265,122,48,0.88,2,-1,-1
691,-1,1312,240,72,39,0.43,5,-1,-1
691,-1,1071,255,51,34,0.88,2,-1,-1
691,-1,881,231,37,20,0.41,5,-1,-1
691,-1,1362,265,126,48,0.87,2,-1,-1
691,-1,1492,632,417,407,0.31,2,-1,-1
691,-1,865,285,92,79,0.98,5,-1,-1
691,-1,379,346,241,100,0.61,2,-1,-1
691,-1,1073,391,296,216,0.97,5,-1,-1
691,-1,942,240,52,38,0.98,5,-1,-1
701,-1,879,302,98,87,0.98,5,-1,-1
701,-1,918,246,57,38,0.98,5,-1,-1
701,-1,1365,264,124,50,0.91,2,-1,-1
701,-1,1077,249,47,30,0.72,2,-1,-1
701,-1,5,367,167,109,0.63,2,-1,-1
701,-1,1312,239,75,42,0.54,5,-1,-1
701,-1,879,228,36,23,0.31,5,-1,-1
701,-1,1282,495,450,306,0.99,5,-1,-1
711,-1,905,322,124,104,0.97,5,-1,-1
711,-1,897,254,65,43,0.97,5,-1,-1
711,-1,1365,265,121,48,0.91,2,-1,-1
711,-1,1082,246,41,26,0.61,2,-1,-1
711,-1,1312,240,72,40,0.43,5,-1,-1
711,-1,882,229,31,22,0.36,5,-1,-1
721,-1,882,257,63,56,0.98,5,-1,-1
721,-1,956,352,173,138,0.3,5,-1,-1
721,-1,1366,265,120,48,0.92,2,-1,-1
721,-1,1094,239,37,23,0.58,2,-1,-1
721,-1,1315,240,71,39,0.44,5,-1,-1
731,-1,1068,416,287,218,0.53,5,-1,-1
731,-1,1314,241,68,39,0.4,5,-1,-1
731,-1,879,229,37,20,0.43,5,-1,-1
731,-1,1101,237,31,21,0.46,2,-1,-1
731,-1,1364,265,122,47,0.92,2,-1,-1
731,-1,866,272,76,56,0.98,5,-1,-1
741,-1,1315,241,70,39,0.39,5,-1,-1
741,-1,1106,230,22,18,0.38,2,-1,-1
741,-1,875,230,43,22,0.46,5,-1,-1
741,-1,1366,264,122,49,0.91,2,-1,-1
741,-1,1418,614,488,373,0.31,5,-1,-1
741,-1,866,282,92,80,0.92,5,-1,-1
751,-1,1104,229,25,20,0.7,2,-1,-1
751,-1,883,299,133,94,0.96,5,-1,-1
751,-1,1363,266,125,47,0.92,2,-1,-1
751,-1,877,229,43,22,0.43,5,-1,-1
751,-1,1315,241,67,39,0.39,5,-1,-1
761,-1,1315,242,69,39,0.41,5,-1,-1
761,-1,877,230,41,20,0.25,5,-1,-1
761,-1,957,339,226,163,0.47,5,-1,-1
761,-1,1106,224,27,19,0.63,2,-1,-1
761,-1,1363,265,122,48,0.91,2,-1,-1
771,-1,1182,481,458,295,0.83,5,-1,-1
771,-1,1107,223,25,18,0.39,2,-1,-1
771,-1,1441,413,446,203,0.83,5,-1,-1
771,-1,1358,263,126,53,0.88,2,-1,-1
771,-1,1311,240,78,39,0.43,5,-1,-1
791,-1,1315,242,68,37,0.36,5,-1,-1
791,-1,511,360,393,128,0.2,5,-1,-1
791,-1,1363,266,125,49,0.89,2,-1,-1
801,-1,1310,242,75,37,0.4,5,-1,-1
801,-1,3,353,131,54,0.92,2,-1,-1
801,-1,1363,265,126,49,0.88,2,-1,-1
801,-1,57,368,379,116,0.57,5,-1,-1
801,-1,1102,217,33,18,0.23,2,-1,-1
811,-1,1361,266,128,48,0.91,2,-1,-1
811,-1,1314,240,70,37,0.41,5,-1,-1
811,-1,149,329,132,60,0.64,2,-1,-1
821,-1,1362,266,128,48,0.92,2,-1,-1
821,-1,239,312,66,49,0.4,2,-1,-1
821,-1,1313,240,72,37,0.46,5,-1,-1
821,-1,1108,221,27,16,0.24,2,-1,-1
831,-1,1362,266,127,48,0.92,2,-1,-1
831,-1,1315,241,68,37,0.41,5,-1,-1
831,-1,164,308,98,43,0.73,2,-1,-1
841,-1,1362,266,127,48,0.92,2,-1,-1
841,-1,32,305,128,47,0.94,2,-1,-1
841,-1,1314,240,69,38,0.44,5,-1,-1
851,-1,1363,265,126,48,0.9,2,-1,-1
851,-1,1,309,24,47,0.64,2,-1,-1
851,-1,1312,241,72,37,0.45,5,-1,-1
871,-1,1310,241,75,38,0.52,5,-1,-1
871,-1,1362,265,125,48,0.9,2,-1,-1
871,-1,0,452,134,141,0.64,2,-1,-1
891,-1,0,447,40,154,0.44,2,-1,-1
891,-1,878,229,41,20,0.32,5,-1,-1
891,-1,1314,241,69,40,0.46,5,-1,-1
891,-1,672,382,378,154,0.66,2,-1,-1
891,-1,1365,265,122,48,0.92,2,-1,-1
901,-1,1365,265,121,49,0.88,2,-1,-1
901,-1,1310,240,77,40,0.46,5,-1,-1
901,-1,46,429,430,142,1.0,2,-1,-1
901,-1,1094,344,244,138,0.89,5,-1,-1
911,-1,556,397,420,144,0.96,2,-1,-1
911,-1,875,229,45,22,0.23,5,-1,-1
911,-1,1319,241,64,40,0.43,5,-1,-1
911,-1,0,463,122,117,0.53,2,-1,-1
911,-1,1255,323,105,100,0.97,2,-1,-1
911,-1,1368,265,115,47,0.93,2,-1,-1
921,-1,1363,266,123,48,0.91,2,-1,-1
921,-1,950,354,293,133,0.91,2,-1,-1
921,-1,1316,240,65,38,0.45,5,-1,-1
921,-1,270,424,408,149,0.68,2,-1,-1
921,-1,876,230,42,20,0.3,5,-1,-1
921,-1,1191,299,106,82,0.93,2,-1,-1
931,-1,875,229,44,21,0.24,5,-1,-1
931,-1,1317,239,67,40,0.49,5,-1,-1
931,-1,1364,265,125,49,0.87,2,-1,-1
931,-1,1130,281,92,66,0.9,2,-1,-1
931,-1,834,378,335,145,0.96,2,-1,-1
931,-1,1191,320,154,111,0.99,2,-1,-1
941,-1,1320,240,62,37,0.38,5,-1,-1
941,-1,1365,265,120,49,0.88,2,-1,-1
941,-1,1095,271,68,52,0.96,2,-1,-1
941,-1,3,395,418,201,0.87,5,-1,-1
941,-1,1215,344,177,115,0.95,2,-1,-1
941,-1,1221,301,109,51,0.89,2,-1,-1
951,-1,1177,281,97,82,0.95,2,-1,-1
951,-1,1373,266,106,47,0.91,2,-1,-1
951,-1,423,384,547,179,0.88,5,-1,-1
951,-1,1289,321,106,91,0.99,2,-1,-1
951,-1,1324,242,52,38,0.43,5,-1,-1
951,-1,876,229,44,21,0.24,5,-1,-1
951,-1,1083,261,59,47,0.86,2,-1,-1
961,-1,0,557,395,208,1.0,2,-1,-1
961,-1,873,354,414,154,0.5,5,-1,-1
961,-1,1130,277,83,60,0.92,2,-1,-1
961,-1,1363,266,126,48,0.88,2,-1,-1
961,-1,1220,300,102,79,0.96,2,-1,-1
961,-1,1318,240,66,39,0.35,5,-1,-1
961,-1,8,452,223,159,0.33,2,-1,-1
961,-1,877,230,42,20,0.23,5,-1,-1
961,-1,1078,249,67,44,0.67,2,-1,-1
1302,-1,1067,317,106,84,0.99,2,-1,-1
1302,-1,902,320,98,81,0.98,2,-1,-1
1302,-1,1366,265,119,48,0.91,2,-1,-1
1302,-1,1313,241,72,37,0.42,5,-1,-1
1302,-1,877,229,43,22,0.25,5,-1,-1
1303,-1,1313,241,70,37,0.42,5,-1,-1
1303,-1,877,229,43,22,0.24,5,-1,-1
1303,-1,1366,265,119,48,0.91,2,-1,-1
1303,-1,902,320,98,81,0.98,2,-1,-1
1303,-1,1067,317,106,84,0.99,2,-1,-1
1305,-1,902,320,98,81,0.98,2,-1,-1
1305,-1,1366,265,118,48,0.92,2,-1,-1
1305,-1,877,229,43,22,0.23,5,-1,-1
1305,-1,1067,317,107,84,0.99,2,-1,-1
1305,-1,1314,241,66,37,0.43,5,-1,-1
1306,-1,877,229,43,21,0.23,5,-1,-1
1306,-1,1314,241,67,37,0.44,5,-1,-1
1306,-1,1366,265,118,48,0.92,2,-1,-1
1306,-1,902,320,98,81,0.98,2,-1,-1
1306,-1,1067,317,107,84,0.99,2,-1,-1
1307,-1,902,320,98,81,0.98,2,-1,-1
1307,-1,877,229,43,21,0.24,5,-1,-1
1307,-1,1067,317,107,84,0.99,2,-1,-1
1307,-1,1313,241,69,37,0.44,5,-1,-1
1307,-1,1366,265,118,48,0.92,2,-1,-1
1308,-1,1313,241,70,37,0.42,5,-1,-1
1308,-1,877,229,42,21,0.25,5,-1,-1
1308,-1,1067,317,106,84,0.99,2,-1,-1
1308,-1,902,320,98,81,0.98,2,-1,-1
1308,-1,1366,265,118,48,0.91,2,-1,-1
1309,-1,1314,241,69,37,0.41,5,-1,-1
1309,-1,877,229,42,21,0.25,5,-1,-1
1309,-1,1366,265,119,48,0.91,2,-1,-1
1309,-1,1067,317,105,84,0.99,2,-1,-1
1309,-1,902,320,98,81,0.98,2,-1,-1
1312,-1,877,229,42,22,0.26,5,-1,-1
1312,-1,1314,241,67,37,0.41,5,-1,-1
1312,-1,1067,317,106,84,0.99,2,-1,-1
1312,-1,902,319,99,82,0.98,2,-1,-1
1312,-1,1366,266,119,48,0.92,2,-1,-1
1316,-1,902,319,99,82,0.98,2,-1,-1
1316,-1,876,229,42,22,0.27,5,-1,-1
1316,-1,1067,317,105,84,0.99,2,-1,-1
1316,-1,1365,266,119,48,0.93,2,-1,-1
1316,-1,1314,241,65,36,0.44,5,-1,-1
1317,-1,1314,241,66,36,0.44,5,-1,-1
1317,-1,876,229,42,21,0.28,5,-1,-1
1317,-1,902,319,99,82,0.98,2,-1,-1
1317,-1,1067,317,106,84,0.99,2,-1,-1
1317,-1,1365,266,119,48,0.93,2,-1,-1
1318,-1,1067,317,106,84,0.99,2,-1,-1
1318,-1,902,319,99,82,0.98,2,-1,-1
1318,-1,1365,266,119,48,0.93,2,-1,-1
1318,-1,1313,240,67,36,0.46,5,-1,-1
1318,-1,877,229,42,21,0.28,5,-1,-1
1319,-1,877,229,42,21,0.27,5,-1,-1
1319,-1,1313,240,68,37,0.46,5,-1,-1
1319,-1,1365,266,118,48,0.93,2,-1,-1
1319,-1,901,319,99,82,0.98,2,-1,-1
1319,-1,1067,317,106,84,0.99,2,-1,-1
1320,-1,1312,240,69,37,0.47,5,-1,-1
1320,-1,1366,266,118,48,0.93,2,-1,-1
1320,-1,901,319,99,81,0.98,2,-1,-1
1320,-1,1067,317,106,85,0.99,2,-1,-1
1320,-1,876,229,42,22,0.27,5,-1,-1
1321,-1,902,319,99,82,0.98,2,-1,-1
1321,-1,1366,266,117,48,0.92,2,-1,-1
1321,-1,1312,240,70,37,0.47,5,-1,-1
1321,-1,5,539,355,225,0.22,2,-1,-1
1321,-1,876,229,43,22,0.28,5,-1,-1
1321,-1,1067,317,106,85,0.99,2,-1,-1
1322,-1,1067,317,106,84,0.99,2,-1,-1
1322,-1,902,319,99,82,0.98,2,-1,-1
1322,-1,1366,266,117,48,0.92,2,-1,-1
1322,-1,1312,240,70,37,0.43,5,-1,-1
1322,-1,5,547,372,203,0.31,2,-1,-1
1322,-1,876,229,43,22,0.29,5,-1,-1
1323,-1,0,550,396,203,0.23,2,-1,-1
1323,-1,875,229,44,22,0.29,5,-1,-1
1323,-1,902,319,98,82,0.98,2,-1,-1
1323,-1,1067,317,107,84,0.99,2,-1,-1
1323,-1,1366,266,117,47,0.91,2,-1,-1
1323,-1,1312,240,70,36,0.38,5,-1,-1
1324,-1,1067,317,107,83,0.99,2,-1,-1
1324,-1,361,525,627,235,0.21,5,-1,-1
1324,-1,906,317,97,86,0.98,2,-1,-1
1324,-1,874,228,45,22,0.28,2,-1,-1
1324,-1,1366,266,117,47,0.91,2,-1,-1
1324,-1,1313,240,69,36,0.35,5,-1,-1
1325,-1,630,525,627,235,0.22,5,-1,-1
1325,-1,906,317,98,87,0.98,2,-1,-1
1325,-1,1366,265,117,47,0.91,2,-1,-1
1325,-1,1314,240,69,37,0.36,5,-1,-1
1325,-1,874,228,46,22,0.29,2,-1,-1
1325,-1,1067,317,107,84,0.99,2,-1,-1
1326,-1,1067,317,107,84,0.99,2,-1,-1
1326,-1,906,317,98,86,0.98,2,-1,-1
1326,-1,874,229,46,22,0.29,2,-1,-1
1326,-1,1365,265,118,47,0.92,2,-1,-1
1326,-1,1314,240,69,37,0.38,5,-1,-1
1326,-1,909,525,627,235,0.22,5,-1,-1
1328,-1,1482,525,420,235,0.21,2,-1,-1
1328,-1,1067,317,107,84,0.99,2,-1,-1
1328,-1,875,229,45,22,0.26,5,-1,-1
1328,-1,1313,240,69,37,0.35,5,-1,-1
1328,-1,1366,265,118,47,0.92,2,-1,-1
1328,-1,906,318,97,85,0.98,2,-1,-1
1329,-1,906,318,97,85,0.98,2,-1,-1
1329,-1,1366,266,117,47,0.91,2,-1,-1
1329,-1,1313,241,69,37,0.33,5,-1,-1
1329,-1,1067,317,107,83,0.99,2,-1,-1
1329,-1,1743,513,160,220,0.24,2,-1,-1
1329,-1,875,229,45,22,0.25,5,-1,-1
1329,-1,1759,354,150,100,0.24,2,-1,-1
1330,-1,875,229,44,21,0.24,5,-1,-1
1330,-1,1067,318,108,83,0.99,2,-1,-1
1330,-1,1312,241,70,37,0.33,5,-1,-1
1330,-1,1602,348,300,110,0.33,2,-1,-1
1330,-1,1365,266,119,47,0.91,2,-1,-1
1330,-1,906,318,97,85,0.98,2,-1,-1
1332,-1,875,229,45,22,0.22,5,-1,-1
1332,-1,1270,351,300,123,0.22,2,-1,-1
1332,-1,1314,241,70,37,0.38,5,-1,-1
1332,-1,1365,266,123,49,0.91,2,-1,-1
1332,-1,906,317,97,87,0.98,2,-1,-1
1332,-1,1065,318,111,82,0.99,2,-1,-1
1334,-1,936,351,300,119,0.27,2,-1,-1
1334,-1,1314,241,71,37,0.42,5,-1,-1
1334,-1,891,326,122,74,0.64,2,-1,-1
1334,-1,1366,265,122,49,0.91,2,-1,-1
1334,-1,874,228,46,23,0.21,5,-1,-1
1334,-1,1054,328,136,72,0.65,2,-1,-1
1335,-1,889,327,125,72,0.63,2,-1,-1
1335,-1,753,347,300,116,0.3,2,-1,-1
1335,-1,1365,266,123,48,0.9,2,-1,-1
1335,-1,1056,327,133,73,0.65,2,-1,-1
1335,-1,875,228,46,24,0.23,5,-1,-1
1335,-1,1312,240,73,37,0.37,5,-1,-1
1336,-1,774,352,300,123,0.27,2,-1,-1
1336,-1,1068,318,108,83,0.97,2,-1,-1
1336,-1,1365,266,123,48,0.9,2,-1,-1
1336,-1,888,326,125,73,0.64,2,-1,-1
1336,-1,1312,241,72,37,0.37,5,-1,-1
1336,-1,875,228,46,24,0.22,5,-1,-1
1337,-1,1312,240,72,37,0.36,5,-1,-1
1337,-1,875,228,46,24,0.23,5,-1,-1
1337,-1,1067,318,107,83,0.99,2,-1,-1
1337,-1,903,319,98,80,0.97,2,-1,-1
1337,-1,442,358,300,123,0.21,2,-1,-1
1337,-1,1364,266,123,48,0.9,2,-1,-1
1338,-1,875,228,45,24,0.21,5,-1,-1
1338,-1,442,355,300,123,0.22,2,-1,-1
1338,-1,1312,240,72,37,0.37,5,-1,-1
1338,-1,1364,266,123,48,0.9,2,-1,-1
1338,-1,1068,317,107,83,0.99,2,-1,-1
1338,-1,906,316,98,87,0.98,2,-1,-1
1339,-1,875,228,45,24,0.21,5,-1,-1
1339,-1,1068,317,107,83,0.99,2,-1,-1
1339,-1,906,317,98,87,0.98,2,-1,-1
1339,-1,1365,266,123,48,0.9,2,-1,-1
1339,-1,1312,240,72,37,0.37,5,-1,-1
1339,-1,132,369,300,123,0.2,2,-1,-1
1339,-1,875,228,45,24,0.21,5,-1,-1
1340,-1,1,375,300,123,0.25,2,-1,-1
1340,-1,1068,318,107,83,0.99,2,-1,-1
1340,-1,1365,266,122,48,0.9,2,-1,-1
1340,-1,901,319,98,83,0.98,2,-1,-1
1340,-1,1312,241,72,37,0.37,5,-1,-1
1341,-1,1312,241,72,37,0.37,5,-1,-1
1341,-1,1365,266,122,48,0.9,2,-1,-1
1341,-1,901,319,98,82,0.98,2,-1,-1
1341,-1,1068,317,107,83,0.99,2,-1,-1
1341,-1,1,375,200,123,0.25,2,-1,-1
1341,-1,875,228,45,24,0.21,5,-1,-1
1342,-1,906,317,97,86,0.98,2,-1,-1
1342,-1,1068,317,107,83,0.99,2,-1,-1
1342,-1,875,228,45,24,0.2,5,-1,-1
1342,-1,1312,241,72,37,0.37,5,-1,-1
1342,-1,1365,266,122,48,0.9,2,-1,-1
1343,-1,1068,317,106,83,0.99,2,-1,-1
1343,-1,906,317,97,86,0.98,2,-1,-1
1343,-1,1364,266,122,48,0.91,2,-1,-1
1343,-1,1312,240,71,36,0.38,5,-1,-1
1343,-1,875,228,45,24,0.2,5,-1,-1
1344,-1,1068,317,106,83,0.99,2,-1,-1
1344,-1,1364,266,123,48,0.91,2,-1,-1
1344,-1,1312,240,71,37,0.38,5,-1,-1
1344,-1,875,228,45,24,0.21,5,-1,-1
1344,-1,906,317,97,86,0.98,2,-1,-1
1346,-1,875,228,45,24,0.21,5,-1,-1
1346,-1,1312,240,72,37,0.38,5,-1,-1
1346,-1,1364,266,123,48,0.9,2,-1,-1
1346,-1,906,317,97,86,0.98,2,-1,-1
1346,-1,1068,317,107,83,0.99,2,-1,-1
1347,-1,1312,240,72,37,0.39,5,-1,-1
1347,-1,875,228,46,24,0.21,5,-1,-1
1347,-1,1,597,150,190,0.21,2,-1,-1
1347,-1,1364,266,123,48,0.9,2,-1,-1
1347,-1,906,317,97,86,0.98,2,-1,-1
1347,-1,1067,317,107,83,0.99,2,-1,-1
1348,-1,875,228,45,23,0.24,5,-1,-1
1348,-1,1312,241,71,37,0.38,5,-1,-1
1348,-1,1364,266,123,48,0.9,2,-1,-1
1348,-1,1067,317,107,83,0.99,2,-1,-1
1348,-1,906,317,98,86,0.98,2,-1,-1
1348,-1,1,565,320,200,0.27,2,-1,-1
1349,-1,1365,265,123,48,0.89,2,-1,-1
1349,-1,1067,317,107,84,0.99,2,-1,-1
1349,-1,906,317,97,87,0.98,2,-1,-1
1349,-1,108,563,600,194,0.27,2,-1,-1
1349,-1,1313,241,70,37,0.38,5,-1,-1
1349,-1,875,229,45,23,0.29,5,-1,-1
1350,-1,1067,317,107,84,0.99,2,-1,-1
1350,-1,902,318,98,82,0.98,2,-1,-1
1350,-1,1365,265,124,48,0.89,2,-1,-1
1350,-1,1313,241,69,38,0.38,5,-1,-1
1350,-1,280,563,559,194,0.31,2,-1,-1
1350,-1,874,229,46,23,0.31,5,-1,-1
1351,-1,874,229,46,23,0.31,5,-1,-1
1351,-1,906,317,98,87,0.98,2,-1,-1
1351,-1,1067,317,107,84,0.99,2,-1,-1
1351,-1,1365,265,124,49,0.89,2,-1,-1
1351,-1,1314,240,69,38,0.41,5,-1,-1
1351,-1,535,563,559,194,0.21,2,-1,-1
1352,-1,1365,264,124,49,0.89,2,-1,-1
1352,-1,906,317,98,86,0.98,2,-1,-1
1352,-1,1067,317,107,85,0.99,2,-1,-1
1352,-1,800,586,559,194,0.25,2,-1,-1
1352,-1,1314,240,68,39,0.43,5,-1,-1
1352,-1,873,228,47,23,0.29,5,-1,-1
1353,-1,1067,584,559,194,0.21,2,-1,-1
1353,-1,905,317,98,86,0.98,2,-1,-1
1353,-1,1314,240,68,39,0.43,5,-1,-1
1353,-1,1067,317,107,85,0.99,2,-1,-1
1353,-1,874,229,46,22,0.29,5,-1,-1
1353,-1,1364,264,124,49,0.9,2,-1,-1
1354,-1,1313,240,69,38,0.41,5,-1,-1
1354,-1,902,319,98,81,0.98,2,-1,-1
1354,-1,1365,264,124,49,0.89,2,-1,-1
1354,-1,1313,571,531,194,0.21,2,-1,-1
1354,-1,874,229,45,22,0.27,5,-1,-1
1354,-1,1067,317,107,85,0.99,2,-1,-1
1355,-1,1365,264,123,49,0.89,2,-1,-1
1355,-1,1067,317,107,84,0.99,2,-1,-1
1355,-1,875,229,45,22,0.24,5,-1,-1
1355,-1,1575,552,400,194,0.22,2,-1,-1
1355,-1,1313,241,69,38,0.39,5,-1,-1
1355,-1,902,319,98,81,0.98,2,-1,-1
1356,-1,902,319,98,81,0.98,2,-1,-1
1356,-1,1313,241,69,38,0.38,5,-1,-1
1356,-1,1366,265,122,48,0.89,2,-1,-1
1356,-1,1067,317,107,84,0.99,2,-1,-1
1356,-1,1800,547,44,194,0.21,2,-1,-1
1356,-1,875,229,44,22,0.24,5,-1,-1
1357,-1,1067,317,107,84,0.99,2,-1,-1
1357,-1,902,320,98,80,0.98,2,-1,-1
1357,-1,1366,265,122,48,0.89,2,-1,-1
1357,-1,1313,241,69,38,0.37,5,-1,-1
1357,-1,876,229,44,22,0.23,5,-1,-1
1358,-1,1366,265,122,48,0.9,2,-1,-1
1358,-1,1313,241,69,38,0.38,5,-1,-1
1358,-1,902,320,97,80,0.98,2,-1,-1
1358,-1,1067,317,107,84,0.99,2,-1,-1
1358,-1,876,229,44,22,0.23,5,-1,-1
1359,-1,877,229,43,21,0.23,5,-1,-1
1359,-1,1067,317,107,83,0.99,2,-1,-1
1359,-1,1365,265,122,48,0.9,2,-1,-1
1359,-1,902,320,98,80,0.98,2,-1,-1
1359,-1,1313,241,70,38,0.39,5,-1,-1
1360,-1,877,230,43,21,0.23,5,-1,-1
1360,-1,902,320,98,80,0.98,2,-1,-1
1360,-1,1365,266,122,48,0.91,2,-1,-1
1360,-1,1313,241,70,38,0.4,5,-1,-1
1360,-1,1067,317,107,83,0.99,2,-1,-1
1361,-1,1313,241,70,38,0.41,5,-1,-1
1361,-1,1365,266,123,48,0.91,2,-1,-1
1361,-1,902,320,98,80,0.98,2,-1,-1
1361,-1,877,230,42,21,0.24,5,-1,-1
1361,-1,1067,317,107,83,0.99,2,-1,-1
1362,-1,877,230,42,21,0.24,5,-1,-1
1362,-1,1365,266,123,48,0.91,2,-1,-1
1362,-1,902,319,98,81,0.98,2,-1,-1
1362,-1,1067,317,107,83,0.99,2,-1,-1
1362,-1,1313,241,70,38,0.4,5,-1,-1
1363,-1,1067,317,107,83,0.99,2,-1,-1
1363,-1,906,317,97,86,0.98,2,-1,-1
1363,-1,1365,265,123,48,0.91,2,-1,-1
1363,-1,1313,241,70,38,0.41,5,-1,-1
1363,-1,877,230,42,21,0.24,5,-1,-1
1364,-1,906,318,97,86,0.98,2,-1,-1
1364,-1,1313,241,71,38,0.42,5,-1,-1
1364,-1,1365,265,122,48,0.91,2,-1,-1
1364,-1,1067,317,106,83,0.99,2,-1,-1
1364,-1,877,230,42,21,0.24,5,-1,-1
1365,-1,1313,241,71,38,0.42,5,-1,-1
1365,-1,877,230,42,21,0.25,5,-1,-1
1365,-1,1068,317,106,83,0.99,2,-1,-1
1365,-1,1365,265,123,48,0.91,2,-1,-1
1365,-1,906,318,97,86,0.98,2,-1,-1
1366,-1,1068,317,106,83,0.99,2,-1,-1
1366,-1,1365,265,123,48,0.91,2,-1,-1
1366,-1,1313,241,70,38,0.41,5,-1,-1
1366,-1,877,230,42,21,0.27,5,-1,-1
1366,-1,902,320,98,81,0.98,2,-1,-1
1367,-1,1364,265,123,48,0.91,2,-1,-1
1367,-1,1068,317,106,83,0.99,2,-1,-1
1367,-1,876,230,43,21,0.29,5,-1,-1
1367,-1,902,320,98,81,0.98,2,-1,-1
1367,-1,1314,241,69,38,0.4,5,-1,-1
1368,-1,1068,317,106,84,0.99,2,-1,-1
1368,-1,877,230,43,21,0.29,5,-1,-1
1368,-1,1314,241,69,38,0.4,5,-1,-1
1368,-1,1364,266,123,48,0.91,2,-1,-1
1368,-1,902,320,98,81,0.98,2,-1,-1
1369,-1,877,230,43,21,0.28,5,-1,-1
1369,-1,1315,241,69,38,0.41,5,-1,-1
1369,-1,1068,317,106,84,0.99,2,-1,-1
1369,-1,1364,266,123,48,0.91,2,-1,-1
1369,-1,902,320,98,81,0.98,2,-1,-1
1370,-1,877,230,43,21,0.29,5,-1,-1
1370,-1,1364,266,122,47,0.91,2,-1,-1
1370,-1,1315,241,68,38,0.41,5,-1,-1
1370,-1,903,320,98,81,0.98,2,-1,-1
1370,-1,1068,317,106,84,0.99,2,-1,-1
1371,-1,1364,266,122,47,0.92,2,-1,-1
1371,-1,903,319,97,81,0.98,2,-1,-1
1371,-1,1068,317,106,84,0.99,2,-1,-1
1371,-1,877,230,43,21,0.29,5,-1,-1
1371,-1,1315,241,68,38,0.41,5,-1,-1
1372,-1,902,319,97,81,0.98,2,-1,-1
1372,-1,877,230,43,21,0.29,5,-1,-1
1372,-1,1315,241,68,38,0.4,5,-1,-1
1372,-1,1364,266,122,48,0.92,2,-1,-1
1372,-1,1068,317,106,84,0.99,2,-1,-1
1373,-1,1365,266,122,48,0.92,2,-1,-1
1373,-1,1315,241,69,38,0.39,5,-1,-1
1373,-1,877,230,43,21,0.29,5,-1,-1
1373,-1,1068,317,106,84,0.99,2,-1,-1
1373,-1,902,319,97,81,0.98,2,-1,-1
1374,-1,877,230,43,21,0.29,5,-1,-1
1374,-1,1315,241,68,38,0.39,5,-1,-1
1374,-1,1365,266,122,48,0.92,2,-1,-1
1374,-1,902,320,97,81,0.98,2,-1,-1
1374,-1,1068,317,106,84,0.99,2,-1,-1
1375,-1,1068,317,106,84,0.99,2,-1,-1
1375,-1,902,320,97,81,0.98,2,-1,-1
1375,-1,1365,266,122,48,0.92,2,-1,-1
1375,-1,1315,241,68,38,0.39,5,-1,-1
1375,-1,877,230,43,21,0.29,5,-1,-1
1376,-1,1068,317,106,84,0.99,2,-1,-1
1376,-1,902,320,97,81,0.98,2,-1,-1
1376,-1,1365,266,122,48,0.92,2,-1,-1
1376,-1,1315,241,68,38,0.39,5,-1,-1
1376,-1,877,230,43,21,0.29,5,-1,-1
1377,-1,1068,317,106,83,0.99,2,-1,-1
1377,-1,902,320,97,81,0.98,2,-1,-1
1377,-1,877,230,43,21,0.29,5,-1,-1
1377,-1,1315,241,68,38,0.39,5,-1,-1
1377,-1,1365,266,122,48,0.92,2,-1,-1
1378,-1,902,320,97,81,0.98,2,-1,-1
1378,-1,1365,266,122,48,0.92,2,-1,-1
1378,-1,1315,241,68,38,0.4,5,-1,-1
1378,-1,876,229,43,21,0.3,5,-1,-1
1378,-1,1068,317,106,83,0.99,2,-1,-1
1380,-1,1068,317,106,83,0.99,2,-1,-1
1380,-1,876,229,43,21,0.32,5,-1,-1
1380,-1,1315,240,68,38,0.42,5,-1,-1
1380,-1,1365,266,121,48,0.92,2,-1,-1
1380,-1,902,319,98,81,0.98,2,-1,-1
1381,-1,1068,317,106,83,0.99,2,-1,-1
1381,-1,876,229,43,21,0.31,5,-1,-1
1381,-1,1315,240,67,38,0.41,5,-1,-1
1381,-1,1365,266,121,47,0.92,2,-1,-1
1381,-1,902,319,98,81,0.98,2,-1,-1
1383,-1,1069,317,107,84,0.99,2,-1,-1
1383,-1,906,318,98,86,0.98,2,-1,-1
1383,-1,1365,266,122,47,0.92,2,-1,-1
1383,-1,876,229,43,21,0.3,5,-1,-1
1383,-1,1316,241,67,38,0.39,5,-1,-1
1384,-1,1069,317,109,84,0.99,2,-1,-1
1384,-1,1364,266,122,47,0.91,2,-1,-1
1384,-1,906,318,99,86,0.98,2,-1,-1
1384,-1,876,229,43,21,0.29,5,-1,-1
1384,-1,1316,241,67,37,0.39,5,-1,-1
1388,-1,1316,241,68,38,0.37,5,-1,-1
1388,-1,876,230,42,21,0.27,5,-1,-1
1388,-1,1365,266,122,47,0.91,2,-1,-1
1388,-1,912,327,101,80,0.98,2,-1,-1
1388,-1,1071,320,117,83,0.99,2,-1,-1
1389,-1,1072,320,119,83,0.99,2,-1,-1
1389,-1,876,230,42,21,0.26,5,-1,-1
1389,-1,912,330,102,77,0.99,2,-1,-1
1389,-1,1315,241,69,38,0.38,5,-1,-1
1389,-1,1365,266,122,47,0.91,2,-1,-1
1391,-1,876,230,42,21,0.26,5,-1,-1
1391,-1,1364,266,123,48,0.91,2,-1,-1
1391,-1,914,331,101,79,0.99,2,-1,-1
1391,-1,1073,321,123,84,0.99,2,-1,-1
1391,-1,1314,241,70,38,0.39,5,-1,-1
1392,-1,1364,266,123,48,0.91,2,-1,-1
1392,-1,1315,241,68,38,0.39,5,-1,-1
1392,-1,876,230,42,20,0.24,5,-1,-1
1392,-1,915,330,102,82,0.99,2,-1,-1
1392,-1,1075,322,124,83,0.99,2,-1,-1
1394,-1,918,332,105,85,0.99,2,-1,-1
1394,-1,1078,323,125,83,0.99,2,-1,-1
1394,-1,1364,266,123,48,0.91,2,-1,-1
1394,-1,1316,241,67,38,0.38,5,-1,-1
1394,-1,877,230,42,20,0.21,5,-1,-1
1395,-1,920,334,107,86,0.99,2,-1,-1
1395,-1,1082,323,135,85,0.99,2,-1,-1
1395,-1,1364,266,124,48,0.92,2,-1,-1
1395,-1,1316,241,68,38,0.39,5,-1,-1
1395,-1,877,230,41,20,0.21,5,-1,-1
1396,-1,921,337,111,87,0.99,2,-1,-1
1396,-1,1316,241,68,38,0.39,5,-1,-1
1396,-1,1364,266,124,48,0.92,2,-1,-1
1396,-1,877,230,41,20,0.22,5,-1,-1
1396,-1,1084,326,138,83,0.99,2,-1,-1
1397,-1,922,340,113,86,1.0,2,-1,-1
1397,-1,1316,241,68,38,0.4,5,-1,-1
1397,-1,877,230,41,20,0.23,5,-1,-1
1397,-1,1364,266,124,48,0.92,2,-1,-1
1397,-1,1087,326,138,83,0.99,2,-1,-1
1398,-1,923,342,117,86,1.0,2,-1,-1
1398,-1,1092,327,137,83,0.99,2,-1,-1
1398,-1,1364,266,124,48,0.9,2,-1,-1
1398,-1,1316,241,68,38,0.36,5,-1,-1
1398,-1,877,230,42,20,0.22,5,-1,-1
1399,-1,877,230,43,21,0.21,5,-1,-1
1399,-1,1364,266,124,48,0.89,2,-1,-1
1399,-1,925,344,119,85,1.0,2,-1,-1
1399,-1,1094,327,140,86,0.99,2,-1,-1
1399,-1,1315,241,68,39,0.34,5,-1,-1
1400,-1,1096,328,144,85,1.0,2,-1,-1
1400,-1,927,346,123,83,0.99,2,-1,-1
1400,-1,877,230,43,21,0.21,5,-1,-1
1400,-1,1315,241,68,39,0.31,5,-1,-1
1400,-1,1363,266,124,48,0.87,2,-1,-1
1401,-1,1315,241,68,39,0.32,5,-1,-1
1401,-1,1363,266,125,48,0.87,2,-1,-1
1401,-1,931,347,123,95,0.99,2,-1,-1
1401,-1,1100,330,147,86,1.0,2,-1,-1
1401,-1,877,230,43,21,0.21,5,-1,-1
1403,-1,1362,266,126,48,0.88,2,-1,-1
1403,-1,935,353,134,93,0.99,2,-1,-1
1403,-1,877,230,43,20,0.2,5,-1,-1
1403,-1,1112,336,147,89,1.0,2,-1,-1
1403,-1,1315,241,68,39,0.33,5,-1,-1
1404,-1,936,355,140,93,1.0,2,-1,-1
1404,-1,1362,266,125,48,0.88,5,-1,-1
1404,-1,877,230,43,20,0.2,5,-1,-1
1404,-1,1114,337,153,90,1.0,2,-1,-1
1404,-1,1362,266,125,48,0.88,2,-1,-1
1405,-1,1118,338,159,92,1.0,2,-1,-1
1405,-1,877,230,43,20,0.2,5,-1,-1
1405,-1,1315,241,68,39,0.35,5,-1,-1
1405,-1,1363,266,125,48,0.87,2,-1,-1
1405,-1,936,357,147,96,1.0,2,-1,-1
1406,-1,1315,240,68,40,0.35,5,-1,-1
1406,-1,1125,339,160,93,1.0,2,-1,-1
1406,-1,938,359,155,100,0.99,2,-1,-1
1406,-1,1363,266,125,48,0.86,2,-1,-1
1406,-1,877,230,43,20,0.2,5,-1,-1
1407,-1,942,363,159,103,0.99,2,-1,-1
1407,-1,1134,341,155,91,0.99,2,-1,-1
1407,-1,1358,264,128,52,0.85,2,-1,-1
1407,-1,877,230,43,20,0.2,5,-1,-1
1407,-1,1315,240,68,39,0.36,5,-1,-1
1408,-1,1144,344,167,89,0.99,2,-1,-1
1408,-1,948,367,158,105,0.99,2,-1,-1
1408,-1,1358,264,128,52,0.85,2,-1,-1
1408,-1,1315,240,68,39,0.36,5,-1,-1
1408,-1,877,230,43,20,0.2,5,-1,-1
1409,-1,965,369,153,110,0.99,2,-1,-1
1409,-1,1148,348,185,95,0.99,2,-1,-1
1409,-1,1315,240,68,39,0.34,5,-1,-1
1409,-1,877,230,43,20,0.2,5,-1,-1
1409,-1,1358,264,128,52,0.84,2,-1,-1
1410,-1,877,230,43,20,0.2,5,-1,-1
1410,-1,1358,264,128,52,0.85,2,-1,-1
1410,-1,1153,348,190,97,0.91,2,-1,-1
1410,-1,969,377,163,113,0.99,2,-1,-1
1410,-1,1315,240,68,39,0.33,5,-1,-1
1411,-1,1315,239,68,40,0.35,5,-1,-1
1411,-1,1358,264,127,53,0.87,2,-1,-1
1411,-1,1176,352,191,93,1.0,2,-1,-1
1411,-1,877,230,43,20,0.2,5,-1,-1
1411,-1,974,379,169,115,0.99,2,-1,-1
1412,-1,877,230,43,20,0.2,5,-1,-1
1412,-1,1315,239,68,40,0.37,5,-1,-1
1412,-1,1359,264,127,53,0.88,2,-1,-1
1412,-1,978,384,169,114,0.99,2,-1,-1
1412,-1,1183,352,196,96,0.99,2,-1,-1
1413,-1,877,230,43,20,0.2,5,-1,-1
1413,-1,1315,239,67,41,0.38,5,-1,-1
1413,-1,1359,263,126,54,0.88,2,-1,-1
1413,-1,1198,354,217,98,0.99,2,-1,-1
1413,-1,992,387,179,125,0.99,2,-1,-1
1414,-1,1315,239,68,41,0.39,5,-1,-1
1414,-1,1359,263,126,54,0.87,2,-1,-1
1414,-1,1203,356,226,100,0.97,2,-1,-1
1414,-1,994,395,191,122,0.99,2,-1,-1
1414,-1,877,230,43,20,0.2,5,-1,-1
1415,-1,1316,239,68,41,0.38,5,-1,-1
1415,-1,1000,403,198,133,0.91,2,-1,-1
1415,-1,877,230,43,20,0.2,5,-1,-1
1415,-1,1229,357,233,103,1.0,2,-1,-1
1415,-1,1359,263,127,54,0.87,2,-1,-1
1417,-1,1359,262,127,56,0.87,2,-1,-1
1417,-1,877,230,43,20,0.2,5,-1,-1
1417,-1,1315,239,68,42,0.38,5,-1,-1
1417,-1,1025,410,229,149,0.99,2,-1,-1
1417,-1,1257,366,260,104,0.85,2,-1,-1
1418,-1,1036,420,238,153,1.0,2,-1,-1
1418,-1,1362,265,127,50,0.88,2,-1,-1
1418,-1,877,230,43,20,0.2,5,-1,-1
1418,-1,1279,361,295,118,0.87,2,-1,-1
1418,-1,1315,239,68,41,0.41,5,-1,-1
1419,-1,877,230,43,20,0.2,5,-1,-1
1419,-1,1301,366,296,121,0.98,2,-1,-1
1419,-1,1361,265,129,50,0.89,2,-1,-1
1419,-1,1315,239,69,41,0.43,5,-1,-1
1419,-1,1042,428,254,164,0.98,2,-1,-1
1420,-1,877,230,43,20,0.2,5,-1,-1
1420,-1,1361,265,129,50,0.9,2,-1,-1
1420,-1,1341,373,312,115,0.67,2,-1,-1
1420,-1,1072,437,258,173,0.99,2,-1,-1
1420,-1,1315,239,69,41,0.45,5,-1,-1
1421,-1,1369,376,300,119,1.0,2,-1,-1
1421,-1,1079,459,290,176,0.96,2,-1,-1
1421,-1,1359,262,125,54,0.89,2,-1,-1
1421,-1,1314,239,70,40,0.46,5,-1,-1
1421,-1,877,230,43,20,0.2,5,-1,-1
1422,-1,1088,468,308,181,0.96,2,-1,-1
1422,-1,877,230,43,20,0.2,5,-1,-1
1422,-1,1313,240,72,41,0.5,5,-1,-1
1422,-1,1408,379,327,115,0.67,2,-1,-1
1422,-1,1359,262,125,54,0.89,2,-1,-1
1423,-1,877,230,43,20,0.2,5,-1,-1
1423,-1,1312,240,75,41,0.53,5,-1,-1
1423,-1,1359,262,124,54,0.89,2,-1,-1
1423,-1,1435,383,318,119,0.99,2,-1,-1
1423,-1,1125,476,321,208,1.0,2,-1,-1
1424,-1,1144,487,324,215,0.7,2,-1,-1
1424,-1,1311,240,76,41,0.55,5,-1,-1
1424,-1,877,230,43,20,0.2,5,-1,-1
1424,-1,1483,385,336,122,0.73,2,-1,-1
1424,-1,1359,262,124,54,0.87,2,-1,-1
1425,-1,877,230,43,20,0.2,5,-1,-1
1425,-1,1311,240,76,40,0.54,5,-1,-1
1425,-1,1178,515,365,230,0.75,2,-1,-1
1425,-1,1505,392,335,123,0.83,2,-1,-1
1425,-1,1362,264,127,50,0.87,2,-1,-1
1426,-1,1556,395,345,127,0.97,2,-1,-1
1426,-1,1363,264,125,50,0.88,2,-1,-1
1426,-1,1200,506,403,292,0.84,2,-1,-1
1426,-1,1312,240,74,40,0.52,5,-1,-1
1426,-1,877,230,43,20,0.2,5,-1,-1
1427,-1,1364,264,125,49,0.89,2,-1,-1
1427,-1,1236,533,411,296,0.85,2,-1,-1
1427,-1,1592,407,317,128,0.91,2,-1,-1
1427,-1,1313,240,73,40,0.49,5,-1,-1
1427,-1,877,230,43,20,0.2,5,-1,-1
1428,-1,1650,407,260,128,0.91,2,-1,-1
1428,-1,1314,240,69,40,0.44,5,-1,-1
1428,-1,877,230,43,20,0.2,5,-1,-1
1428,-1,1311,569,421,295,0.76,2,-1,-1
1428,-1,1364,265,124,49,0.89,2,-1,-1
1429,-1,1331,626,469,300,0.71,2,-1,-1
1429,-1,1364,265,125,49,0.88,2,-1,-1
1429,-1,1698,407,220,128,0.91,2,-1,-1
1429,-1,877,230,43,20,0.2,5,-1,-1
1429,-1,1315,240,67,39,0.4,5,-1,-1
1430,-1,1758,407,160,128,0.91,5,-1,-1
1430,-1,1315,240,65,39,0.38,2,-1,-1
1430,-1,1344,652,514,297,0.65,2,-1,-1
1430,-1,1364,265,125,49,0.87,2,-1,-1
1430,-1,877,230,43,20,0.2,5,-1,-1
1431,-1,1459,675,446,331,1.0,2,-1,-1
1431,-1,1364,265,124,48,0.87,2,-1,-1
1431,-1,1799,422,120,110,0.56,2,-1,-1
1431,-1,1315,240,65,39,0.37,5,-1,-1
1431,-1,877,230,43,20,0.2,5,-1,-1
1432,-1,877,230,43,20,0.2,5,-1,-1
1432,-1,1883,422,32,100,0.22,2,-1,-1
1432,-1,1364,265,124,48,0.87,2,-1,-1
1432,-1,1523,701,391,348,0.66,2,-1,-1
1432,-1,1315,240,66,39,0.37,5,-1,-1
1433,-1,1364,265,125,48,0.88,2,-1,-1
1433,-1,1314,241,66,38,0.39,5,-1,-1
1433,-1,1594,753,300,300,0.39,2,-1,-1
1433,-1,877,230,43,20,0.2,5,-1,-1
1433,-1,2,611,43,188,0.42,2,-1,-1
1434,-1,1363,265,126,48,0.89,2,-1,-1
1434,-1,0,630,83,160,0.47,2,-1,-1
1434,-1,1314,241,67,38,0.41,5,-1,-1
1434,-1,877,230,43,20,0.2,5,-1,-1
1434,-1,1690,814,210,300,0.39,2,-1,-1
1436,-1,877,230,43,20,0.2,5,-1,-1
1436,-1,2,622,118,160,0.83,2,-1,-1
1436,-1,1364,265,126,49,0.89,2,-1,-1
1436,-1,1313,241,69,38,0.44,5,-1,-1
1437,-1,877,230,43,20,0.2,5,-1,-1
1437,-1,1313,241,69,38,0.45,5,-1,-1
1437,-1,1363,265,127,49,0.89,2,-1,-1
1437,-1,4,582,161,244,0.7,2,-1,-1
1438,-1,1363,265,127,49,0.88,2,-1,-1
1438,-1,0,575,188,262,0.98,2,-1,-1
1438,-1,1312,241,70,38,0.45,5,-1,-1
1438,-1,877,230,43,20,0.2,5,-1,-1
1441,-1,1363,265,128,49,0.87,2,-1,-1
1441,-1,0,582,288,273,0.97,2,-1,-1
1441,-1,877,230,43,20,0.2,5,-1,-1
1441,-1,1312,241,71,38,0.43,5,-1,-1
1442,-1,1363,265,128,49,0.87,2,-1,-1
1442,-1,877,230,43,20,0.2,5,-1,-1
1442,-1,0,578,341,290,0.99,2,-1,-1
1442,-1,1312,241,71,38,0.42,5,-1,-1
1443,-1,1076,219,28,19,0.41,2,-1,-1
1443,-1,1363,265,128,49,0.87,2,-1,-1
1443,-1,0,579,380,296,0.99,2,-1,-1
1443,-1,1312,241,71,38,0.41,5,-1,-1
1443,-1,877,230,43,20,0.2,5,-1,-1
1444,-1,1076,219,28,19,0.41,2,-1,-1
1444,-1,1363,265,128,49,0.87,2,-1,-1
1444,-1,877,230,43,20,0.2,5,-1,-1
1444,-1,12,589,400,307,0.99,2,-1,-1
1444,-1,1312,240,71,38,0.42,5,-1,-1
1445,-1,25,599,434,299,0.99,2,-1,-1
1445,-1,1076,219,28,19,0.41,2,-1,-1
1445,-1,1312,240,71,38,0.42,5,-1,-1
1445,-1,1363,265,128,49,0.87,2,-1,-1
1445,-1,877,230,43,20,0.2,5,-1,-1
1446,-1,877,230,43,20,0.2,5,-1,-1
1446,-1,1076,219,28,19,0.41,2,-1,-1
1446,-1,1312,240,71,38,0.42,5,-1,-1
1446,-1,33,607,467,291,0.99,2,-1,-1
1446,-1,1363,265,128,49,0.87,2,-1,-1
1447,-1,877,230,43,20,0.2,5,-1,-1
1447,-1,1076,219,28,19,0.41,2,-1,-1
1447,-1,1313,240,71,38,0.41,5,-1,-1
1447,-1,1363,265,127,49,0.87,2,-1,-1
1447,-1,41,622,539,300,0.92,2,-1,-1
1448,-1,877,230,43,20,0.2,5,-1,-1
1448,-1,1076,219,28,19,0.41,2,-1,-1
1448,-1,1313,241,71,38,0.41,5,-1,-1
1448,-1,59,625,564,304,1.0,2,-1,-1
1448,-1,1363,265,127,49,0.88,2,-1,-1
1449,-1,1363,266,127,48,0.89,2,-1,-1
1449,-1,877,230,43,20,0.2,5,-1,-1
1449,-1,98,630,575,318,1.0,2,-1,-1
1449,-1,1076,219,28,19,0.41,2,-1,-1
1449,-1,1312,241,71,38,0.42,5,-1,-1
1450,-1,132,637,577,332,0.79,2,-1,-1
1450,-1,877,230,43,20,0.2,5,-1,-1
1450,-1,1312,241,71,37,0.43,5,-1,-1
1450,-1,1362,266,127,48,0.9,2,-1,-1
1450,-1,1072,211,43,24,0.21,2,-1,-1
1451,-1,877,230,43,20,0.2,5,-1,-1
1451,-1,1072,210,43,24,0.22,2,-1,-1
1451,-1,1312,241,71,37,0.43,5,-1,-1
1451,-1,1362,266,127,48,0.9,2,-1,-1
1451,-1,199,640,602,366,1.0,2,-1,-1
1452,-1,244,650,601,373,0.98,2,-1,-1
1452,-1,877,230,43,20,0.2,5,-1,-1
1452,-1,1072,210,43,24,0.22,2,-1,-1
1452,-1,1312,241,71,37,0.42,5,-1,-1
1452,-1,1362,266,126,48,0.9,2,-1,-1
1453,-1,877,230,43,20,0.2,5,-1,-1
1453,-1,316,660,635,390,0.95,2,-1,-1
1453,-1,1313,241,70,37,0.42,5,-1,-1
1453,-1,1072,210,43,25,0.23,2,-1,-1
1453,-1,1362,266,126,48,0.9,2,-1,-1
1454,-1,1362,266,126,47,0.9,2,-1,-1
1454,-1,1313,241,70,37,0.41,5,-1,-1
1454,-1,877,230,43,20,0.2,5,-1,-1
1454,-1,1072,210,43,25,0.26,2,-1,-1
1454,-1,349,672,658,399,1.0,2,-1,-1
1455,-1,1071,210,43,26,0.28,2,-1,-1
1455,-1,1362,266,125,47,0.9,2,-1,-1
1455,-1,1313,241,71,37,0.41,5,-1,-1
1455,-1,401,680,695,390,0.2,2,-1,-1
1455,-1,877,230,43,20,0.2,5,-1,-1
1456,-1,1363,266,125,48,0.9,2,-1,-1
1456,-1,1071,210,43,26,0.3,2,-1,-1
1456,-1,1312,241,71,37,0.42,5,-1,-1
1456,-1,463,706,695,390,0.2,2,-1,-1
1456,-1,877,230,43,20,0.2,5,-1,-1
1457,-1,1071,210,43,26,0.21,2,-1,-1
1457,-1,1362,266,125,48,0.9,2,-1,-1
1457,-1,877,230,43,20,0.2,5,-1,-1
1457,-1,1311,241,72,37,0.42,5,-1,-1
1457,-1,539,721,695,390,0.2,2,-1,-1
1458,-1,1311,240,73,37,0.41,5,-1,-1
1458,-1,1070,209,44,27,0.25,2,-1,-1
1458,-1,604,758,723,320,1.0,2,-1,-1
1458,-1,1361,266,127,48,0.9,2,-1,-1
1458,-1,877,230,43,20,0.2,5,-1,-1
1459,-1,705,776,744,292,0.76,2,-1,-1
1459,-1,1360,266,130,47,0.9,2,-1,-1
1459,-1,1311,240,74,37,0.41,5,-1,-1
1459,-1,877,230,43,20,0.2,5,-1,-1
1459,-1,1070,209,45,28,0.27,2,-1,-1
1460,-1,877,230,43,20,0.2,5,-1,-1
1460,-1,1311,239,75,38,0.42,5,-1,-1
1460,-1,1070,208,46,29,0.28,2,-1,-1
1460,-1,1357,264,129,51,0.9,2,-1,-1
1460,-1,747,790,745,274,0.99,2,-1,-1
1461,-1,877,230,43,20,0.2,5,-1,-1
1461,-1,839,810,778,251,0.87,2,-1,-1
1461,-1,1070,208,47,29,0.26,2,-1,-1
1461,-1,1311,239,75,38,0.42,5,-1,-1
1461,-1,1357,264,129,51,0.9,2,-1,-1
1462,-1,877,230,43,20,0.2,5,-1,-1
1462,-1,1311,239,75,38,0.45,5,-1,-1
1462,-1,1070,208,47,28,0.25,2,-1,-1
1462,-1,890,835,758,227,0.73,2,-1,-1
1462,-1,1357,264,129,51,0.91,2,-1,-1
1463,-1,1070,208,47,28,0.25,2,-1,-1
1463,-1,1311,239,75,38,0.47,5,-1,-1
1463,-1,877,230,43,20,0.2,5,-1,-1
1463,-1,1357,264,129,51,0.91,2,-1,-1
1463,-1,1029,856,735,210,0.6,2,-1,-1
1467,-1,1360,266,130,47,0.91,2,-1,-1
1467,-1,1311,240,74,38,0.5,5,-1,-1
1467,-1,1069,212,41,24,0.21,2,-1,-1
1468,-1,1069,212,42,24,0.33,2,-1,-1
1468,-1,1311,240,74,38,0.5,5,-1,-1
1468,-1,1360,266,129,48,0.92,2,-1,-1
1469,-1,1312,240,74,38,0.49,5,-1,-1
1469,-1,1361,266,128,48,0.92,2,-1,-1
1469,-1,1069,212,42,23,0.28,2,-1,-1
1469,-1,880,230,39,19,0.2,5,-1,-1
1470,-1,1361,266,127,48,0.92,2,-1,-1
1470,-1,1312,240,74,39,0.49,5,-1,-1
1470,-1,1069,211,43,22,0.21,2,-1,-1
1470,-1,880,230,40,19,0.2,5,-1,-1
1472,-1,1362,266,127,48,0.92,2,-1,-1
1472,-1,1312,240,75,39,0.48,5,-1,-1
1472,-1,1069,211,43,22,0.21,2,-1,-1
1472,-1,880,230,40,19,0.2,5,-1,-1
1473,-1,1069,211,43,22,0.21,2,-1,-1
1473,-1,1362,266,127,48,0.92,2,-1,-1
1473,-1,1311,240,75,39,0.48,5,-1,-1
1473,-1,1312,240,75,39,0.48,5,-1,-1
1475,-1,1362,266,127,48,0.92,2,-1,-1
1475,-1,1311,241,75,38,0.45,5,-1,-1
1475,-1,1069,211,43,22,0.21,2,-1,-1
1475,-1,1312,240,75,39,0.48,5,-1,-1
1476,-1,1311,241,75,38,0.44,5,-1,-1
1476,-1,1,469,17,111,0.38,2,-1,-1
1476,-1,1069,211,43,22,0.21,2,-1,-1
1476,-1,1312,240,75,39,0.48,5,-1,-1
1476,-1,1362,266,127,48,0.92,2,-1,-1
1478,-1,1361,266,128,47,0.9,2,-1,-1
1478,-1,0,464,40,123,0.63,2,-1,-1
1478,-1,1312,241,73,37,0.42,5,-1,-1
1478,-1,1061,220,33,22,0.21,2,-1,-1
1478,-1,1312,240,75,39,0.48,5,-1,-1
1479,-1,880,230,40,19,0.21,5,-1,-1
1479,-1,0,470,47,115,0.81,2,-1,-1
1479,-1,1312,242,72,37,0.39,5,-1,-1
1479,-1,1061,220,33,22,0.21,2,-1,-1
1479,-1,1361,266,128,47,0.89,2,-1,-1
1480,-1,880,230,40,19,0.25,5,-1,-1
1480,-1,0,473,55,112,0.9,2,-1,-1
1480,-1,1357,264,129,51,0.88,2,-1,-1
1480,-1,1312,242,71,36,0.37,5,-1,-1
1480,-1,1061,220,33,22,0.21,2,-1,-1
1481,-1,0,473,63,112,0.91,2,-1,-1
1481,-1,1357,264,129,51,0.88,2,-1,-1
1481,-1,1312,242,71,36,0.37,5,-1,-1
1481,-1,1061,220,33,22,0.21,2,-1,-1
1481,-1,880,230,40,19,0.25,5,-1,-1
1483,-1,2,468,76,121,0.91,2,-1,-1
1483,-1,1312,242,71,36,0.37,5,-1,-1
1483,-1,1066,212,39,23,0.3,2,-1,-1
1483,-1,880,230,40,19,0.26,5,-1,-1
1483,-1,1357,264,129,51,0.88,2,-1,-1
1484,-1,1,469,81,120,0.95,2,-1,-1
1484,-1,1357,264,129,51,0.88,2,-1,-1
1484,-1,1065,212,39,25,0.22,2,-1,-1
1484,-1,1312,242,71,36,0.37,5,-1,-1
1484,-1,880,230,40,19,0.27,5,-1,-1
1485,-1,1357,264,129,51,0.88,2,-1,-1
1485,-1,1064,212,40,27,0.26,2,-1,-1
1485,-1,1312,242,71,36,0.37,5,-1,-1
1485,-1,0,468,86,119,0.96,2,-1,-1
1485,-1,880,230,39,19,0.27,5,-1,-1
1486,-1,1064,211,40,28,0.3,2,-1,-1
1486,-1,1357,264,129,51,0.88,2,-1,-1
1486,-1,1312,242,71,36,0.37,5,-1,-1
1486,-1,0,469,89,119,0.88,2,-1,-1
1486,-1,880,230,39,19,0.27,5,-1,-1
1487,-1,0,468,92,119,0.81,2,-1,-1
1487,-1,1064,212,40,28,0.28,2,-1,-1
1487,-1,1312,242,71,36,0.37,5,-1,-1
1487,-1,880,230,40,19,0.27,5,-1,-1
1487,-1,1357,264,129,51,0.89,2,-1,-1
1488,-1,880,230,40,19,0.26,5,-1,-1
1488,-1,1312,242,72,36,0.4,5,-1,-1
1488,-1,1064,212,40,26,0.24,2,-1,-1
1488,-1,0,467,94,120,0.8,2,-1,-1
1488,-1,1357,264,129,51,0.89,2,-1,-1
1489,-1,879,230,41,19,0.25,5,-1,-1
1489,-1,1064,212,40,26,0.41,2,-1,-1
1489,-1,0,465,96,121,0.86,2,-1,-1
1489,-1,1357,264,130,50,0.89,2,-1,-1
1489,-1,1312,241,73,37,0.42,5,-1,-1
1490,-1,1064,213,40,26,0.44,2,-1,-1
1490,-1,1360,266,132,47,0.9,2,-1,-1
1490,-1,0,464,96,123,0.9,2,-1,-1
1490,-1,1056,224,17,16,0.21,5,-1,-1
1490,-1,879,230,41,19,0.24,2,-1,-1
1490,-1,1312,241,75,38,0.44,5,-1,-1
1491,-1,1065,213,38,26,0.46,2,-1,-1
1491,-1,0,463,97,123,0.89,2,-1,-1
1491,-1,1312,241,75,38,0.44,5,-1,-1
1491,-1,1358,264,130,50,0.89,2,-1,-1
1491,-1,1056,224,16,16,0.24,5,-1,-1
1491,-1,879,230,41,19,0.25,2,-1,-1
1492,-1,1358,264,130,50,0.89,2,-1,-1
1492,-1,0,462,97,124,0.88,2,-1,-1
1492,-1,1065,214,37,25,0.43,2,-1,-1
1492,-1,1312,241,75,38,0.44,5,-1,-1
1492,-1,1056,224,17,16,0.24,2,-1,-1
1492,-1,879,230,41,19,0.24,5,-1,-1
1493,-1,1066,214,37,24,0.36,2,-1,-1
1493,-1,1312,241,75,38,0.44,5,-1,-1
1493,-1,0,462,97,124,0.88,2,-1,-1
1493,-1,878,230,41,19,0.23,5,-1,-1
1493,-1,1056,223,17,16,0.21,2,-1,-1
1493,-1,1358,264,130,50,0.89,2,-1,-1
1494,-1,878,230,41,19,0.21,5,-1,-1
1494,-1,1056,223,17,16,0.21,2,-1,-1
1494,-1,1360,266,131,47,0.9,2,-1,-1
1494,-1,1066,214,37,22,0.3,5,-1,-1
1494,-1,1312,241,74,38,0.44,2,-1,-1
1494,-1,0,462,97,124,0.88,2,-1,-1
1495,-1,1312,241,74,38,0.43,5,-1,-1
1495,-1,1067,214,35,21,0.27,2,-1,-1
1495,-1,1056,223,17,16,0.21,2,-1,-1
1495,-1,878,230,41,19,0.21,5,-1,-1
1495,-1,0,463,97,123,0.87,2,-1,-1
1495,-1,1360,266,131,47,0.9,2,-1,-1
1496,-1,1360,266,131,47,0.9,2,-1,-1
1496,-1,0,463,97,123,0.87,2,-1,-1
1496,-1,1312,241,74,38,0.43,5,-1,-1
1496,-1,1054,223,19,15,0.2,2,-1,-1
1496,-1,878,230,41,20,0.21,5,-1,-1
1496,-1,1068,215,34,20,0.26,2,-1,-1
1497,-1,878,230,41,20,0.21,5,-1,-1
1497,-1,1053,224,21,16,0.28,2,-1,-1
1497,-1,1069,216,32,20,0.26,2,-1,-1
1497,-1,1312,241,74,38,0.43,5,-1,-1
1497,-1,0,463,97,123,0.87,2,-1,-1
1497,-1,1360,266,131,47,0.9,2,-1,-1
1499,-1,1312,241,74,38,0.44,5,-1,-1
1499,-1,1051,226,24,18,0.52,2,-1,-1
1499,-1,0,463,97,123,0.87,2,-1,-1
1499,-1,1360,266,131,47,0.9,2,-1,-1
1499,-1,879,230,40,19,0.23,5,-1,-1
1499,-1,1069,217,29,20,0.29,2,-1,-1
1500,-1,1312,241,74,38,0.44,5,-1,-1
1500,-1,1051,226,24,19,0.56,2,-1,-1
1500,-1,0,463,97,123,0.88,2,-1,-1
1500,-1,1068,217,29,21,0.31,2,-1,-1
1500,-1,1360,266,131,47,0.9,2,-1,-1
1500,-1,879,230,40,19,0.23,5,-1,-1
1501,-1,1312,241,74,38,0.44,5,-1,-1
1501,-1,1068,217,30,22,0.31,2,-1,-1
1501,-1,879,230,40,19,0.25,5,-1,-1
1501,-1,1360,266,131,47,0.9,2,-1,-1
1501,-1,1050,226,25,19,0.62,2,-1,-1
1501,-1,0,463,97,123,0.89,2,-1,-1
1502,-1,1312,241,74,38,0.45,5,-1,-1
1502,-1,0,463,97,123,0.89,2,-1,-1
1502,-1,1360,266,131,47,0.9,2,-1,-1
1502,-1,1049,226,26,20,0.67,2,-1,-1
1502,-1,1067,216,31,23,0.34,2,-1,-1
1502,-1,879,230,40,19,0.26,5,-1,-1
1503,-1,1066,216,33,24,0.37,2,-1,-1
1503,-1,0,463,97,123,0.89,2,-1,-1
1503,-1,1360,266,131,47,0.9,2,-1,-1
1503,-1,1048,227,27,22,0.76,2,-1,-1
1503,-1,1312,241,74,38,0.45,5,-1,-1
1503,-1,880,230,40,19,0.28,5,-1,-1
1504,-1,1048,227,27,22,0.79,2,-1,-1
1504,-1,1312,241,74,38,0.45,5,-1,-1
1504,-1,1065,216,34,25,0.38,2,-1,-1
1504,-1,880,230,40,19,0.29,5,-1,-1
1504,-1,1360,266,131,47,0.9,2,-1,-1
1504,-1,0,463,97,123,0.89,2,-1,-1
1505,-1,880,230,40,19,0.29,5,-1,-1
1505,-1,1064,214,37,26,0.32,2,-1,-1
1505,-1,1312,241,74,38,0.45,5,-1,-1
1505,-1,1047,226,28,23,0.8,2,-1,-1
1505,-1,0,463,97,123,0.9,2,-1,-1
1505,-1,1360,266,131,47,0.9,2,-1,-1
1506,-1,1360,266,131,47,0.9,2,-1,-1
1506,-1,880,230,40,19,0.28,5,-1,-1
1506,-1,1312,241,74,38,0.45,5,-1,-1
1506,-1,1045,226,28,23,0.77,2,-1,-1
1506,-1,0,463,97,123,0.9,2,-1,-1
1506,-1,1067,215,34,24,0.23,2,-1,-1
1507,-1,880,230,39,19,0.28,5,-1,-1
1507,-1,1069,215,33,24,0.21,2,-1,-1
1507,-1,1312,241,74,38,0.45,5,-1,-1
1507,-1,1044,226,29,23,0.74,2,-1,-1
1507,-1,1360,266,131,47,0.9,2,-1,-1
1507,-1,0,463,97,123,0.9,2,-1,-1
1509,-1,1360,266,131,47,0.9,2,-1,-1
1509,-1,880,230,39,19,0.29,5,-1,-1
1509,-1,1011,243,29,25,0.43,2,-1,-1
1509,-1,1312,241,74,38,0.44,5,-1,-1
1509,-1,1039,228,27,21,0.56,2,-1,-1
1509,-1,0,463,97,123,0.9,2,-1,-1
1509,-1,1083,220,20,15,0.29,2,-1,-1
1510,-1,1000,238,37,32,0.74,2,-1,-1
1510,-1,1039,228,25,19,0.49,2,-1,-1
1510,-1,1312,242,73,38,0.43,5,-1,-1
1510,-1,880,231,38,19,0.3,5,-1,-1
1510,-1,1083,220,20,15,0.29,2,-1,-1
1510,-1,1360,266,131,47,0.9,2,-1,-1
1510,-1,0,463,97,123,0.89,2,-1,-1
1511,-1,1083,220,20,15,0.29,2,-1,-1
1511,-1,991,235,41,35,0.93,2,-1,-1
1511,-1,1360,266,130,47,0.91,2,-1,-1
1511,-1,0,463,97,123,0.89,2,-1,-1
1511,-1,1313,242,73,38,0.43,5,-1,-1
1511,-1,1043,228,20,17,0.43,2,-1,-1
1511,-1,879,230,38,19,0.32,5,-1,-1
1512,-1,1083,220,20,15,0.29,2,-1,-1
1512,-1,0,463,97,123,0.9,2,-1,-1
1512,-1,986,235,42,36,0.92,2,-1,-1
1512,-1,1360,266,130,47,0.91,2,-1,-1
1512,-1,1313,242,72,38,0.43,5,-1,-1
1512,-1,1044,229,18,16,0.34,2,-1,-1
1512,-1,879,230,38,19,0.34,5,-1,-1
1513,-1,0,463,97,123,0.9,2,-1,-1
1513,-1,1313,242,72,38,0.43,5,-1,-1
1513,-1,1083,220,20,15,0.29,2,-1,-1
1513,-1,1043,229,16,15,0.25,5,-1,-1
1513,-1,1360,266,130,47,0.91,2,-1,-1
1513,-1,879,230,38,19,0.35,2,-1,-1
1513,-1,985,234,43,36,0.89,2,-1,-1
1514,-1,879,230,39,19,0.35,2,-1,-1
1514,-1,985,235,40,35,0.83,2,-1,-1
1514,-1,1360,266,130,47,0.9,2,-1,-1
1514,-1,0,464,97,123,0.9,2,-1,-1
1514,-1,1042,231,16,15,0.22,5,-1,-1
1514,-1,1083,220,20,15,0.29,2,-1,-1
1514,-1,1313,242,72,38,0.42,5,-1,-1
1515,-1,1075,216,32,19,0.22,2,-1,-1
1515,-1,972,237,40,34,0.68,2,-1,-1
1515,-1,879,230,39,19,0.35,5,-1,-1
1515,-1,1313,242,72,38,0.41,5,-1,-1
1515,-1,0,464,97,123,0.9,2,-1,-1
1515,-1,1361,266,130,48,0.9,2,-1,-1
1515,-1,1894,431,24,253,0.22,2,-1,-1
1515,-1,1031,240,22,18,0.24,2,-1,-1
1516,-1,970,237,42,35,0.83,2,-1,-1
1516,-1,1361,266,129,48,0.9,2,-1,-1
1516,-1,0,464,97,123,0.9,2,-1,-1
1516,-1,1314,241,71,38,0.4,5,-1,-1
1516,-1,1839,439,78,177,0.25,2,-1,-1
1516,-1,1029,240,24,18,0.31,2,-1,-1
1516,-1,1075,216,32,19,0.22,2,-1,-1
1516,-1,879,230,39,19,0.34,5,-1,-1
1517,-1,1823,487,97,115,0.22,2,-1,-1
1517,-1,968,239,43,35,0.92,2,-1,-1
1517,-1,0,464,97,123,0.9,2,-1,-1
1517,-1,1361,266,129,48,0.9,2,-1,-1
1517,-1,1314,241,70,38,0.39,5,-1,-1
1517,-1,1075,216,32,19,0.22,2,-1,-1
1517,-1,996,237,31,27,0.41,5,-1,-1
1517,-1,880,230,39,19,0.34,2,-1,-1
1518,-1,966,240,43,35,0.95,2,-1,-1
1518,-1,1785,487,135,140,0.22,2,-1,-1
1518,-1,0,464,97,123,0.89,2,-1,-1
1518,-1,880,231,38,19,0.34,5,-1,-1
1518,-1,1026,239,26,18,0.36,2,-1,-1
1518,-1,1362,266,129,48,0.9,5,-1,-1
1518,-1,1314,241,70,38,0.39,2,-1,-1
1518,-1,1075,216,32,19,0.22,2,-1,-1
1519,-1,964,241,44,35,0.93,2,-1,-1
1519,-1,1003,238,28,26,0.35,2,-1,-1
1519,-1,0,464,97,122,0.89,5,-1,-1
1519,-1,1315,241,69,38,0.38,2,-1,-1
1519,-1,881,231,38,19,0.3,5,-1,-1
1519,-1,1075,216,32,19,0.22,2,-1,-1
1519,-1,1753,450,170,160,0.22,2,-1,-1
1519,-1,1361,266,128,48,0.9,2,-1,-1
1521,-1,1315,241,66,37,0.36,5,-1,-1
1521,-1,880,231,38,19,0.26,2,-1,-1
1521,-1,1075,216,32,19,0.22,2,-1,-1
1521,-1,1650,425,269,146,0.22,2,-1,-1
1521,-1,1361,266,128,48,0.9,2,-1,-1
1521,-1,960,239,42,36,0.87,2,-1,-1
1521,-1,1006,237,28,26,0.44,5,-1,-1
1521,-1,0,464,97,121,0.89,2,-1,-1
1522,-1,1008,236,28,26,0.54,2,-1,-1
1522,-1,1753,450,170,160,0.22,2,-1,-1
1522,-1,1075,216,32,19,0.22,2,-1,-1
1522,-1,880,231,39,19,0.29,5,-1,-1
1522,-1,1315,241,67,38,0.38,5,-1,-1
1522,-1,957,240,41,37,0.89,2,-1,-1
1522,-1,0,464,97,121,0.89,2,-1,-1
1522,-1,1361,266,128,48,0.9,2,-1,-1
1524,-1,0,464,97,121,0.88,2,-1,-1
1524,-1,1360,266,130,48,0.9,2,-1,-1
1524,-1,1585,409,297,131,0.97,2,-1,-1
1524,-1,951,240,42,39,0.92,2,-1,-1
1524,-1,1075,216,32,19,0.22,2,-1,-1
1524,-1,1006,237,30,26,0.64,2,-1,-1
1524,-1,1314,241,68,38,0.42,5,-1,-1
1524,-1,881,231,38,19,0.31,5,-1,-1
1525,-1,882,230,37,19,0.31,5,-1,-1
1525,-1,949,240,42,38,0.92,2,-1,-1
1525,-1,1314,241,69,38,0.42,5,-1,-1
1525,-1,1004,237,29,26,0.69,2,-1,-1
1525,-1,1527,389,316,133,0.63,2,-1,-1
1525,-1,0,464,97,122,0.88,2,-1,-1
1525,-1,1360,266,130,48,0.9,2,-1,-1
1525,-1,1075,216,32,19,0.22,2,-1,-1
1526,-1,946,241,43,37,0.93,2,-1,-1
1526,-1,1533,386,273,129,0.97,2,-1,-1
1526,-1,1002,237,30,25,0.76,2,-1,-1
1526,-1,1313,241,69,37,0.42,5,-1,-1
1526,-1,883,231,36,19,0.35,5,-1,-1
1526,-1,1075,216,32,19,0.22,2,-1,-1
1526,-1,1360,266,131,48,0.9,2,-1,-1
1526,-1,0,464,97,122,0.87,2,-1,-1
1528,-1,0,464,97,122,0.87,2,-1,-1
1528,-1,998,236,30,25,0.85,2,-1,-1
1528,-1,943,242,42,35,0.79,2,-1,-1
1528,-1,1486,377,244,119,0.83,2,-1,-1
1528,-1,1313,241,70,37,0.43,5,-1,-1
1528,-1,883,231,35,19,0.43,5,-1,-1
1528,-1,1075,216,32,19,0.22,2,-1,-1
1528,-1,1357,263,129,52,0.89,2,-1,-1
1529,-1,933,247,41,32,0.92,2,-1,-1
1529,-1,1357,263,129,52,0.9,2,-1,-1
1529,-1,883,231,34,19,0.44,5,-1,-1
1529,-1,1462,358,248,134,0.81,2,-1,-1
1529,-1,995,235,31,27,0.87,2,-1,-1
1529,-1,0,464,97,122,0.87,2,-1,-1
1529,-1,1313,241,70,37,0.45,5,-1,-1
1529,-1,1075,216,32,19,0.22,2,-1,-1
1530,-1,932,247,41,32,0.96,2,-1,-1
1530,-1,994,236,32,28,0.88,2,-1,-1
1530,-1,0,464,97,122,0.87,2,-1,-1
1530,-1,883,231,34,19,0.41,5,-1,-1
1530,-1,1075,216,32,19,0.22,2,-1,-1
1530,-1,1357,263,129,53,0.9,2,-1,-1
1530,-1,1451,365,228,113,0.96,2,-1,-1
1530,-1,1313,241,70,38,0.43,5,-1,-1
1540,-1,904,253,54,38,0.96,2,-1,-1
1540,-1,1065,230,30,19,0.35,2,-1,-1
1540,-1,882,230,30,19,0.35,5,-1,-1
1540,-1,0,465,97,121,0.91,2,-1,-1
1540,-1,1367,267,119,46,0.85,2,-1,-1
1540,-1,972,238,35,30,0.75,2,-1,-1
1540,-1,1314,240,68,40,0.42,5,-1,-1
1540,-1,1514,359,335,176,0.66,2,-1,-1
1540,-1,1285,326,144,85,0.71,2,-1,-1
1550,-1,1065,230,30,19,0.35,2,-1,-1
1550,-1,1065,230,30,19,0.35,2,-1,-1
1550,-1,886,230,25,18,0.21,5,-1,-1
1550,-1,1317,240,65,39,0.46,5,-1,-1
1550,-1,1833,453,84,141,0.58,2,-1,-1
1550,-1,1368,271,114,41,0.8,2,-1,-1
1550,-1,0,465,97,121,0.91,2,-1,-1
1550,-1,1191,295,106,78,0.97,2,-1,-1
1550,-1,1319,321,205,117,0.95,2,-1,-1
1550,-1,942,239,48,36,0.85,2,-1,-1
1550,-1,884,254,54,44,0.93,2,-1,-1
1560,-1,922,249,41,34,0.98,2,-1,-1
1560,-1,863,261,64,56,0.99,2,-1,-1
1560,-1,1207,293,138,96,0.95,2,-1,-1
1560,-1,1134,286,75,51,0.93,2,-1,-1
1560,-1,0,467,97,118,0.92,2,-1,-1
1560,-1,1368,265,121,48,0.86,2,-1,-1
1560,-1,1522,378,238,116,0.79,2,-1,-1
1560,-1,877,229,36,22,0.34,5,-1,-1
1560,-1,1313,240,71,41,0.29,5,-1,-1
1570,-1,0,467,98,118,0.93,2,-1,-1
1570,-1,855,275,75,57,0.98,2,-1,-1
1570,-1,1823,439,97,155,0.36,2,-1,-1
1570,-1,875,229,40,22,0.36,5,-1,-1
1570,-1,1050,219,19,21,0.39,2,-1,-1
1570,-1,1317,241,63,40,0.39,5,-1,-1
1570,-1,1126,279,109,72,0.28,2,-1,-1
1570,-1,1343,334,162,88,0.99,2,-1,-1
1570,-1,1101,275,53,41,0.95,2,-1,-1
1570,-1,1367,266,118,49,0.92,2,-1,-1
1570,-1,911,257,41,30,0.86,2,-1,-1
1580,-1,883,250,48,29,0.6,2,-1,-1
1580,-1,0,466,97,119,0.91,2,-1,-1
1580,-1,1045,219,26,23,0.44,2,-1,-1
1580,-1,880,230,37,21,0.35,5,-1,-1
1580,-1,1314,240,66,37,0.41,5,-1,-1
1580,-1,1504,350,268,141,0.68,2,-1,-1
1580,-1,1081,267,86,59,0.86,2,-1,-1
1580,-1,1223,312,123,72,0.99,2,-1,-1
1580,-1,850,274,84,73,0.93,2,-1,-1
1580,-1,1358,262,127,53,0.82,2,-1,-1
1590,-1,815,296,102,80,0.96,2,-1,-1
1590,-1,1145,293,99,60,0.98,2,-1,-1
1590,-1,1062,260,66,48,0.9,2,-1,-1
1590,-1,1318,240,61,40,0.41,5,-1,-1
1590,-1,876,228,40,23,0.52,5,-1,-1
1590,-1,1039,228,26,21,0.63,2,-1,-1
1590,-1,1764,384,142,228,0.65,5,-1,-1
1590,-1,1371,271,109,40,0.81,2,-1,-1
1590,-1,0,465,97,121,0.89,2,-1,-1
1590,-1,878,273,57,45,0.95,2,-1,-1
1590,-1,1330,312,169,106,0.99,2,-1,-1
1600,-1,1311,240,72,39,0.28,5,-1,-1
1600,-1,1013,228,25,19,0.48,2,-1,-1
1600,-1,878,230,41,21,0.51,5,-1,-1
1600,-1,1358,264,128,53,0.75,2,-1,-1
1600,-1,866,282,73,51,0.99,2,-1,-1
1600,-1,1057,255,59,35,0.91,2,-1,-1
1600,-1,1107,279,64,49,0.93,2,-1,-1
1600,-1,686,313,152,95,0.97,2,-1,-1
1600,-1,1210,291,127,85,1.0,2,-1,-1
1600,-1,1452,334,268,140,0.52,5,-1,-1
1600,-1,0,466,97,121,0.92,2,-1,-1
1610,-1,1290,294,174,115,0.92,5,-1,-1
1610,-1,1320,242,59,38,0.27,5,-1,-1
1610,-1,877,230,42,22,0.44,5,-1,-1
1610,-1,1376,271,104,40,0.68,2,-1,-1
1610,-1,1089,267,52,42,0.83,2,-1,-1
1610,-1,851,292,89,67,0.98,2,-1,-1
1610,-1,0,464,97,122,0.93,2,-1,-1
1610,-1,1066,250,44,33,0.89,2,-1,-1
1610,-1,1003,238,34,25,0.85,2,-1,-1
1610,-1,420,331,233,109,0.86,2,-1,-1
1610,-1,1146,281,93,68,0.96,2,-1,-1
1620,-1,810,302,102,82,0.98,2,-1,-1
1620,-1,1191,278,118,95,0.21,5,-1,-1
1620,-1,30,355,288,114,0.73,2,-1,-1
1620,-1,879,230,38,21,0.38,5,-1,-1
1620,-1,1050,246,46,36,0.29,2,-1,-1
1620,-1,1317,240,66,36,0.26,5,-1,-1
1620,-1,986,235,37,34,0.92,2,-1,-1
1620,-1,1103,271,69,55,0.91,2,-1,-1
1620,-1,1080,244,43,39,0.87,2,-1,-1
1620,-1,0,467,99,120,0.89,2,-1,-1
1620,-1,1365,266,120,47,0.89,2,-1,-1
