161,-1,324,558,228,174,0.953,-1,-1,-1,2
161,-1,3,865,479,212,0.468,-1,-1,-1,2
161,-1,956,215,113,112,0.375,-1,-1,-1,2
161,-1,22,861,475,215,0.26,-1,-1,-1,5
162,-1,318,562,224,175,0.972,-1,-1,-1,
162,-1,394,202,70,41,0.53,-1,-1,-1,
162,-1,2,863,481,214,0.492,-1,-1,-1,
162,-1,958,210,119,109,0.323,-1,-1,-1,
162,-1,22,861,475,216,0.267,-1,-1,-1,
163,-1,311,566,230,179,0.964,-1,-1,-1,
163,-1,393,203,70,41,0.52,-1,-1,-1,
163,-1,955,210,118,105,0.508,-1,-1,-1,
163,-1,3,863,481,214,0.478,-1,-1,-1,
163,-1,23,861,473,216,0.271,-1,-1,-1,
164,-1,299,569,239,187,0.98,-1,-1,-1,
164,-1,959,208,114,104,0.644,-1,-1,-1,
164,-1,393,203,70,41,0.539,-1,-1,-1,
164,-1,4,864,480,214,0.465,-1,-1,-1,
164,-1,25,863,470,214,0.258,-1,-1,-1,
165,-1,291,576,245,184,0.974,-1,-1,-1,
165,-1,960,206,110,103,0.64,-1,-1,-1,
165,-1,393,203,70,41,0.54,-1,-1,-1,
165,-1,3,865,477,213,0.433,-1,-1,-1,
165,-1,24,863,469,215,0.258,-1,-1,-1,
166,-1,284,584,252,186,0.968,-1,-1,-1,
166,-1,962,204,112,103,0.703,-1,-1,-1,
166,-1,393,203,71,41,0.533,-1,-1,-1,
166,-1,2,865,481,213,0.454,-1,-1,-1,
166,-1,25,863,472,215,0.258,-1,-1,-1,
167,-1,279,586,255,188,0.987,-1,-1,-1,
167,-1,963,202,116,100,0.811,-1,-1,-1,
167,-1,392,203,71,41,0.531,-1,-1,-1,
167,-1,24,864,470,215,0.259,-1,-1,-1,
168,-1,276,591,258,191,0.989,-1,-1,-1,
168,-1,965,201,113,96,0.705,-1,-1,-1,
168,-1,392,203,71,41,0.534,-1,-1,-1,
168,-1,0,861,461,217,0.432,-1,-1,-1,
168,-1,24,863,466,216,0.262,-1,-1,-1,
169,-1,274,594,255,194,0.985,-1,-1,-1,
169,-1,964,199,112,96,0.609,-1,-1,-1,
169,-1,392,203,71,41,0.531,-1,-1,-1,
169,-1,0,860,461,218,0.432,-1,-1,-1,
169,-1,24,862,465,217,0.273,-1,-1,-1,
1610,-1,268,599,251,199,0.979,-1,-1,-1,
1610,-1,392,203,71,41,0.532,-1,-1,-1,
1610,-1,963,198,113,95,0.51,-1,-1,-1,
1610,-1,0,860,461,219,0.449,-1,-1,-1,
1610,-1,25,862,465,217,0.262,-1,-1,-1,
1611,-1,259,605,254,198,0.974,-1,-1,-1,2
1611,-1,391,204,71,40,0.564,-1,-1,-1,2
1611,-1,962,193,110,101,0.503,-1,-1,-1,2
1611,-1,22,861,475,215,0.26,-1,-1,-1,5
1612,-1,246,613,259,196,0.951,-1,-1,-1,
1612,-1,391,204,71,40,0.565,-1,-1,-1,
1612,-1,966,191,110,97,0.512,-1,-1,-1,
1613,-1,237,620,264,198,0.906,-1,-1,-1,
1613,-1,967,190,110,96,0.571,-1,-1,-1,
1613,-1,391,204,71,40,0.545,-1,-1,-1,
1613,-1,29,862,469,217,0.218,-1,-1,-1,
1614,-1,226,618,278,210,0.969,-1,-1,-1,
1614,-1,970,187,108,94,0.625,-1,-1,-1,
1614,-1,391,203,71,40,0.548,-1,-1,-1,
1615,-1,221,621,273,217,0.949,-1,-1,-1,
1615,-1,970,184,114,95,0.649,-1,-1,-1,
1615,-1,391,204,71,40,0.551,-1,-1,-1,
1616,-1,213,629,274,215,0.982,-1,-1,-1,
1616,-1,971,182,114,95,0.663,-1,-1,-1,
1616,-1,391,204,71,39,0.56,-1,-1,-1,
1617,-1,206,635,274,213,0.962,-1,-1,-1,
1617,-1,972,179,114,93,0.732,-1,-1,-1,
1617,-1,391,204,71,39,0.551,-1,-1,-1,
1618,-1,198,640,279,213,0.967,-1,-1,-1,
1618,-1,977,176,108,94,0.753,-1,-1,-1,
1618,-1,391,204,71,40,0.552,-1,-1,-1,
1619,-1,189,645,286,214,0.968,-1,-1,-1,
1619,-1,980,176,108,93,0.788,-1,-1,-1,
1619,-1,391,204,71,39,0.553,-1,-1,-1,
1620,-1,179,650,290,220,0.958,-1,-1,-1,
1620,-1,983,174,104,91,0.776,-1,-1,-1,
1620,-1,391,204,71,39,0.546,-1,-1,-1,
1621,-1,170,654,295,221,0.946,-1,-1,-1,2
1621,-1,983,169,109,100,0.733,-1,-1,-1,2
1621,-1,393,203,70,40,0.553,-1,-1,-1,2
1621,-1,1815,546,98,170,0.209,-1,-1,-1,2
1621,-1,22,861,475,215,0.26,-1,-1,-1,5
1622,-1,171,660,293,227,0.974,-1,-1,-1,
1622,-1,986,168,109,97,0.784,-1,-1,-1,
1622,-1,393,203,70,40,0.56,-1,-1,-1,
1622,-1,1815,546,98,170,0.207,-1,-1,-1,
1623,-1,151,662,305,226,0.98,-1,-1,-1,
1623,-1,990,166,109,96,0.744,-1,-1,-1,
1623,-1,393,203,69,40,0.565,-1,-1,-1,
1623,-1,1815,546,98,171,0.21,-1,-1,-1,
1624,-1,135,667,320,230,0.964,-1,-1,-1,
1624,-1,995,165,107,92,0.703,-1,-1,-1,
1624,-1,393,203,70,40,0.562,-1,-1,-1,
1624,-1,1815,547,98,169,0.219,-1,-1,-1,
1625,-1,130,670,322,233,0.986,-1,-1,-1,
1625,-1,999,164,110,90,0.764,-1,-1,-1,
1625,-1,393,203,69,40,0.561,-1,-1,-1,
1625,-1,1815,546,98,170,0.207,-1,-1,-1,
1626,-1,127,674,321,236,0.985,-1,-1,-1,
1626,-1,1004,161,108,90,0.82,-1,-1,-1,
1626,-1,393,203,69,40,0.562,-1,-1,-1,
1626,-1,1815,546,98,170,0.211,-1,-1,-1,
1627,-1,124,678,314,236,0.979,-1,-1,-1,
1627,-1,1008,157,111,92,0.841,-1,-1,-1,
1627,-1,394,203,69,40,0.557,-1,-1,-1,
1627,-1,1815,547,98,170,0.21,-1,-1,-1,
1628,-1,117,682,313,236,0.987,-1,-1,-1,
1628,-1,1014,154,110,93,0.809,-1,-1,-1,
1628,-1,394,203,69,40,0.556,-1,-1,-1,
1629,-1,104,686,324,234,0.993,-1,-1,-1,
1629,-1,1016,156,113,93,0.767,-1,-1,-1,
1629,-1,393,203,69,40,0.56,-1,-1,-1,
1629,-1,1815,546,97,170,0.21,-1,-1,-1,
1630,-1,91,686,333,245,0.985,-1,-1,-1,
1630,-1,1024,156,111,86,0.802,-1,-1,-1,
1630,-1,394,203,69,40,0.56,-1,-1,-1,
1630,-1,1815,546,97,170,0.203,-1,-1,-1,
1631,-1,87,692,336,243,0.985,-1,-1,-1,2
1631,-1,1027,154,114,86,0.852,-1,-1,-1,2
1631,-1,392,203,71,40,0.554,-1,-1,-1,2
1631,-1,1814,546,99,169,0.226,-1,-1,-1,2
1631,-1,22,861,475,215,0.26,-1,-1,-1,5
1632,-1,85,699,333,235,0.978,-1,-1,-1,
1632,-1,1036,151,111,87,0.907,-1,-1,-1,
1632,-1,391,203,71,40,0.555,-1,-1,-1,
1632,-1,1814,546,99,169,0.225,-1,-1,-1,
1633,-1,72,702,336,245,0.959,-1,-1,-1,
1633,-1,1041,149,115,88,0.916,-1,-1,-1,
1633,-1,392,203,71,40,0.559,-1,-1,-1,
1633,-1,29,852,346,178,0.224,-1,-1,-1,
1633,-1,1814,546,99,169,0.222,-1,-1,-1,
1634,-1,65,704,340,245,0.956,-1,-1,-1,
1634,-1,1049,146,112,88,0.88,-1,-1,-1,
1634,-1,392,203,71,40,0.557,-1,-1,-1,
1634,-1,1814,546,99,169,0.227,-1,-1,-1,
1634,-1,28,845,337,184,0.224,-1,-1,-1,
1635,-1,64,708,344,247,0.947,-1,-1,-1,
1635,-1,1056,146,109,83,0.829,-1,-1,-1,
1635,-1,392,203,71,40,0.55,-1,-1,-1,
1635,-1,1814,546,99,169,0.232,-1,-1,-1,
1636,-1,56,713,348,243,0.928,-1,-1,-1,
1636,-1,1062,144,111,85,0.863,-1,-1,-1,
1636,-1,392,203,71,40,0.548,-1,-1,-1,
1636,-1,1814,546,99,169,0.239,-1,-1,-1,
1636,-1,22,757,383,242,0.228,-1,-1,-1,
1637,-1,45,718,353,239,0.965,-1,-1,-1,
1637,-1,1066,143,118,86,0.891,-1,-1,-1,
1637,-1,392,203,71,41,0.548,-1,-1,-1,
1637,-1,1814,547,99,167,0.255,-1,-1,-1,
1638,-1,26,718,361,245,0.911,-1,-1,-1,
1638,-1,1072,142,118,84,0.891,-1,-1,-1,
1638,-1,392,203,71,41,0.548,-1,-1,-1,
1638,-1,1814,547,99,168,0.239,-1,-1,-1,
1638,-1,12,755,387,250,0.306,-1,-1,-1,
1639,-1,19,720,362,242,0.943,-1,-1,-1,
1639,-1,1083,140,116,81,0.855,-1,-1,-1,
1639,-1,391,203,72,41,0.556,-1,-1,-1,
1639,-1,1814,547,98,167,0.25,-1,-1,-1,
1640,-1,1089,137,115,83,0.905,-1,-1,-1,
1640,-1,6,721,362,240,0.86,-1,-1,-1,
1640,-1,391,203,72,41,0.559,-1,-1,-1,
1640,-1,0,859,348,219,0.249,-1,-1,-1,
1640,-1,1814,547,98,168,0.242,-1,-1,-1,
1641,-1,1099,135,115,83,0.929,-1,-1,-1,2
1641,-1,8,727,357,229,0.849,-1,-1,-1,2
1641,-1,390,203,73,41,0.573,-1,-1,-1,2
1641,-1,1814,546,98,169,0.265,-1,-1,-1,2
1641,-1,22,861,475,215,0.26,-1,-1,-1,5
1642,-1,1105,133,117,83,0.901,-1,-1,-1,
1642,-1,1,718,372,233,0.855,-1,-1,-1,
1642,-1,391,202,73,41,0.559,-1,-1,-1,
1642,-1,1814,546,98,170,0.257,-1,-1,-1,
1642,-1,0,753,396,259,0.24,-1,-1,-1,
1643,-1,1114,131,114,80,0.837,-1,-1,-1,
1643,-1,0,731,353,232,0.826,-1,-1,-1,
1643,-1,391,203,73,41,0.565,-1,-1,-1,
1643,-1,1814,545,98,170,0.259,-1,-1,-1,
1643,-1,1,758,397,260,0.375,-1,-1,-1,
1644,-1,0,733,351,226,0.851,-1,-1,-1,
1644,-1,1123,129,111,82,0.839,-1,-1,-1,
1644,-1,391,203,72,41,0.57,-1,-1,-1,
1644,-1,1814,546,98,170,0.244,-1,-1,-1,
1644,-1,1130,114,229,86,0.208,-1,-1,-1,
1644,-1,3,757,390,256,0.305,-1,-1,-1,
1645,-1,1130,129,112,79,0.857,-1,-1,-1,
1645,-1,0,735,353,233,0.819,-1,-1,-1,
1645,-1,392,203,72,41,0.563,-1,-1,-1,
1645,-1,1815,545,98,170,0.245,-1,-1,-1,
1645,-1,3,757,389,265,0.25,-1,-1,-1,
1646,-1,0,735,354,225,0.828,-1,-1,-1,
1646,-1,1137,130,119,78,0.799,-1,-1,-1,
1646,-1,391,203,72,41,0.563,-1,-1,-1,
1646,-1,1815,545,97,172,0.243,-1,-1,-1,
1646,-1,3,755,386,266,0.284,-1,-1,-1,
1647,-1,0,739,356,217,0.852,-1,-1,-1,
1647,-1,1147,133,110,72,0.748,-1,-1,-1,
1647,-1,391,203,72,41,0.564,-1,-1,-1,
1647,-1,1823,544,91,175,0.244,-1,-1,-1,
1647,-1,5,762,379,254,0.297,-1,-1,-1,
1648,-1,1155,131,112,74,0.866,-1,-1,-1,
1648,-1,11,745,319,207,0.819,-1,-1,-1,
1648,-1,391,203,72,42,0.567,-1,-1,-1,
1648,-1,1,786,398,274,0.383,-1,-1,-1,
1648,-1,1805,919,108,158,0.278,-1,-1,-1,
1648,-1,1815,546,97,170,0.234,-1,-1,-1,
1648,-1,1156,110,233,90,0.21,-1,-1,-1,
1648,-1,0,753,496,320,0.296,-1,-1,-1,
1649,-1,1162,129,110,74,0.909,-1,-1,-1,
1649,-1,13,747,312,205,0.699,-1,-1,-1,
1649,-1,390,203,73,41,0.567,-1,-1,-1,
1649,-1,0,756,434,312,0.393,-1,-1,-1,
1649,-1,1815,545,97,170,0.238,-1,-1,-1,
1649,-1,0,749,491,327,0.423,-1,-1,-1,
1650,-1,1172,125,112,76,0.887,-1,-1,-1,
1650,-1,13,751,309,199,0.665,-1,-1,-1,
1650,-1,390,202,73,42,0.569,-1,-1,-1,
1650,-1,0,756,447,314,0.387,-1,-1,-1,
1650,-1,1175,111,218,87,0.251,-1,-1,-1,
1650,-1,1815,545,97,171,0.246,-1,-1,-1,
1651,-1,1180,126,105,72,0.875,-1,-1,-1,2
1651,-1,11,750,314,192,0.6,-1,-1,-1,2
1651,-1,392,203,70,40,0.546,-1,-1,-1,2
1651,-1,22,861,475,215,0.26,-1,-1,-1,5
1651,-1,1767,878,138,199,0.337,-1,-1,-1,2
1651,-1,1815,548,99,168,0.214,-1,-1,-1,2
1652,-1,1190,124,101,73,0.901,-1,-1,-1,
1652,-1,11,753,311,184,0.589,-1,-1,-1,
1652,-1,391,203,70,40,0.541,-1,-1,-1,
1652,-1,5,757,427,302,0.467,-1,-1,-1,
1652,-1,1197,117,198,75,0.276,-1,-1,-1,
1652,-1,1814,548,100,167,0.217,-1,-1,-1,
1652,-1,0,751,498,324,0.521,-1,-1,-1,
1653,-1,1198,123,105,71,0.872,-1,-1,-1,
1653,-1,8,753,308,173,0.601,-1,-1,-1,
1653,-1,391,203,70,40,0.517,-1,-1,-1,
1653,-1,5,758,429,303,0.415,-1,-1,-1,
1653,-1,1192,117,213,72,0.216,-1,-1,-1,
1653,-1,1814,549,99,167,0.209,-1,-1,-1,
1653,-1,0,751,505,323,0.469,-1,-1,-1,
1654,-1,1203,122,111,71,0.867,-1,-1,-1,
1654,-1,8,756,303,170,0.585,-1,-1,-1,
1654,-1,392,203,70,40,0.531,-1,-1,-1,
1654,-1,6,761,431,300,0.355,-1,-1,-1,
1654,-1,1720,831,195,248,0.307,-1,-1,-1,
1654,-1,1815,548,98,167,0.208,-1,-1,-1,
1654,-1,0,756,507,319,0.487,-1,-1,-1,
1655,-1,1211,121,116,69,0.866,-1,-1,-1,
1655,-1,392,203,70,40,0.534,-1,-1,-1,
1655,-1,9,756,301,171,0.512,-1,-1,-1,
1655,-1,6,757,444,308,0.381,-1,-1,-1,
1655,-1,1815,547,99,167,0.22,-1,-1,-1,
1655,-1,0,752,505,324,0.474,-1,-1,-1,
1656,-1,1220,119,111,70,0.888,-1,-1,-1,
1656,-1,9,757,298,167,0.528,-1,-1,-1,
1656,-1,393,203,69,40,0.518,-1,-1,-1,
1656,-1,4,813,493,265,0.329,-1,-1,-1,
1656,-1,1815,547,98,166,0.213,-1,-1,-1,
1656,-1,0,758,515,318,0.456,-1,-1,-1,
1657,-1,1227,118,107,69,0.879,-1,-1,-1,
1657,-1,5,760,306,178,0.589,-1,-1,-1,
1657,-1,1709,802,208,272,0.551,-1,-1,-1,
1657,-1,392,203,70,40,0.514,-1,-1,-1,
1657,-1,0,756,521,319,0.384,-1,-1,-1,
1658,-1,1232,119,106,67,0.809,-1,-1,-1,
1658,-1,391,203,70,40,0.514,-1,-1,-1,
1658,-1,5,760,312,182,0.503,-1,-1,-1,
1658,-1,1814,547,98,166,0.201,-1,-1,-1,
1658,-1,0,753,516,322,0.458,-1,-1,-1,
1659,-1,1241,119,111,64,0.768,-1,-1,-1,
1659,-1,1677,794,238,266,0.659,-1,-1,-1,
1659,-1,392,203,70,40,0.528,-1,-1,-1,
1659,-1,4,764,305,181,0.487,-1,-1,-1,
1659,-1,1814,548,99,165,0.204,-1,-1,-1,
1659,-1,0,754,516,323,0.441,-1,-1,-1,
1660,-1,1251,116,110,66,0.854,-1,-1,-1,
1660,-1,1663,783,252,271,0.737,-1,-1,-1,
1660,-1,391,203,71,40,0.517,-1,-1,-1,
1660,-1,7,765,309,194,0.41,-1,-1,-1,
1660,-1,1812,548,98,164,0.202,-1,-1,-1,
1660,-1,0,757,501,319,0.529,-1,-1,-1,
1661,-1,1649,766,262,285,0.833,-1,-1,-1,2
1661,-1,1262,115,100,65,0.774,-1,-1,-1,2
1661,-1,390,202,73,41,0.531,-1,-1,-1,2
1661,-1,8,767,312,197,0.28,-1,-1,-1,2
1661,-1,22,861,475,215,0.26,-1,-1,-1,5
1662,-1,1637,759,279,283,0.897,-1,-1,-1,
1662,-1,1271,110,100,69,0.707,-1,-1,-1,
1662,-1,390,203,72,41,0.537,-1,-1,-1,
1662,-1,1812,548,97,163,0.226,-1,-1,-1,
1662,-1,8,769,307,207,0.215,-1,-1,-1,
1662,-1,0,759,489,318,0.598,-1,-1,-1,
1663,-1,1624,750,293,284,0.907,-1,-1,-1,
1663,-1,1275,108,113,70,0.839,-1,-1,-1,
1663,-1,390,203,73,40,0.535,-1,-1,-1,
1663,-1,1813,547,97,161,0.246,-1,-1,-1,
1663,-1,6,768,311,207,0.212,-1,-1,-1,
1663,-1,12,755,500,317,0.608,-1,-1,-1,
1664,-1,1281,105,105,70,0.868,-1,-1,-1,
1664,-1,390,202,73,41,0.536,-1,-1,-1,
1664,-1,1812,547,98,157,0.278,-1,-1,-1,
1664,-1,11,752,499,319,0.688,-1,-1,-1,
1665,-1,1292,104,96,69,0.78,-1,-1,-1,
1665,-1,391,203,71,41,0.533,-1,-1,-1,
1665,-1,1812,547,99,156,0.261,-1,-1,-1,
1665,-1,6,775,308,201,0.231,-1,-1,-1,
1665,-1,14,757,496,314,0.586,-1,-1,-1,
1666,-1,391,203,71,40,0.535,-1,-1,-1,
1666,-1,1303,104,84,65,0.48,-1,-1,-1,
1666,-1,1813,546,99,159,0.254,-1,-1,-1,
1666,-1,7,773,306,201,0.224,-1,-1,-1,
1666,-1,0,766,495,311,0.59,-1,-1,-1,
1667,-1,1577,713,330,257,0.972,-1,-1,-1,
1667,-1,391,203,71,41,0.526,-1,-1,-1,
1667,-1,1305,102,94,65,0.411,-1,-1,-1,
1667,-1,1814,545,99,162,0.25,-1,-1,-1,
1667,-1,7,774,300,199,0.221,-1,-1,-1,
1667,-1,0,767,492,309,0.595,-1,-1,-1,
1667,-1,1306,103,95,67,0.272,-1,-1,-1,
1668,-1,1558,699,347,258,0.978,-1,-1,-1,
1668,-1,1312,101,92,64,0.644,-1,-1,-1,
1668,-1,391,203,72,41,0.527,-1,-1,-1,
1668,-1,7,776,302,198,0.288,-1,-1,-1,
1668,-1,14,762,492,308,0.51,-1,-1,-1,
1669,-1,1547,693,343,249,0.964,-1,-1,-1,
1669,-1,1317,98,94,68,0.69,-1,-1,-1,
1669,-1,391,203,71,40,0.52,-1,-1,-1,
1669,-1,7,775,304,201,0.237,-1,-1,-1,
1669,-1,14,761,495,310,0.569,-1,-1,-1,
1670,-1,1537,683,325,241,0.975,-1,-1,-1,
1670,-1,1324,98,97,67,0.682,-1,-1,-1,
1670,-1,391,203,71,40,0.522,-1,-1,-1,
1670,-1,6,775,300,202,0.2,-1,-1,-1,
1670,-1,12,761,493,311,0.598,-1,-1,-1,
1671,-1,1527,676,316,234,0.971,-1,-1,-1,2
1671,-1,1327,99,98,64,0.82,-1,-1,-1,2
1671,-1,391,202,71,42,0.55,-1,-1,-1,2
1671,-1,1820,545,94,175,0.341,-1,-1,-1,2
1671,-1,6,776,302,202,0.218,-1,-1,-1,2
1671,-1,22,861,475,215,0.26,-1,-1,-1,5
1672,-1,1514,663,311,231,0.979,-1,-1,-1,
1672,-1,1331,97,95,63,0.847,-1,-1,-1,
1672,-1,392,203,71,41,0.551,-1,-1,-1,
1672,-1,1813,547,99,167,0.316,-1,-1,-1,
1672,-1,6,776,300,202,0.253,-1,-1,-1,
1672,-1,0,767,492,309,0.585,-1,-1,-1,
1673,-1,1496,657,313,225,0.935,-1,-1,-1,
1673,-1,1335,97,94,59,0.743,-1,-1,-1,
1673,-1,392,203,71,41,0.553,-1,-1,-1,
1673,-1,1813,546,100,165,0.313,-1,-1,-1,
1673,-1,6,777,300,202,0.248,-1,-1,-1,
1673,-1,0,766,492,311,0.607,-1,-1,-1,
1674,-1,1485,649,301,218,0.968,-1,-1,-1,
1674,-1,1339,97,97,59,0.805,-1,-1,-1,
1674,-1,391,203,71,41,0.546,-1,-1,-1,
1674,-1,1813,545,100,167,0.288,-1,-1,-1,
1674,-1,5,777,301,202,0.251,-1,-1,-1,
1674,-1,0,766,491,311,0.587,-1,-1,-1,
1675,-1,1466,638,307,217,0.973,-1,-1,-1,
1675,-1,1344,95,96,61,0.806,-1,-1,-1,
1675,-1,390,202,72,42,0.552,-1,-1,-1,
1675,-1,6,776,302,204,0.235,-1,-1,-1,
1675,-1,0,765,489,311,0.576,-1,-1,-1,
1676,-1,1469,632,279,214,0.962,-1,-1,-1,
1676,-1,1345,93,103,62,0.848,-1,-1,-1,
1676,-1,391,203,70,41,0.552,-1,-1,-1,
1676,-1,6,776,299,206,0.209,-1,-1,-1,
1676,-1,0,765,487,312,0.608,-1,-1,-1,
1677,-1,1452,624,277,204,0.948,-1,-1,-1,
1677,-1,1358,90,93,65,0.808,-1,-1,-1,
1677,-1,391,203,71,41,0.559,-1,-1,-1,
1677,-1,6,776,300,207,0.2,-1,-1,-1,
1677,-1,0,765,487,311,0.63,-1,-1,-1,
1678,-1,1449,620,266,198,0.974,-1,-1,-1,
1678,-1,1365,88,91,65,0.723,-1,-1,-1,
1678,-1,391,203,72,41,0.555,-1,-1,-1,
1678,-1,5,777,299,208,0.216,-1,-1,-1,
1678,-1,0,767,486,310,0.598,-1,-1,-1,
1679,-1,1435,609,268,206,0.967,-1,-1,-1,
1679,-1,1373,87,88,65,0.718,-1,-1,-1,
1679,-1,390,203,72,41,0.554,-1,-1,-1,
1679,-1,6,777,299,209,0.201,-1,-1,-1,
1679,-1,0,767,484,310,0.618,-1,-1,-1,
1680,-1,1422,602,267,198,0.946,-1,-1,-1,
1680,-1,1379,87,86,64,0.706,-1,-1,-1,
1680,-1,392,203,71,41,0.566,-1,-1,-1,
1680,-1,5,777,299,208,0.213,-1,-1,-1,
1680,-1,0,767,485,310,0.579,-1,-1,-1,
1681,-1,1410,597,254,188,0.906,-1,-1,-1,2
1681,-1,1382,82,90,67,0.558,-1,-1,-1,2
1681,-1,391,203,71,41,0.554,-1,-1,-1,2
1681,-1,1826,547,90,175,0.259,-1,-1,-1,2
1681,-1,5,778,304,205,0.212,-1,-1,-1,2
1681,-1,22,861,475,215,0.26,-1,-1,-1,5
1682,-1,1399,589,253,187,0.906,-1,-1,-1,
1682,-1,390,202,72,41,0.552,-1,-1,-1,
1682,-1,1386,82,87,67,0.548,-1,-1,-1,
1682,-1,1827,547,88,175,0.264,-1,-1,-1,
1682,-1,4,778,304,206,0.2,-1,-1,-1,
1682,-1,0,768,482,310,0.614,-1,-1,-1,
1683,-1,1395,580,243,187,0.925,-1,-1,-1,
1683,-1,391,202,71,41,0.55,-1,-1,-1,
1683,-1,1384,79,92,69,0.532,-1,-1,-1,
1683,-1,1827,547,88,174,0.282,-1,-1,-1,
1683,-1,5,778,304,206,0.201,-1,-1,-1,
1683,-1,0,768,481,311,0.609,-1,-1,-1,
1684,-1,1390,569,235,187,0.851,-1,-1,-1,
1684,-1,391,202,71,41,0.547,-1,-1,-1,
1684,-1,1388,79,87,68,0.439,-1,-1,-1,
1684,-1,1827,547,89,172,0.272,-1,-1,-1,
1684,-1,4,778,303,204,0.212,-1,-1,-1,
1684,-1,0,767,481,311,0.609,-1,-1,-1,
1684,-1,1387,570,236,184,0.204,-1,-1,-1,
1685,-1,1372,565,239,181,0.774,-1,-1,-1,
1685,-1,391,202,71,41,0.541,-1,-1,-1,
1685,-1,1394,79,84,66,0.425,-1,-1,-1,
1685,-1,1827,547,89,172,0.259,-1,-1,-1,
1685,-1,0,768,481,310,0.63,-1,-1,-1,
1685,-1,1372,567,234,180,0.272,-1,-1,-1,
1686,-1,1364,557,232,177,0.799,-1,-1,-1,
1686,-1,391,202,72,41,0.539,-1,-1,-1,
1686,-1,1827,547,89,172,0.268,-1,-1,-1,
1686,-1,0,767,479,311,0.621,-1,-1,-1,
1686,-1,1367,554,237,181,0.249,-1,-1,-1,
1687,-1,1351,552,232,172,0.928,-1,-1,-1,
1687,-1,391,203,71,41,0.554,-1,-1,-1,
1687,-1,1825,547,90,171,0.272,-1,-1,-1,
1687,-1,1410,77,78,66,0.229,-1,-1,-1,
1687,-1,4,777,302,205,0.209,-1,-1,-1,
1687,-1,0,767,484,312,0.597,-1,-1,-1,
1688,-1,1350,543,221,171,0.856,-1,-1,-1,
1688,-1,392,202,70,41,0.545,-1,-1,-1,
1688,-1,1825,547,90,171,0.293,-1,-1,-1,
1688,-1,1413,75,76,67,0.214,-1,-1,-1,
1688,-1,5,777,302,207,0.206,-1,-1,-1,
1688,-1,0,767,483,312,0.601,-1,-1,-1,
1688,-1,1352,542,217,168,0.201,-1,-1,-1,
1689,-1,1338,535,219,169,0.764,-1,-1,-1,
1689,-1,391,202,72,41,0.559,-1,-1,-1,
1689,-1,1824,546,91,171,0.267,-1,-1,-1,
1689,-1,5,776,302,210,0.204,-1,-1,-1,
1689,-1,1341,535,214,167,0.28,-1,-1,-1,
1690,-1,1326,531,211,167,0.786,-1,-1,-1,
1690,-1,389,202,73,41,0.573,-1,-1,-1,
1690,-1,5,778,303,207,0.209,-1,-1,-1,
1690,-1,1,767,477,311,0.65,-1,-1,-1,
1690,-1,1331,531,217,167,0.243,-1,-1,-1,
1691,-1,1327,524,205,158,0.813,-1,-1,-1,2
1691,-1,1611,801,307,275,0.781,-1,-1,-1,2
1691,-1,393,203,70,40,0.577,-1,-1,-1,2
1691,-1,1407,76,81,62,0.297,-1,-1,-1,2
1691,-1,1821,547,94,171,0.235,-1,-1,-1,2
1691,-1,1,763,482,315,0.592,-1,-1,-1,2
1661,-1,22,861,475,215,0.26,-1,-1,-1,5
1692,-1,1322,520,193,153,0.757,-1,-1,-1,
1692,-1,1603,784,315,284,0.659,-1,-1,-1,
1692,-1,393,203,70,41,0.568,-1,-1,-1,
1692,-1,1399,78,69,57,0.333,-1,-1,-1,
1692,-1,1,764,481,314,0.611,-1,-1,-1,
1692,-1,1316,518,204,157,0.308,-1,-1,-1,
1693,-1,1316,514,190,152,0.778,-1,-1,-1,
1693,-1,394,203,69,41,0.559,-1,-1,-1,
1693,-1,1398,73,83,64,0.345,-1,-1,-1,
1693,-1,1821,548,94,169,0.216,-1,-1,-1,
1693,-1,1,763,479,315,0.614,-1,-1,-1,
1693,-1,1314,508,197,162,0.3,-1,-1,-1,
1694,-1,1306,504,194,151,0.722,-1,-1,-1,
1694,-1,394,203,70,41,0.567,-1,-1,-1,
1694,-1,1393,73,68,50,0.253,-1,-1,-1,
1694,-1,1822,550,93,167,0.226,-1,-1,-1,
1694,-1,1,763,478,315,0.593,-1,-1,-1,
1694,-1,1308,507,193,151,0.343,-1,-1,-1,
1695,-1,1572,759,343,318,0.872,-1,-1,-1,
1695,-1,1300,493,186,154,0.621,-1,-1,-1,
1695,-1,393,203,71,41,0.567,-1,-1,-1,
1695,-1,1390,76,72,59,0.416,-1,-1,-1,
1695,-1,1813,551,98,161,0.238,-1,-1,-1,
1695,-1,0,763,479,315,0.592,-1,-1,-1,
1695,-1,1579,755,339,316,0.441,-1,-1,-1,
1695,-1,1298,498,193,151,0.428,-1,-1,-1,
1696,-1,1566,747,349,329,0.809,-1,-1,-1,
1696,-1,1293,488,182,148,0.74,-1,-1,-1,
1696,-1,393,203,71,41,0.554,-1,-1,-1,
1696,-1,1381,72,87,65,0.514,-1,-1,-1,
1696,-1,1813,549,99,160,0.251,-1,-1,-1,
1696,-1,2,763,475,316,0.587,-1,-1,-1,
1696,-1,1578,745,339,326,0.522,-1,-1,-1,
1696,-1,1291,488,179,146,0.276,-1,-1,-1,
1697,-1,1287,477,185,151,0.635,-1,-1,-1,
1697,-1,1376,72,90,64,0.578,-1,-1,-1,
1697,-1,395,202,68,41,0.561,-1,-1,-1,
1697,-1,1288,476,178,151,0.377,-1,-1,-1,
1698,-1,1541,717,375,358,0.837,-1,-1,-1,
1698,-1,1280,467,178,149,0.685,-1,-1,-1,
1698,-1,1360,75,90,62,0.685,-1,-1,-1,
1698,-1,393,203,70,41,0.571,-1,-1,-1,
1698,-1,1813,547,100,157,0.216,-1,-1,-1,
1698,-1,1549,719,368,353,0.584,-1,-1,-1,
1698,-1,17,759,484,314,0.555,-1,-1,-1,
1698,-1,1281,468,179,152,0.378,-1,-1,-1,
1699,-1,1530,713,388,362,0.793,-1,-1,-1,
1699,-1,1273,461,181,146,0.753,-1,-1,-1,
1699,-1,1359,74,88,60,0.69,-1,-1,-1,
1699,-1,394,203,69,41,0.554,-1,-1,-1,
1699,-1,0,762,479,316,0.581,-1,-1,-1,
1699,-1,1271,463,182,145,0.32,-1,-1,-1,
16100,-1,1521,702,397,372,0.786,-1,-1,-1,
16100,-1,1272,458,176,138,0.757,-1,-1,-1,
16100,-1,1351,74,89,61,0.723,-1,-1,-1,
16100,-1,394,203,68,41,0.552,-1,-1,-1,
16100,-1,16,759,489,314,0.556,-1,-1,-1,
16100,-1,1269,458,181,141,0.32,-1,-1,-1,
16101,-1,1263,454,175,131,0.841,-1,-1,-1,2
16101,-1,390,203,73,41,0.604,-1,-1,-1,2
16101,-1,1340,74,92,63,0.563,-1,-1,-1,2
16101,-1,1516,692,398,378,0.686,-1,-1,-1,5
16101,-1,14,760,495,313,0.561,-1,-1,-1,2
16101,-1,22,861,475,215,0.26,-1,-1,-1,5
16102,-1,1261,441,166,135,0.827,-1,-1,-1,
16102,-1,1318,74,99,66,0.779,-1,-1,-1,
16102,-1,1497,684,422,387,0.688,-1,-1,-1,
16102,-1,390,203,73,41,0.602,-1,-1,-1,
16102,-1,1358,75,64,51,0.268,-1,-1,-1,
16102,-1,1496,685,418,392,0.668,-1,-1,-1,
16102,-1,0,762,486,317,0.617,-1,-1,-1,
16102,-1,1258,443,171,135,0.236,-1,-1,-1,
16103,-1,1252,432,168,137,0.848,-1,-1,-1,
16103,-1,1308,73,97,65,0.742,-1,-1,-1,
16103,-1,390,203,72,41,0.607,-1,-1,-1,
16104,-1,1240,426,167,131,0.869,-1,-1,-1,
16104,-1,1295,72,98,63,0.616,-1,-1,-1,
16104,-1,390,202,72,41,0.615,-1,-1,-1,
16104,-1,1481,670,431,393,0.501,-1,-1,-1,
16104,-1,1814,546,103,156,0.214,-1,-1,-1,
16104,-1,1288,80,58,49,0.212,-1,-1,-1,
16105,-1,1238,421,163,129,0.895,-1,-1,-1,
16105,-1,390,203,72,41,0.628,-1,-1,-1,
16105,-1,1289,70,100,65,0.55,-1,-1,-1,
16105,-1,1466,661,437,394,0.348,-1,-1,-1,
16105,-1,1273,77,66,53,0.294,-1,-1,-1,
16105,-1,0,763,482,316,0.633,-1,-1,-1,
16106,-1,1225,412,165,129,0.889,-1,-1,-1,
16106,-1,390,203,72,41,0.622,-1,-1,-1,
16106,-1,1444,653,453,372,0.616,-1,-1,-1,
16106,-1,1256,73,104,59,0.599,-1,-1,-1,
16106,-1,1302,73,74,46,0.352,-1,-1,-1,
16106,-1,1456,656,454,370,0.773,-1,-1,-1,
16106,-1,1,765,483,314,0.574,-1,-1,-1,
16107,-1,1209,405,170,125,0.927,-1,-1,-1,
16107,-1,1241,72,115,57,0.685,-1,-1,-1,
16107,-1,391,203,72,41,0.614,-1,-1,-1,
16107,-1,1432,648,451,355,0.598,-1,-1,-1,
16107,-1,1294,74,65,45,0.237,-1,-1,-1,
16107,-1,1436,645,447,360,0.818,-1,-1,-1,
16107,-1,1,764,486,314,0.637,-1,-1,-1,
16108,-1,1197,399,170,127,0.931,-1,-1,-1,
16108,-1,1223,75,126,57,0.628,-1,-1,-1,
16108,-1,391,202,71,41,0.6,-1,-1,-1,
16108,-1,1412,638,451,340,0.507,-1,-1,-1,
16108,-1,1817,551,98,152,0.233,-1,-1,-1,
16108,-1,1411,640,454,350,0.831,-1,-1,-1,
16108,-1,1,764,487,315,0.613,-1,-1,-1,
16109,-1,1182,392,174,124,0.955,-1,-1,-1,
16109,-1,1218,74,115,55,0.663,-1,-1,-1,
16109,-1,391,202,71,42,0.591,-1,-1,-1,
16109,-1,1406,619,422,351,0.386,-1,-1,-1,
16109,-1,1817,553,97,156,0.284,-1,-1,-1,
16109,-1,1407,625,421,342,0.913,-1,-1,-1,
16109,-1,1,763,481,315,0.633,-1,-1,-1,
16110,-1,1181,380,162,125,0.918,-1,-1,-1,
16110,-1,1384,618,422,339,0.676,-1,-1,-1,
16110,-1,390,202,72,42,0.592,-1,-1,-1,
16110,-1,1208,73,114,54,0.484,-1,-1,-1,
16110,-1,1776,546,140,155,0.276,-1,-1,-1,
16110,-1,1388,614,421,343,0.804,-1,-1,-1,
16110,-1,2,763,482,314,0.649,-1,-1,-1,
16111,-1,1168,371,164,124,0.949,-1,-1,-1,2
16111,-1,1187,69,110,60,0.734,-1,-1,-1,2
16111,-1,390,202,74,42,0.585,-1,-1,-1,2
16111,-1,1241,76,66,50,0.261,-1,-1,-1,2
16111,-1,1389,606,395,337,0.695,-1,-1,-1,5
16111,-1,22,861,475,215,0.26,-1,-1,-1,5
16112,-1,1149,368,170,119,0.977,-1,-1,-1,
16112,-1,1166,72,123,56,0.729,-1,-1,-1,
16112,-1,1354,605,410,323,0.688,-1,-1,-1,
16112,-1,391,202,72,42,0.575,-1,-1,-1,
16112,-1,1828,550,87,165,0.259,-1,-1,-1,
16112,-1,1367,610,389,312,0.604,-1,-1,-1,
16113,-1,1137,363,165,116,0.977,-1,-1,-1,
16113,-1,1152,75,122,52,0.617,-1,-1,-1,
16113,-1,1365,595,376,313,0.587,-1,-1,-1,
16113,-1,390,202,73,42,0.585,-1,-1,-1,
16113,-1,1818,552,97,158,0.248,-1,-1,-1,
16113,-1,1372,594,374,312,0.67,-1,-1,-1,
16114,-1,1133,358,155,110,0.979,-1,-1,-1,
16114,-1,1365,589,368,309,0.595,-1,-1,-1,
16114,-1,389,202,74,42,0.583,-1,-1,-1,
16114,-1,1132,74,120,49,0.365,-1,-1,-1,
16114,-1,1818,551,98,160,0.236,-1,-1,-1,
16114,-1,1372,592,359,301,0.671,-1,-1,-1,
16115,-1,1118,349,159,116,0.953,-1,-1,-1,
16115,-1,389,202,74,42,0.584,-1,-1,-1,
16115,-1,1347,578,341,301,0.489,-1,-1,-1,
16115,-1,1111,81,93,40,0.436,-1,-1,-1,
16115,-1,1828,549,91,171,0.235,-1,-1,-1,
16115,-1,1361,573,344,307,0.748,-1,-1,-1,
16116,-1,1117,340,151,117,0.955,-1,-1,-1,
16116,-1,390,203,73,41,0.598,-1,-1,-1,
16116,-1,1339,579,345,298,0.552,-1,-1,-1,
16116,-1,1095,75,123,49,0.378,-1,-1,-1,
16116,-1,1828,548,90,173,0.264,-1,-1,-1,
16116,-1,1350,560,335,304,0.792,-1,-1,-1,
16117,-1,1103,334,154,114,0.952,-1,-1,-1,
16117,-1,389,202,74,42,0.58,-1,-1,-1,
16117,-1,1339,570,329,284,0.51,-1,-1,-1,
16117,-1,1077,74,122,49,0.455,-1,-1,-1,
16117,-1,1828,550,88,171,0.248,-1,-1,-1,
16117,-1,1146,78,67,41,0.205,-1,-1,-1,
16117,-1,1353,552,315,288,0.747,-1,-1,-1,
16118,-1,1086,332,153,105,0.978,-1,-1,-1,
16118,-1,389,202,74,41,0.586,-1,-1,-1,
16118,-1,1329,560,324,282,0.468,-1,-1,-1,
16118,-1,1068,75,120,48,0.447,-1,-1,-1,
16118,-1,1827,550,88,170,0.29,-1,-1,-1,
16118,-1,1332,552,325,284,0.73,-1,-1,-1,
16119,-1,1076,330,152,100,0.975,-1,-1,-1,
16119,-1,390,202,73,41,0.593,-1,-1,-1,
16119,-1,1047,81,88,42,0.416,-1,-1,-1,
16119,-1,1324,552,314,255,0.37,-1,-1,-1,
16119,-1,1114,78,66,43,0.328,-1,-1,-1,
16119,-1,1827,550,88,170,0.302,-1,-1,-1,
16119,-1,1323,545,315,276,0.792,-1,-1,-1,
16120,-1,1075,320,140,106,0.935,-1,-1,-1,
16120,-1,389,202,74,41,0.595,-1,-1,-1,
16120,-1,1032,76,117,49,0.497,-1,-1,-1,
16120,-1,1318,543,306,261,0.473,-1,-1,-1,
16120,-1,4,777,440,293,0.322,-1,-1,-1,
16120,-1,1094,78,62,41,0.282,-1,-1,-1,
16120,-1,1326,538,300,267,0.795,-1,-1,-1,
16121,-1,1063,313,143,108,0.893,-1,-1,-1,2
16121,-1,390,202,74,41,0.594,-1,-1,-1,2
16121,-1,1012,77,114,49,0.528,-1,-1,-1,2
16121,-1,4,780,306,186,0.239,-1,-1,-1,2
16121,-1,1323,534,290,259,0.738,-1,-1,-1,5
16121,-1,18,758,500,313,0.556,-1,-1,-1,5
16122,-1,1055,311,139,104,0.953,-1,-1,-1,
16122,-1,390,202,74,42,0.59,-1,-1,-1,
16122,-1,1000,76,118,49,0.527,-1,-1,-1,
16122,-1,1315,527,292,264,0.418,-1,-1,-1,
16122,-1,1056,78,63,42,0.221,-1,-1,-1,
16122,-1,1320,523,283,261,0.714,-1,-1,-1,
16123,-1,1047,305,135,104,0.947,-1,-1,-1,
16123,-1,980,77,123,53,0.628,-1,-1,-1,
16123,-1,390,202,74,42,0.612,-1,-1,-1,
16123,-1,1306,518,289,256,0.374,-1,-1,-1,
16123,-1,4,782,307,196,0.202,-1,-1,-1,
16123,-1,1310,523,281,248,0.627,-1,-1,-1,
16124,-1,1035,300,135,100,0.924,-1,-1,-1,
16124,-1,390,202,74,41,0.607,-1,-1,-1,
16124,-1,971,76,112,52,0.578,-1,-1,-1,
16124,-1,1293,507,282,260,0.383,-1,-1,-1,
16124,-1,1025,82,61,43,0.205,-1,-1,-1,
16124,-1,1306,517,277,251,0.818,-1,-1,-1,
16125,-1,1028,297,136,99,0.929,-1,-1,-1,
16125,-1,390,202,74,42,0.604,-1,-1,-1,
16125,-1,993,80,71,47,0.418,-1,-1,-1,
16125,-1,1286,503,276,252,0.4,-1,-1,-1,
16125,-1,1296,516,261,237,0.819,-1,-1,-1,
16126,-1,1022,290,137,100,0.83,-1,-1,-1,
16126,-1,390,202,74,43,0.605,-1,-1,-1,
16126,-1,976,81,69,46,0.49,-1,-1,-1,
16126,-1,1291,497,261,241,0.476,-1,-1,-1,
16126,-1,5,785,306,193,0.206,-1,-1,-1,
16126,-1,1312,509,209,108,0.2,-1,-1,-1,
16126,-1,1296,498,255,237,0.779,-1,-1,-1,
16127,-1,390,202,74,42,0.598,-1,-1,-1,
16127,-1,1019,286,124,101,0.544,-1,-1,-1,
16127,-1,975,82,59,48,0.508,-1,-1,-1,
16127,-1,1277,491,270,235,0.293,-1,-1,-1,
16127,-1,1284,489,262,237,0.88,-1,-1,-1,
16128,-1,1009,280,123,105,0.63,-1,-1,-1,
16128,-1,390,202,74,42,0.595,-1,-1,-1,
16128,-1,1280,488,257,220,0.419,-1,-1,-1,
16128,-1,1282,489,256,225,0.85,-1,-1,-1,
16129,-1,1008,274,116,100,0.717,-1,-1,-1,
16129,-1,391,202,73,42,0.596,-1,-1,-1,
16129,-1,1275,481,258,225,0.519,-1,-1,-1,
16129,-1,1278,483,255,222,0.792,-1,-1,-1,
16130,-1,1001,269,120,96,0.762,-1,-1,-1,
16130,-1,392,202,73,41,0.611,-1,-1,-1,
16130,-1,1278,476,243,220,0.453,-1,-1,-1,
16130,-1,1279,473,244,224,0.8,-1,-1,-1,
16131,-1,996,266,125,96,0.82,-1,-1,-1,2
16131,-1,392,202,74,43,0.628,-1,-1,-1,2
16131,-1,1275,467,242,221,0.506,-1,-1,-1,5
16131,-1,18,763,485,310,0.508,-1,-1,-1,5
16132,-1,992,266,124,91,0.788,-1,-1,-1,
16132,-1,391,202,75,43,0.622,-1,-1,-1,
16132,-1,1265,457,240,223,0.406,-1,-1,-1,
16132,-1,1272,463,238,214,0.752,-1,-1,-1,
16133,-1,997,260,113,94,0.674,-1,-1,-1,
16133,-1,391,201,75,43,0.615,-1,-1,-1,
16133,-1,1256,455,238,211,0.398,-1,-1,-1,
16133,-1,1264,457,235,212,0.739,-1,-1,-1,
16133,-1,1,768,478,310,0.521,-1,-1,-1,
16134,-1,988,255,114,95,0.686,-1,-1,-1,
16134,-1,392,201,74,43,0.61,-1,-1,-1,
16134,-1,1254,447,232,209,0.559,-1,-1,-1,
16134,-1,483,229,142,142,0.201,-1,-1,-1,
16134,-1,1259,443,228,213,0.66,-1,-1,-1,
16134,-1,1,770,482,307,0.48,-1,-1,-1,
16135,-1,989,250,111,97,0.692,-1,-1,-1,
16135,-1,392,202,75,43,0.616,-1,-1,-1,
16135,-1,1255,440,226,208,0.546,-1,-1,-1,
16135,-1,483,229,141,141,0.214,-1,-1,-1,
16135,-1,1256,435,225,212,0.715,-1,-1,-1,
16135,-1,0,768,485,308,0.482,-1,-1,-1,
16136,-1,989,245,111,96,0.638,-1,-1,-1,
16136,-1,392,201,75,43,0.616,-1,-1,-1,
16136,-1,1263,430,211,211,0.569,-1,-1,-1,
16136,-1,1252,429,221,211,0.667,-1,-1,-1,
16136,-1,1,769,479,308,0.529,-1,-1,-1,
16137,-1,988,243,111,92,0.727,-1,-1,-1,
16137,-1,392,201,75,43,0.616,-1,-1,-1,
16137,-1,1255,427,207,208,0.324,-1,-1,-1,
16137,-1,485,229,140,142,0.232,-1,-1,-1,
16137,-1,1245,425,224,210,0.824,-1,-1,-1,
16137,-1,0,769,476,307,0.488,-1,-1,-1,
16138,-1,392,201,75,43,0.609,-1,-1,-1,
16138,-1,986,240,110,92,0.505,-1,-1,-1,
16138,-1,1241,420,219,195,0.399,-1,-1,-1,
16138,-1,485,229,141,143,0.246,-1,-1,-1,
16138,-1,4,787,286,207,0.201,-1,-1,-1,
16138,-1,1244,417,216,200,0.731,-1,-1,-1,
16138,-1,0,770,480,305,0.447,-1,-1,-1,
16139,-1,986,235,107,94,0.685,-1,-1,-1,
16139,-1,393,201,74,43,0.599,-1,-1,-1,
16139,-1,1239,412,213,198,0.38,-1,-1,-1,
16139,-1,485,229,141,142,0.221,-1,-1,-1,
16139,-1,1242,408,209,201,0.765,-1,-1,-1,
16139,-1,0,770,476,306,0.466,-1,-1,-1,
16140,-1,987,231,108,92,0.692,-1,-1,-1,
16140,-1,393,201,74,43,0.593,-1,-1,-1,
16140,-1,1242,405,202,190,0.486,-1,-1,-1,
16140,-1,485,230,141,141,0.259,-1,-1,-1,
16140,-1,1241,403,206,198,0.593,-1,-1,-1,
16140,-1,0,768,479,309,0.542,-1,-1,-1,
16141,-1,986,229,107,89,0.703,-1,-1,-1,2
16141,-1,393,202,73,42,0.584,-1,-1,-1,2
16141,-1,1235,397,205,194,0.528,-1,-1,-1,5
16131,-1,18,763,485,310,0.508,-1,-1,-1,5
16142,-1,986,227,105,87,0.677,-1,-1,-1,
16142,-1,394,201,73,42,0.584,-1,-1,-1,
16142,-1,1241,393,189,161,0.425,-1,-1,-1,
16142,-1,1244,386,189,192,0.609,-1,-1,-1,
16142,-1,0,769,479,308,0.524,-1,-1,-1,
16143,-1,986,223,105,87,0.738,-1,-1,-1,
16143,-1,394,201,73,43,0.579,-1,-1,-1,
16143,-1,1231,387,188,172,0.431,-1,-1,-1,
16143,-1,0,768,485,310,0.583,-1,-1,-1,
16143,-1,1237,382,189,185,0.548,-1,-1,-1,
16144,-1,989,219,104,88,0.692,-1,-1,-1,
16144,-1,394,201,72,43,0.575,-1,-1,-1,
16144,-1,1215,377,200,187,0.4,-1,-1,-1,
16144,-1,1822,544,93,177,0.237,-1,-1,-1,
16144,-1,0,769,482,308,0.529,-1,-1,-1,
16144,-1,1222,375,198,188,0.467,-1,-1,-1,
16145,-1,990,215,102,86,0.71,-1,-1,-1,
16145,-1,395,201,72,43,0.572,-1,-1,-1,
16145,-1,1216,374,190,177,0.539,-1,-1,-1,
16145,-1,1822,544,93,177,0.225,-1,-1,-1,
16145,-1,0,771,487,306,0.526,-1,-1,-1,
16145,-1,1217,370,189,183,0.464,-1,-1,-1,
16146,-1,988,214,101,81,0.745,-1,-1,-1,
16146,-1,1209,363,184,154,0.598,-1,-1,-1,
16146,-1,394,201,72,43,0.559,-1,-1,-1,
16146,-1,0,770,486,306,0.594,-1,-1,-1,
16146,-1,1212,360,189,183,0.451,-1,-1,-1,
16147,-1,985,211,104,83,0.71,-1,-1,-1,
16147,-1,394,201,73,43,0.566,-1,-1,-1,
16147,-1,1206,359,183,163,0.524,-1,-1,-1,
16147,-1,0,769,486,307,0.621,-1,-1,-1,
16147,-1,1206,355,188,178,0.546,-1,-1,-1,
16148,-1,985,208,102,83,0.772,-1,-1,-1,
16148,-1,395,201,72,43,0.573,-1,-1,-1,
16148,-1,1204,355,183,163,0.526,-1,-1,-1,
16148,-1,0,768,486,307,0.617,-1,-1,-1,
16148,-1,1206,354,184,168,0.453,-1,-1,-1,
16149,-1,988,204,99,83,0.734,-1,-1,-1,
16149,-1,395,201,71,43,0.567,-1,-1,-1,
16149,-1,1201,352,176,156,0.518,-1,-1,-1,
16149,-1,0,769,484,307,0.603,-1,-1,-1,
16149,-1,1201,352,176,156,0.472,-1,-1,-1,
16150,-1,989,202,97,81,0.795,-1,-1,-1,
16150,-1,395,201,72,43,0.559,-1,-1,-1,
16150,-1,1199,337,175,149,0.48,-1,-1,-1,
16150,-1,0,770,484,306,0.585,-1,-1,-1,
16150,-1,1200,344,172,151,0.568,-1,-1,-1,
16151,-1,991,200,97,78,0.755,-1,-1,-1,2
16151,-1,393,202,73,43,0.588,-1,-1,-1,2
16151,-1,1198,331,171,150,0.479,-1,-1,-1,5
16151,-1,0,767,485,309,0.474,-1,-1,-1,5
16152,-1,992,197,98,78,0.774,-1,-1,-1,
16152,-1,393,202,73,43,0.588,-1,-1,-1,
16152,-1,1194,329,169,149,0.479,-1,-1,-1,
16152,-1,1394,94,51,26,0.22,-1,-1,-1,
16152,-1,1193,328,169,153,0.528,-1,-1,-1,
16152,-1,0,768,484,309,0.432,-1,-1,-1,
16153,-1,993,195,100,77,0.765,-1,-1,-1,
16153,-1,392,201,74,43,0.572,-1,-1,-1,
16153,-1,1191,326,167,142,0.513,-1,-1,-1,
16153,-1,1189,325,168,146,0.51,-1,-1,-1,
16153,-1,0,768,481,309,0.46,-1,-1,-1,
16153,-1,1372,47,99,73,0.213,-1,-1,-1,
16154,-1,998,192,97,77,0.807,-1,-1,-1,
16154,-1,392,201,74,43,0.575,-1,-1,-1,
16154,-1,1187,319,167,138,0.497,-1,-1,-1,
16154,-1,1186,319,167,140,0.502,-1,-1,-1,
16154,-1,0,767,483,309,0.464,-1,-1,-1,
16155,-1,1001,189,96,76,0.819,-1,-1,-1,
16155,-1,393,202,73,43,0.589,-1,-1,-1,
16155,-1,1187,315,164,137,0.405,-1,-1,-1,
16155,-1,1358,27,119,100,0.318,-1,-1,-1,
16155,-1,1184,315,166,140,0.535,-1,-1,-1,
16155,-1,0,769,482,307,0.482,-1,-1,-1,
16156,-1,1004,187,95,75,0.772,-1,-1,-1,
16156,-1,1171,301,158,129,0.611,-1,-1,-1,
16156,-1,392,202,74,42,0.579,-1,-1,-1,
16156,-1,4,788,282,206,0.203,-1,-1,-1,
16156,-1,1358,80,77,46,0.203,-1,-1,-1,
16156,-1,1351,28,120,101,0.225,-1,-1,-1,
16156,-1,0,770,485,307,0.499,-1,-1,-1,
16156,-1,1179,307,164,142,0.308,-1,-1,-1,
16157,-1,1007,184,97,76,0.768,-1,-1,-1,
16157,-1,392,202,73,41,0.592,-1,-1,-1,
16157,-1,1171,297,155,136,0.544,-1,-1,-1,
16157,-1,1341,28,130,99,0.516,-1,-1,-1,
16157,-1,0,770,483,307,0.481,-1,-1,-1,
16157,-1,1173,299,156,145,0.424,-1,-1,-1,
16158,-1,1009,181,102,74,0.833,-1,-1,-1,
16158,-1,392,202,73,42,0.587,-1,-1,-1,
16158,-1,1168,292,154,133,0.574,-1,-1,-1,
16158,-1,1331,30,137,101,0.668,-1,-1,-1,
16158,-1,0,770,483,307,0.515,-1,-1,-1,
16158,-1,1171,296,153,141,0.401,-1,-1,-1,
16159,-1,1013,180,100,74,0.862,-1,-1,-1,
16159,-1,1165,288,159,132,0.653,-1,-1,-1,
16159,-1,392,202,74,42,0.58,-1,-1,-1,
16159,-1,1331,30,150,97,0.71,-1,-1,-1,
16159,-1,0,771,482,305,0.509,-1,-1,-1,
16159,-1,1165,288,159,132,0.332,-1,-1,-1,
16160,-1,1016,176,102,76,0.857,-1,-1,-1,
16160,-1,1165,285,153,128,0.635,-1,-1,-1,
16160,-1,392,202,73,42,0.579,-1,-1,-1,
16160,-1,1322,28,149,102,0.857,-1,-1,-1,
16160,-1,0,770,484,306,0.552,-1,-1,-1,
16160,-1,1165,285,153,128,0.351,-1,-1,-1,5
16161,-1,1025,172,97,74,0.857,-1,-1,-1,2
16161,-1,392,203,72,40,0.588,-1,-1,-1,2
16161,-1,1313,29,153,100,0.687,-1,-1,-1,4
16161,-1,0,773,490,303,0.503,-1,-1,-1,5
16162,-1,1032,170,96,73,0.818,-1,-1,-1,
16162,-1,393,203,71,40,0.598,-1,-1,-1,
16162,-1,1164,274,147,131,0.584,-1,-1,-1,
16162,-1,1304,30,142,103,0.758,-1,-1,-1,
16162,-1,1164,273,151,134,0.562,-1,-1,-1,
16162,-1,0,770,483,306,0.503,-1,-1,-1,
16163,-1,1034,171,99,72,0.826,-1,-1,-1,
16163,-1,393,203,72,40,0.584,-1,-1,-1,
16163,-1,1152,269,154,131,0.431,-1,-1,-1,
16163,-1,1298,31,148,96,0.831,-1,-1,-1,
16163,-1,1154,269,153,133,0.679,-1,-1,-1,
16163,-1,0,771,481,304,0.498,-1,-1,-1,
16164,-1,1039,167,99,74,0.807,-1,-1,-1,
16164,-1,393,202,71,41,0.579,-1,-1,-1,
16164,-1,1151,263,152,124,0.559,-1,-1,-1,
16164,-1,1283,32,154,98,0.312,-1,-1,-1,
16164,-1,0,770,483,306,0.501,-1,-1,-1,
16164,-1,1151,268,154,129,0.496,-1,-1,-1,
16165,-1,1043,167,104,72,0.851,-1,-1,-1,
16165,-1,393,202,71,41,0.587,-1,-1,-1,
16165,-1,1146,258,157,117,0.55,-1,-1,-1,
16165,-1,1269,30,156,100,0.678,-1,-1,-1,
16165,-1,0,770,484,306,0.513,-1,-1,-1,
16165,-1,1147,258,153,118,0.433,-1,-1,-1,
16166,-1,1050,165,107,72,0.88,-1,-1,-1,
16166,-1,1149,250,146,119,0.692,-1,-1,-1,
16166,-1,393,203,71,41,0.583,-1,-1,-1,
16166,-1,1259,31,163,99,0.667,-1,-1,-1,
16166,-1,0,771,486,305,0.46,-1,-1,-1,
16166,-1,1146,251,151,123,0.363,-1,-1,-1,
16167,-1,1062,163,99,70,0.863,-1,-1,-1,
16167,-1,1145,248,147,121,0.663,-1,-1,-1,
16167,-1,393,202,71,41,0.588,-1,-1,-1,
16167,-1,1272,83,77,53,0.242,-1,-1,-1,
16167,-1,1255,30,145,106,0.303,-1,-1,-1,
16167,-1,0,770,490,306,0.523,-1,-1,-1,
16167,-1,1144,246,148,124,0.407,-1,-1,-1,
16168,-1,1065,160,100,70,0.909,-1,-1,-1,
16168,-1,1141,241,148,122,0.62,-1,-1,-1,
16168,-1,393,202,71,41,0.565,-1,-1,-1,
16168,-1,1260,82,77,56,0.242,-1,-1,-1,
16168,-1,1259,34,136,102,0.271,-1,-1,-1,
16168,-1,0,771,489,305,0.538,-1,-1,-1,
16168,-1,1139,242,151,128,0.46,-1,-1,-1,
16169,-1,1072,156,100,71,0.918,-1,-1,-1,
16169,-1,393,203,71,41,0.576,-1,-1,-1,
16169,-1,1138,237,140,114,0.486,-1,-1,-1,
16169,-1,1256,65,94,72,0.275,-1,-1,-1,
16169,-1,1230,35,150,104,0.285,-1,-1,-1,
16169,-1,16,765,492,307,0.504,-1,-1,-1,
16169,-1,1138,238,142,117,0.413,-1,-1,-1,
16170,-1,1080,153,104,72,0.904,-1,-1,-1,
16170,-1,393,202,71,41,0.573,-1,-1,-1,
16170,-1,1137,235,140,112,0.523,-1,-1,-1,
16170,-1,1248,70,94,68,0.47,-1,-1,-1,
16170,-1,16,765,489,307,0.478,-1,-1,-1,
16171,-1,1091,152,98,70,0.822,-1,-1,-1,2
16171,-1,392,203,71,40,0.565,-1,-1,-1,2
16171,-1,1218,37,140,102,0.295,-1,-1,-1,4
16171,-1,0,769,494,307,0.516,-1,-1,-1,5
16171,-1,1137,231,138,113,0.273,-1,-1,-1,5
16172,-1,1097,153,100,66,0.835,-1,-1,-1,
16172,-1,1228,81,102,61,0.567,-1,-1,-1,
16172,-1,392,203,71,40,0.566,-1,-1,-1,
16172,-1,1134,226,136,112,0.496,-1,-1,-1,
16172,-1,0,771,492,305,0.523,-1,-1,-1,
16173,-1,1101,150,106,68,0.898,-1,-1,-1,
16173,-1,1224,79,103,65,0.708,-1,-1,-1,
16173,-1,391,203,71,40,0.578,-1,-1,-1,
16173,-1,1131,220,135,114,0.471,-1,-1,-1,
16173,-1,1823,546,93,176,0.221,-1,-1,-1,
16173,-1,0,776,474,303,0.404,-1,-1,-1,
16173,-1,1130,222,140,111,0.213,-1,-1,-1,
16174,-1,1111,149,102,66,0.888,-1,-1,-1,
16174,-1,391,203,72,40,0.573,-1,-1,-1,
16174,-1,1130,221,134,113,0.463,-1,-1,-1,
16174,-1,1215,67,108,80,0.336,-1,-1,-1,
16174,-1,1823,547,93,175,0.229,-1,-1,-1,
16174,-1,2,789,281,189,0.216,-1,-1,-1,
16174,-1,1212,41,132,104,0.659,-1,-1,-1,
16174,-1,0,776,477,302,0.41,-1,-1,-1,
16175,-1,1123,148,95,63,0.813,-1,-1,-1,
16175,-1,391,203,73,41,0.578,-1,-1,-1,
16175,-1,1129,215,139,115,0.487,-1,-1,-1,
16175,-1,8,792,402,278,0.482,-1,-1,-1,
16175,-1,1823,546,92,175,0.243,-1,-1,-1,
16175,-1,1210,40,138,100,0.924,-1,-1,-1,
16176,-1,1131,142,97,66,0.86,-1,-1,-1,
16176,-1,392,203,72,41,0.577,-1,-1,-1,
16176,-1,1129,209,135,104,0.532,-1,-1,-1,
16176,-1,8,784,417,284,0.445,-1,-1,-1,
16176,-1,1824,546,92,176,0.233,-1,-1,-1,
16176,-1,1204,39,141,108,0.962,-1,-1,-1,
16176,-1,0,774,462,305,0.441,-1,-1,-1,
16177,-1,1124,207,138,105,0.85,-1,-1,-1,
16177,-1,1137,140,99,67,0.837,-1,-1,-1,
16177,-1,391,203,72,41,0.569,-1,-1,-1,
16177,-1,10,787,427,278,0.409,-1,-1,-1,
16177,-1,1,790,282,192,0.222,-1,-1,-1,
16177,-1,1200,40,147,107,0.95,-1,-1,-1,
16177,-1,0,773,474,303,0.441,-1,-1,-1,
16178,-1,1126,204,135,102,0.768,-1,-1,-1,
16178,-1,1143,140,104,64,0.742,-1,-1,-1,
16178,-1,392,202,72,41,0.575,-1,-1,-1,
16178,-1,10,790,418,276,0.411,-1,-1,-1,
16178,-1,1192,40,148,110,0.946,-1,-1,-1,
16178,-1,0,775,459,300,0.482,-1,-1,-1,
16179,-1,1126,200,132,106,0.765,-1,-1,-1,
16179,-1,1611,793,308,281,0.738,-1,-1,-1,
16179,-1,1151,138,102,62,0.661,-1,-1,-1,
16179,-1,392,202,72,41,0.576,-1,-1,-1,
16179,-1,10,787,399,279,0.355,-1,-1,-1,
16179,-1,1183,40,151,112,0.947,-1,-1,-1,
16179,-1,3,776,436,303,0.474,-1,-1,-1,
16180,-1,1165,140,92,58,0.679,-1,-1,-1,
16180,-1,1125,196,127,105,0.643,-1,-1,-1,
16180,-1,0,785,282,203,0.579,-1,-1,-1,
16180,-1,392,203,71,41,0.572,-1,-1,-1,
16180,-1,1186,43,144,108,0.904,-1,-1,-1,
16180,-1,0,782,392,288,0.24,-1,-1,-1,
16181,-1,1609,765,308,305,0.894,-1,-1,-1,2
16181,-1,1173,137,95,57,0.781,-1,-1,-1,2
16181,-1,1118,195,127,81,0.708,-1,-1,-1,5
16181,-1,0,784,274,205,0.66,-1,-1,-1,2
16181,-1,393,203,70,40,0.578,-1,-1,-1,2
16181,-1,1166,35,149,120,0.925,-1,-1,-1,4
16181,-1,1137,231,138,113,0.273,-1,-1,-1,5
16182,-1,1179,134,97,58,0.775,-1,-1,-1,
16182,-1,0,784,272,219,0.753,-1,-1,-1,
16182,-1,393,203,70,40,0.572,-1,-1,-1,
16182,-1,1118,194,127,83,0.552,-1,-1,-1,
16182,-1,0,896,276,179,0.451,-1,-1,-1,
16182,-1,1157,38,142,117,0.946,-1,-1,-1,
16183,-1,1188,134,99,58,0.835,-1,-1,-1,
16183,-1,0,778,266,237,0.82,-1,-1,-1,
16183,-1,1118,188,123,84,0.683,-1,-1,-1,
16183,-1,392,203,71,40,0.577,-1,-1,-1,
16183,-1,0,893,281,176,0.44,-1,-1,-1,
16183,-1,1145,118,72,41,0.242,-1,-1,-1,
16183,-1,1146,42,145,109,0.909,-1,-1,-1,
16184,-1,1596,746,320,329,0.981,-1,-1,-1,
16184,-1,1195,132,95,59,0.82,-1,-1,-1,
16184,-1,0,780,267,245,0.812,-1,-1,-1,
16184,-1,1117,184,127,73,0.667,-1,-1,-1,
16184,-1,393,203,70,40,0.583,-1,-1,-1,
16184,-1,0,892,250,179,0.368,-1,-1,-1,
16184,-1,1142,119,75,42,0.204,-1,-1,-1,
16184,-1,1131,41,158,115,0.906,-1,-1,-1,
16185,-1,0,779,264,243,0.871,-1,-1,-1,
16185,-1,1208,130,93,59,0.74,-1,-1,-1,
16185,-1,1119,182,125,76,0.604,-1,-1,-1,
16185,-1,392,203,71,40,0.582,-1,-1,-1,
16185,-1,0,897,232,177,0.377,-1,-1,-1,
16185,-1,1123,85,97,75,0.222,-1,-1,-1,
16185,-1,1123,44,163,116,0.972,-1,-1,-1,
16186,-1,0,777,261,255,0.883,-1,-1,-1,
16186,-1,1217,129,94,60,0.854,-1,-1,-1,
16186,-1,1119,178,126,85,0.618,-1,-1,-1,
16186,-1,393,203,70,40,0.561,-1,-1,-1,
16186,-1,1823,546,92,163,0.349,-1,-1,-1,
16186,-1,1114,117,97,47,0.277,-1,-1,-1,
16186,-1,1121,42,169,120,0.843,-1,-1,-1,
16187,-1,0,777,259,255,0.879,-1,-1,-1,
16187,-1,1223,129,96,60,0.858,-1,-1,-1,
16187,-1,1126,179,118,78,0.736,-1,-1,-1,
16187,-1,392,203,71,40,0.575,-1,-1,-1,
16187,-1,1823,546,92,160,0.345,-1,-1,-1,
16187,-1,1102,99,115,64,0.287,-1,-1,-1,
16187,-1,0,894,284,175,0.261,-1,-1,-1,
16187,-1,1136,177,104,42,0.216,-1,-1,-1,
16187,-1,1113,46,164,110,0.967,-1,-1,-1,
16188,-1,0,779,259,260,0.932,-1,-1,-1,
16188,-1,1230,127,102,61,0.83,-1,-1,-1,
16188,-1,1128,175,118,90,0.675,-1,-1,-1,
16188,-1,392,203,71,40,0.575,-1,-1,-1,
16188,-1,1822,546,93,158,0.37,-1,-1,-1,
16188,-1,1142,174,97,45,0.273,-1,-1,-1,
16188,-1,1095,100,117,66,0.208,-1,-1,-1,
16188,-1,1105,50,159,109,0.977,-1,-1,-1,
16189,-1,1562,696,357,327,0.989,-1,-1,-1,
16189,-1,1,768,258,278,0.939,-1,-1,-1,
16189,-1,1241,124,102,62,0.736,-1,-1,-1,
16189,-1,393,203,70,40,0.572,-1,-1,-1,
16189,-1,1128,172,123,96,0.549,-1,-1,-1,
16189,-1,1146,174,90,43,0.201,-1,-1,-1,
16189,-1,1081,51,166,112,0.996,-1,-1,-1,
16190,-1,0,774,258,276,0.951,-1,-1,-1,
16190,-1,1246,122,103,62,0.662,-1,-1,-1,
16190,-1,1134,171,110,72,0.644,-1,-1,-1,
16190,-1,393,203,70,40,0.573,-1,-1,-1,
16190,-1,1812,548,103,153,0.278,-1,-1,-1,
16190,-1,1068,54,172,114,0.997,-1,-1,-1,
16191,-1,1549,678,369,316,0.994,-1,-1,-1,2
16191,-1,0,779,255,281,0.935,-1,-1,-1,2
16191,-1,392,203,71,40,0.555,-1,-1,-1,2
16191,-1,1258,125,101,56,0.512,-1,-1,-1,2
16191,-1,1137,166,112,84,0.511,-1,-1,-1,5
16191,-1,1810,551,105,144,0.389,-1,-1,-1,2
16191,-1,1056,54,187,118,0.992,-1,-1,-1,4
16192,-1,1542,680,364,299,0.99,-1,-1,-1,
16192,-1,0,778,247,284,0.853,-1,-1,-1,
16192,-1,1148,161,111,88,0.699,-1,-1,-1,
16192,-1,392,203,71,40,0.556,-1,-1,-1,
16192,-1,1266,127,77,53,0.448,-1,-1,-1,
16192,-1,1812,550,102,145,0.252,-1,-1,-1,
16192,-1,1045,54,201,121,0.996,-1,-1,-1,
16193,-1,1530,671,365,288,0.994,-1,-1,-1,
16193,-1,0,779,249,283,0.868,-1,-1,-1,
16193,-1,1149,158,120,95,0.782,-1,-1,-1,
16193,-1,393,203,70,40,0.542,-1,-1,-1,
16193,-1,1275,118,112,59,0.529,-1,-1,-1,
16193,-1,1825,550,91,159,0.275,-1,-1,-1,
16193,-1,1031,53,215,121,0.997,-1,-1,-1,
16194,-1,1520,658,367,286,0.991,-1,-1,-1,
16194,-1,0,781,247,279,0.822,-1,-1,-1,
16194,-1,1157,156,116,95,0.729,-1,-1,-1,
16194,-1,393,203,70,40,0.545,-1,-1,-1,
16194,-1,1283,116,103,59,0.442,-1,-1,-1,
16194,-1,1825,550,90,161,0.319,-1,-1,-1,
16194,-1,1018,53,206,124,0.998,-1,-1,-1,
16194,-1,1283,116,103,59,0.232,-1,-1,-1,
16195,-1,1509,651,352,285,0.981,-1,-1,-1,
16195,-1,0,778,244,287,0.783,-1,-1,-1,
16195,-1,1159,153,119,102,0.671,-1,-1,-1,
16195,-1,393,203,70,40,0.556,-1,-1,-1,
16195,-1,1290,115,92,58,0.532,-1,-1,-1,
16195,-1,1825,549,90,162,0.336,-1,-1,-1,
16195,-1,1004,55,204,125,0.998,-1,-1,-1,
16196,-1,1490,644,361,273,0.989,-1,-1,-1,
16196,-1,1,779,250,296,0.787,-1,-1,-1,
16196,-1,1164,150,121,100,0.605,-1,-1,-1,
16196,-1,393,203,70,41,0.541,-1,-1,-1,
16196,-1,1297,114,89,57,0.492,-1,-1,-1,
16196,-1,1826,551,90,164,0.393,-1,-1,-1,
16196,-1,986,58,210,124,0.997,-1,-1,-1,
16197,-1,1480,632,356,280,0.983,-1,-1,-1,
16197,-1,4,781,244,297,0.773,-1,-1,-1,
16197,-1,394,203,69,41,0.544,-1,-1,-1,
16197,-1,1172,153,125,97,0.531,-1,-1,-1,
16197,-1,1826,551,89,166,0.412,-1,-1,-1,
16197,-1,1300,113,79,60,0.411,-1,-1,-1,
16197,-1,982,112,122,74,0.21,-1,-1,-1,
16197,-1,972,60,214,127,0.992,-1,-1,-1,
16198,-1,1479,622,344,279,0.968,-1,-1,-1,
16198,-1,2,781,245,297,0.81,-1,-1,-1,
16198,-1,1181,150,123,90,0.587,-1,-1,-1,
16198,-1,394,203,69,41,0.547,-1,-1,-1,
16198,-1,1826,551,89,162,0.389,-1,-1,-1,
16198,-1,970,59,206,125,0.994,-1,-1,-1,
16198,-1,1306,110,97,59,0.203,-1,-1,-1,
16199,-1,1470,612,333,267,0.97,-1,-1,-1,
16199,-1,1186,147,124,90,0.747,-1,-1,-1,
16199,-1,394,203,69,41,0.556,-1,-1,-1,
16199,-1,1829,551,86,162,0.365,-1,-1,-1,
16199,-1,1310,108,98,58,0.233,-1,-1,-1,
16199,-1,957,63,204,126,0.996,-1,-1,-1,
16200,-1,1473,611,326,256,0.963,-1,-1,-1,
16200,-1,1193,141,145,96,0.589,-1,-1,-1,
16200,-1,393,203,69,41,0.549,-1,-1,-1,
16200,-1,1318,107,99,53,0.362,-1,-1,-1,
16200,-1,1826,547,89,167,0.341,-1,-1,-1,
16200,-1,948,118,130,72,0.235,-1,-1,-1,
16200,-1,942,65,207,124,0.996,-1,-1,-1,
16201,-1,1457,603,320,256,0.98,-1,-1,-1,2
16201,-1,1203,137,143,96,0.698,-1,-1,-1,5
16201,-1,393,203,70,40,0.581,-1,-1,-1,2
16201,-1,1318,108,97,51,0.35,-1,-1,-1,2
16201,-1,1819,547,96,162,0.319,-1,-1,-1,2
16201,-1,930,67,212,125,0.994,-1,-1,-1,4
16202,-1,1449,593,319,257,0.979,-1,-1,-1,
16202,-1,1214,138,120,95,0.652,-1,-1,-1,
16202,-1,393,203,69,40,0.574,-1,-1,-1,
16202,-1,1322,108,102,51,0.479,-1,-1,-1,
16202,-1,1818,549,96,160,0.356,-1,-1,-1,
16202,-1,915,120,125,72,0.266,-1,-1,-1,
16202,-1,916,64,210,128,0.98,-1,-1,-1,
16203,-1,1449,589,301,240,0.984,-1,-1,-1,
16203,-1,1224,136,134,90,0.608,-1,-1,-1,
16203,-1,1346,105,84,55,0.593,-1,-1,-1,
16203,-1,393,203,70,40,0.575,-1,-1,-1,
16203,-1,1818,549,95,160,0.305,-1,-1,-1,
16203,-1,913,64,200,132,0.993,-1,-1,-1,
16204,-1,1442,580,301,241,0.976,-1,-1,-1,
16204,-1,1353,104,80,55,0.678,-1,-1,-1,
16204,-1,393,203,70,40,0.568,-1,-1,-1,
16204,-1,1234,130,128,94,0.562,-1,-1,-1,
16204,-1,1828,549,89,167,0.273,-1,-1,-1,
16204,-1,889,122,125,73,0.256,-1,-1,-1,
16204,-1,892,67,206,130,0.996,-1,-1,-1,
16205,-1,1437,573,292,242,0.984,-1,-1,-1,
16205,-1,1243,129,127,92,0.666,-1,-1,-1,
16205,-1,1358,104,81,55,0.606,-1,-1,-1,
16205,-1,392,203,71,40,0.58,-1,-1,-1,
16205,-1,1827,550,90,166,0.257,-1,-1,-1,
16205,-1,881,67,205,133,0.996,-1,-1,-1,
16206,-1,1429,566,285,233,0.978,-1,-1,-1,
16206,-1,1359,102,90,53,0.646,-1,-1,-1,
16206,-1,392,203,71,40,0.58,-1,-1,-1,
16206,-1,1256,126,127,93,0.475,-1,-1,-1,
16206,-1,1819,550,96,160,0.252,-1,-1,-1,
16206,-1,869,68,210,133,0.993,-1,-1,-1,
16207,-1,1410,567,278,216,0.971,-1,-1,-1,
16207,-1,1268,123,120,93,0.685,-1,-1,-1,
16207,-1,1368,95,90,58,0.657,-1,-1,-1,
16207,-1,392,203,71,40,0.582,-1,-1,-1,
16207,-1,857,135,123,68,0.294,-1,-1,-1,
16207,-1,1825,549,91,170,0.27,-1,-1,-1,
16207,-1,855,66,214,136,0.934,-1,-1,-1,
16208,-1,1404,557,281,224,0.976,-1,-1,-1,
16208,-1,1373,97,85,57,0.681,-1,-1,-1,
16208,-1,392,203,71,40,0.582,-1,-1,-1,
16208,-1,1277,124,120,90,0.453,-1,-1,-1,
16208,-1,1817,550,97,165,0.273,-1,-1,-1,
16208,-1,840,66,221,135,0.966,-1,-1,-1,
16208,-1,1278,124,123,89,0.201,-1,-1,-1,
16209,-1,1399,547,275,225,0.976,-1,-1,-1,
16209,-1,1381,93,80,59,0.722,-1,-1,-1,
16209,-1,392,203,71,40,0.581,-1,-1,-1,
16209,-1,831,135,123,72,0.485,-1,-1,-1,
16209,-1,1281,119,128,86,0.371,-1,-1,-1,
16209,-1,1826,548,89,171,0.249,-1,-1,-1,
16209,-1,0,806,192,271,0.234,-1,-1,-1,
16209,-1,828,70,212,136,0.982,-1,-1,-1,
16210,-1,1394,540,266,211,0.979,-1,-1,-1,
16210,-1,1389,94,76,55,0.713,-1,-1,-1,
16210,-1,392,203,71,40,0.575,-1,-1,-1,
16210,-1,820,137,127,72,0.541,-1,-1,-1,
16210,-1,1296,116,119,88,0.348,-1,-1,-1,
16210,-1,1828,548,88,171,0.281,-1,-1,-1,
16210,-1,11,810,164,263,0.22,-1,-1,-1,
16210,-1,818,69,209,139,0.973,-1,-1,-1,
16211,-1,1389,532,257,213,0.966,-1,-1,-1,
16211,-1,393,203,70,40,0.531,-1,-1,-1,
16211,-1,1396,93,78,55,0.463,-1,-1,-1,
16211,-1,806,132,119,79,0.326,-1,-1,-1,
16211,-1,1828,547,88,170,0.302,-1,-1,-1,
16211,-1,1306,112,120,91,0.217,-1,-1,-1,
16211,-1,808,70,211,140,0.973,-1,-1,-1,
16211,-1,1306,112,120,91,0.205,-1,-1,-1,
16212,-1,1378,525,261,213,0.973,-1,-1,-1,
16212,-1,393,203,70,40,0.533,-1,-1,-1,
16212,-1,1314,115,121,86,0.377,-1,-1,-1,
16212,-1,1404,95,76,52,0.367,-1,-1,-1,
16212,-1,1828,547,87,171,0.322,-1,-1,-1,
16212,-1,797,141,131,73,0.24,-1,-1,-1,
16212,-1,802,71,208,143,0.951,-1,-1,-1,
16213,-1,1376,518,250,206,0.924,-1,-1,-1,
16213,-1,393,203,70,40,0.534,-1,-1,-1,
16213,-1,1322,114,127,85,0.495,-1,-1,-1,
16213,-1,1416,97,65,49,0.323,-1,-1,-1,
16213,-1,1827,547,88,170,0.308,-1,-1,-1,
16213,-1,784,153,117,64,0.232,-1,-1,-1,
16213,-1,782,72,211,145,0.979,-1,-1,-1,
16213,-1,1322,111,133,87,0.243,-1,-1,-1,
16214,-1,1358,513,252,199,0.929,-1,-1,-1,
16214,-1,393,203,71,40,0.535,-1,-1,-1,
16214,-1,1334,113,121,83,0.36,-1,-1,-1,
16214,-1,769,140,128,78,0.324,-1,-1,-1,
16214,-1,1826,546,88,172,0.314,-1,-1,-1,
16214,-1,1423,101,62,45,0.214,-1,-1,-1,
16214,-1,770,73,210,146,0.992,-1,-1,-1,
16215,-1,1356,506,238,197,0.955,-1,-1,-1,
16215,-1,393,203,70,40,0.538,-1,-1,-1,
16215,-1,1358,110,115,78,0.53,-1,-1,-1,
16215,-1,765,151,131,72,0.446,-1,-1,-1,
16215,-1,1826,547,87,170,0.315,-1,-1,-1,
16215,-1,1370,113,66,34,0.214,-1,-1,-1,
16215,-1,758,72,214,151,0.982,-1,-1,-1,
16215,-1,1341,109,146,82,0.316,-1,-1,-1,
16216,-1,1350,501,232,194,0.963,-1,-1,-1,
16216,-1,1361,111,113,77,0.775,-1,-1,-1,
16216,-1,393,203,70,40,0.536,-1,-1,-1,
16216,-1,1825,546,88,171,0.326,-1,-1,-1,
16216,-1,1380,110,79,39,0.24,-1,-1,-1,
16216,-1,758,147,144,78,0.235,-1,-1,-1,
16216,-1,482,229,146,142,0.212,-1,-1,-1,
16216,-1,751,78,213,145,0.988,-1,-1,-1,
16217,-1,1344,496,234,189,0.92,-1,-1,-1,
16217,-1,1368,107,113,79,0.682,-1,-1,-1,
16217,-1,393,203,70,40,0.536,-1,-1,-1,
16217,-1,744,154,131,72,0.345,-1,-1,-1,
16217,-1,1824,545,90,173,0.289,-1,-1,-1,
16217,-1,482,230,146,141,0.221,-1,-1,-1,
16217,-1,738,83,220,144,0.976,-1,-1,-1,
16218,-1,1334,491,233,186,0.852,-1,-1,-1,
16218,-1,393,203,70,40,0.539,-1,-1,-1,
16218,-1,739,154,129,73,0.535,-1,-1,-1,
16218,-1,1383,103,112,80,0.435,-1,-1,-1,
16218,-1,1823,544,91,174,0.293,-1,-1,-1,
16218,-1,732,86,214,142,0.957,-1,-1,-1,
16218,-1,1379,103,121,80,0.218,-1,-1,-1,
16219,-1,1320,482,229,184,0.892,-1,-1,-1,
16219,-1,394,203,69,39,0.53,-1,-1,-1,
16219,-1,1390,99,112,86,0.422,-1,-1,-1,
16219,-1,729,87,199,143,0.972,-1,-1,-1,
16219,-1,1390,99,112,86,0.214,-1,-1,-1,
16220,-1,1321,477,217,181,0.846,-1,-1,-1,
16220,-1,393,203,69,39,0.542,-1,-1,-1,
16220,-1,1815,547,97,169,0.249,-1,-1,-1,
16220,-1,720,88,198,146,0.991,-1,-1,-1,
16221,-1,1314,470,206,182,0.889,-1,-1,-1,
16221,-1,394,203,69,40,0.581,-1,-1,-1,
16221,-1,1408,97,100,83,0.289,-1,-1,-1,
16221,-1,1822,548,91,172,0.281,-1,-1,-1,
16221,-1,709,86,202,150,0.98,-1,-1,-1,
16221,-1,1408,97,100,83,0.234,-1,-1,-1,
16222,-1,1307,465,209,177,0.813,-1,-1,-1,
16222,-1,393,203,69,40,0.582,-1,-1,-1,
16222,-1,705,160,136,79,0.306,-1,-1,-1,
16222,-1,1823,548,91,171,0.282,-1,-1,-1,
16222,-1,1403,85,44,43,0.246,-1,-1,-1,
16222,-1,1418,100,89,77,0.235,-1,-1,-1,
16222,-1,702,84,203,153,0.979,-1,-1,-1,
16222,-1,1316,461,206,179,0.266,-1,-1,-1,
16223,-1,1305,454,205,169,0.813,-1,-1,-1,
16223,-1,394,203,69,41,0.579,-1,-1,-1,
16223,-1,1387,79,60,54,0.546,-1,-1,-1,
16223,-1,701,162,139,82,0.293,-1,-1,-1,
16223,-1,1823,547,91,173,0.268,-1,-1,-1,
16223,-1,1428,103,81,70,0.229,-1,-1,-1,
16223,-1,698,84,191,159,0.967,-1,-1,-1,
16224,-1,1298,446,199,169,0.686,-1,-1,-1,
16224,-1,1384,81,63,53,0.604,-1,-1,-1,
16224,-1,394,203,69,41,0.585,-1,-1,-1,
16224,-1,1823,547,92,172,0.274,-1,-1,-1,
16224,-1,691,90,189,151,0.855,-1,-1,-1,
16224,-1,1296,448,201,171,0.318,-1,-1,-1,
16225,-1,1291,441,192,168,0.72,-1,-1,-1,
16225,-1,1375,82,72,53,0.676,-1,-1,-1,
16225,-1,393,202,70,41,0.584,-1,-1,-1,
16225,-1,1814,547,97,168,0.263,-1,-1,-1,
16225,-1,685,91,189,154,0.735,-1,-1,-1,
16225,-1,1290,440,194,171,0.285,-1,-1,-1,
16226,-1,1287,434,189,168,0.82,-1,-1,-1,
16226,-1,1354,80,93,54,0.679,-1,-1,-1,
16226,-1,393,203,70,40,0.606,-1,-1,-1,
16226,-1,677,163,133,87,0.307,-1,-1,-1,
16226,-1,1446,106,75,63,0.241,-1,-1,-1,
16226,-1,1814,547,97,168,0.236,-1,-1,-1,
16226,-1,677,95,184,154,0.893,-1,-1,-1,
16227,-1,1357,79,79,55,0.795,-1,-1,-1,
16227,-1,1280,427,191,165,0.771,-1,-1,-1,
16227,-1,393,203,69,40,0.598,-1,-1,-1,
16227,-1,1454,114,70,52,0.279,-1,-1,-1,
16227,-1,1815,546,97,169,0.229,-1,-1,-1,
16227,-1,673,94,182,159,0.926,-1,-1,-1,
16227,-1,1286,427,190,169,0.221,-1,-1,-1,
16228,-1,1273,420,178,159,0.844,-1,-1,-1,
16228,-1,1328,82,94,56,0.705,-1,-1,-1,
16228,-1,393,203,70,40,0.603,-1,-1,-1,
16228,-1,668,173,139,84,0.37,-1,-1,-1,
16228,-1,1465,120,53,40,0.317,-1,-1,-1,
16228,-1,1815,546,97,169,0.231,-1,-1,-1,
16228,-1,548,194,125,38,0.214,-1,-1,-1,
16228,-1,663,94,186,162,0.924,-1,-1,-1,
16229,-1,1263,417,185,154,0.875,-1,-1,-1,
16229,-1,1314,83,98,54,0.692,-1,-1,-1,
16229,-1,393,203,69,40,0.588,-1,-1,-1,
16229,-1,1468,115,52,44,0.413,-1,-1,-1,
16229,-1,1823,545,91,174,0.242,-1,-1,-1,
16229,-1,547,196,121,38,0.202,-1,-1,-1,
16229,-1,650,95,188,164,0.917,-1,-1,-1,
16230,-1,1264,411,178,151,0.867,-1,-1,-1,
16230,-1,393,203,70,40,0.59,-1,-1,-1,
16230,-1,1302,79,100,61,0.583,-1,-1,-1,
16230,-1,1469,91,50,69,0.272,-1,-1,-1,
16230,-1,1814,546,97,169,0.234,-1,-1,-1,
16230,-1,1326,83,74,32,0.211,-1,-1,-1,
16230,-1,647,96,188,167,0.949,-1,-1,-1,
16231,-1,1257,403,181,149,0.756,-1,-1,-1,
16231,-1,393,202,70,41,0.52,-1,-1,-1,
16231,-1,1286,83,105,57,0.518,-1,-1,-1,
16231,-1,645,185,139,81,0.411,-1,-1,-1,
16231,-1,1824,544,91,177,0.204,-1,-1,-1,
16231,-1,641,97,187,167,0.946,-1,-1,-1,
16231,-1,1258,403,181,150,0.266,-1,-1,-1,
16232,-1,1252,395,177,149,0.779,-1,-1,-1,
16232,-1,1254,83,119,51,0.543,-1,-1,-1,
16232,-1,393,202,70,41,0.534,-1,-1,-1,
16232,-1,641,183,139,88,0.52,-1,-1,-1,
16232,-1,1290,82,82,31,0.289,-1,-1,-1,
16232,-1,487,233,147,135,0.212,-1,-1,-1,
16232,-1,1824,544,91,176,0.202,-1,-1,-1,
16232,-1,640,100,182,169,0.94,-1,-1,-1,
16232,-1,1252,395,179,152,0.23,-1,-1,-1,
16233,-1,1248,390,173,143,0.818,-1,-1,-1,
16233,-1,393,202,69,41,0.544,-1,-1,-1,
16233,-1,1237,82,125,49,0.532,-1,-1,-1,
16233,-1,628,184,153,85,0.282,-1,-1,-1,
16233,-1,485,232,149,135,0.204,-1,-1,-1,
16233,-1,637,100,183,172,0.918,-1,-1,-1,
16233,-1,1248,390,179,147,0.208,-1,-1,-1,
16234,-1,1237,381,177,147,0.752,-1,-1,-1,
16234,-1,393,202,69,41,0.546,-1,-1,-1,
16234,-1,1220,83,119,48,0.544,-1,-1,-1,
16234,-1,629,192,145,84,0.3,-1,-1,-1,
16234,-1,484,230,154,136,0.28,-1,-1,-1,
16234,-1,1258,84,80,31,0.203,-1,-1,-1,
16234,-1,632,105,183,170,0.888,-1,-1,-1,
16234,-1,1242,385,170,142,0.248,-1,-1,-1,
16235,-1,1248,378,163,141,0.694,-1,-1,-1,
16235,-1,1213,84,115,45,0.673,-1,-1,-1,
16235,-1,394,202,69,41,0.539,-1,-1,-1,
16235,-1,624,194,145,85,0.3,-1,-1,-1,
16235,-1,483,230,152,136,0.272,-1,-1,-1,
16235,-1,627,110,178,169,0.902,-1,-1,-1,
16235,-1,1246,378,167,140,0.299,-1,-1,-1,
16236,-1,1233,367,164,137,0.7,-1,-1,-1,
16236,-1,393,202,70,41,0.527,-1,-1,-1,
16236,-1,1194,83,112,46,0.485,-1,-1,-1,
16236,-1,484,230,148,134,0.271,-1,-1,-1,
16236,-1,1824,544,91,176,0.216,-1,-1,-1,
16236,-1,622,112,173,170,0.942,-1,-1,-1,
16236,-1,1241,372,168,139,0.264,-1,-1,-1,
16237,-1,1175,81,114,49,0.673,-1,-1,-1,
16237,-1,1227,358,166,141,0.653,-1,-1,-1,
16237,-1,393,202,70,40,0.528,-1,-1,-1,
16237,-1,484,229,146,136,0.279,-1,-1,-1,
16237,-1,1824,544,91,176,0.213,-1,-1,-1,
16237,-1,618,117,169,166,0.925,-1,-1,-1,
16237,-1,1236,360,161,144,0.362,-1,-1,-1,
16238,-1,1158,82,120,46,0.73,-1,-1,-1,
16238,-1,1224,356,164,137,0.668,-1,-1,-1,
16238,-1,393,202,70,41,0.531,-1,-1,-1,
16238,-1,483,227,144,140,0.269,-1,-1,-1,
16238,-1,610,120,169,167,0.913,-1,-1,-1,
16238,-1,1224,355,163,138,0.339,-1,-1,-1,
16239,-1,1222,350,158,135,0.759,-1,-1,-1,
16239,-1,393,202,69,40,0.52,-1,-1,-1,
16239,-1,1137,85,108,38,0.367,-1,-1,-1,
16239,-1,611,218,146,79,0.223,-1,-1,-1,
16239,-1,609,120,171,172,0.956,-1,-1,-1,
16239,-1,1220,349,162,136,0.26,-1,-1,-1,
16240,-1,1218,345,157,133,0.767,-1,-1,-1,
16240,-1,393,203,69,40,0.525,-1,-1,-1,
16240,-1,1116,82,127,40,0.448,-1,-1,-1,
16240,-1,752,947,632,124,0.253,-1,-1,-1,
16240,-1,598,122,179,177,0.941,-1,-1,-1,
16240,-1,1216,346,162,133,0.251,-1,-1,-1,
16241,-1,1219,337,157,134,0.762,-1,-1,-1,
16241,-1,394,203,69,41,0.542,-1,-1,-1,
16241,-1,1092,86,125,35,0.505,-1,-1,-1,
16241,-1,772,941,637,129,0.386,-1,-1,-1,
16241,-1,1815,546,98,167,0.255,-1,-1,-1,
16241,-1,591,121,181,179,0.929,-1,-1,-1,
16241,-1,1215,339,161,133,0.291,-1,-1,-1,
16242,-1,804,930,616,140,0.655,-1,-1,-1,
16242,-1,1214,332,156,132,0.619,-1,-1,-1,
16242,-1,394,203,69,41,0.541,-1,-1,-1,
16242,-1,1073,86,123,36,0.408,-1,-1,-1,
16242,-1,1815,545,98,168,0.246,-1,-1,-1,
16242,-1,589,124,177,182,0.925,-1,-1,-1,
16242,-1,1209,334,162,132,0.426,-1,-1,-1,
16243,-1,845,913,591,156,0.888,-1,-1,-1,
16243,-1,1210,329,156,123,0.576,-1,-1,-1,
16243,-1,393,202,70,41,0.538,-1,-1,-1,
16243,-1,1056,87,120,35,0.429,-1,-1,-1,
16243,-1,594,126,168,182,0.958,-1,-1,-1,
16243,-1,1212,330,153,127,0.436,-1,-1,-1,
16244,-1,842,892,589,172,0.971,-1,-1,-1,
16244,-1,1207,325,153,121,0.677,-1,-1,-1,
16244,-1,1036,87,118,37,0.552,-1,-1,-1,
16244,-1,393,203,70,41,0.54,-1,-1,-1,
16244,-1,1816,545,97,168,0.225,-1,-1,-1,
16244,-1,593,132,164,182,0.951,-1,-1,-1,
16244,-1,1208,325,151,123,0.322,-1,-1,-1,
16245,-1,883,874,593,193,0.988,-1,-1,-1,
16245,-1,1206,315,146,126,0.741,-1,-1,-1,
16245,-1,394,203,69,40,0.535,-1,-1,-1,
16245,-1,1022,86,116,38,0.451,-1,-1,-1,
16245,-1,1816,545,97,168,0.226,-1,-1,-1,
16245,-1,590,135,163,182,0.886,-1,-1,-1,
16245,-1,1205,318,146,125,0.318,-1,-1,-1,
16246,-1,892,861,567,210,0.988,-1,-1,-1,
16246,-1,1204,310,147,125,0.78,-1,-1,-1,
16246,-1,1000,88,121,37,0.539,-1,-1,-1,
16246,-1,394,202,69,41,0.531,-1,-1,-1,
16246,-1,1815,545,97,169,0.222,-1,-1,-1,
16246,-1,588,138,162,183,0.874,-1,-1,-1,
16246,-1,1201,315,153,122,0.282,-1,-1,-1,
16247,-1,919,846,524,221,0.987,-1,-1,-1,
16247,-1,1203,305,145,124,0.715,-1,-1,-1,
16247,-1,393,202,70,41,0.532,-1,-1,-1,
16247,-1,985,90,111,36,0.483,-1,-1,-1,
16247,-1,583,244,166,85,0.212,-1,-1,-1,
16247,-1,587,142,161,184,0.828,-1,-1,-1,
16247,-1,1198,308,155,125,0.351,-1,-1,-1,
16248,-1,967,836,473,235,0.993,-1,-1,-1,
16248,-1,1198,301,140,120,0.801,-1,-1,-1,
16248,-1,983,90,93,35,0.55,-1,-1,-1,
16248,-1,394,203,69,41,0.545,-1,-1,-1,
16248,-1,589,144,158,183,0.764,-1,-1,-1,
16248,-1,1196,304,147,123,0.235,-1,-1,-1,
16249,-1,992,822,456,251,0.996,-1,-1,-1,
16249,-1,1194,297,139,116,0.776,-1,-1,-1,
16249,-1,394,203,69,40,0.541,-1,-1,-1,
16249,-1,987,91,66,36,0.3,-1,-1,-1,
16249,-1,543,202,33,26,0.222,-1,-1,-1,
16249,-1,586,148,160,185,0.703,-1,-1,-1,
16249,-1,1194,298,142,118,0.253,-1,-1,-1,
16250,-1,1192,293,136,113,0.729,-1,-1,-1,
16250,-1,394,203,69,40,0.544,-1,-1,-1,
16250,-1,976,93,62,33,0.541,-1,-1,-1,
16250,-1,1815,546,97,169,0.247,-1,-1,-1,
16250,-1,585,145,162,193,0.7,-1,-1,-1,
16250,-1,1192,294,141,114,0.284,-1,-1,-1,
16251,-1,1192,287,137,115,0.753,-1,-1,-1,
16251,-1,393,203,69,40,0.55,-1,-1,-1,
16251,-1,581,150,162,191,0.692,-1,-1,-1,
16251,-1,1192,287,137,115,0.208,-1,-1,-1,
16252,-1,1044,789,395,287,0.996,-1,-1,-1,
16252,-1,1179,277,142,119,0.695,-1,-1,-1,
16252,-1,393,203,69,39,0.531,-1,-1,-1,
16252,-1,563,146,186,202,0.765,-1,-1,-1,
16252,-1,1189,282,146,120,0.241,-1,-1,-1,
16253,-1,1061,792,390,282,0.996,-1,-1,-1,
16253,-1,1181,273,138,115,0.752,-1,-1,-1,
16253,-1,393,203,70,39,0.552,-1,-1,-1,
16253,-1,562,150,184,205,0.762,-1,-1,-1,
16254,-1,1070,780,381,288,0.994,-1,-1,-1,
16254,-1,1180,271,136,113,0.774,-1,-1,-1,
16254,-1,393,203,69,39,0.544,-1,-1,-1,
16254,-1,566,158,173,199,0.76,-1,-1,-1,
16254,-1,1179,273,135,114,0.209,-1,-1,-1,
16255,-1,1069,759,377,300,0.996,-1,-1,-1,
16255,-1,1179,267,132,109,0.86,-1,-1,-1,
16255,-1,393,203,70,39,0.546,-1,-1,-1,
16255,-1,561,159,174,203,0.799,-1,-1,-1,
16256,-1,1079,748,366,290,0.993,-1,-1,-1,
16256,-1,1179,263,129,107,0.804,-1,-1,-1,
16256,-1,393,203,70,39,0.546,-1,-1,-1,
16256,-1,1823,544,91,175,0.225,-1,-1,-1,
16256,-1,536,160,203,203,0.859,-1,-1,-1,
16256,-1,1176,263,133,107,0.201,-1,-1,-1,
16257,-1,1085,756,358,262,0.988,-1,-1,-1,
16257,-1,1172,259,127,105,0.81,-1,-1,-1,
16257,-1,393,203,70,39,0.536,-1,-1,-1,
16257,-1,549,160,193,199,0.787,-1,-1,-1,
16258,-1,1086,741,356,259,0.992,-1,-1,-1,
16258,-1,1168,261,129,101,0.914,-1,-1,-1,
16258,-1,393,203,69,39,0.527,-1,-1,-1,
16258,-1,536,161,198,206,0.832,-1,-1,-1,
16259,-1,1093,723,346,267,0.989,-1,-1,-1,
16259,-1,1168,255,125,103,0.867,-1,-1,-1,
16259,-1,393,203,69,39,0.529,-1,-1,-1,
16259,-1,532,165,204,204,0.821,-1,-1,-1,
16260,-1,1101,712,331,262,0.984,-1,-1,-1,
16260,-1,1164,250,128,104,0.774,-1,-1,-1,
16260,-1,393,203,69,39,0.52,-1,-1,-1,
16260,-1,1424,72,64,50,0.313,-1,-1,-1,
16260,-1,1824,545,90,174,0.225,-1,-1,-1,
16260,-1,532,170,201,202,0.806,-1,-1,-1,
16260,-1,1165,248,127,105,0.29,-1,-1,-1,
16261,-1,1094,707,346,249,0.979,-1,-1,-1,
16261,-1,1159,243,126,102,0.787,-1,-1,-1,
16261,-1,392,203,70,40,0.492,-1,-1,-1,
16261,-1,1416,71,69,50,0.434,-1,-1,-1,
16261,-1,1825,546,90,173,0.237,-1,-1,-1,
16261,-1,537,168,199,209,0.854,-1,-1,-1,
16261,-1,1161,245,126,105,0.208,-1,-1,-1,
16262,-1,1097,697,335,243,0.979,-1,-1,-1,
16262,-1,1156,238,125,100,0.717,-1,-1,-1,
16262,-1,393,203,69,40,0.491,-1,-1,-1,
16262,-1,1400,70,70,52,0.404,-1,-1,-1,
16262,-1,1825,546,90,173,0.236,-1,-1,-1,
16262,-1,532,172,207,209,0.94,-1,-1,-1,
16262,-1,1157,239,126,103,0.254,-1,-1,-1,
16263,-1,1086,685,328,245,0.988,-1,-1,-1,
16263,-1,1155,235,122,100,0.75,-1,-1,-1,
16263,-1,1392,67,80,59,0.551,-1,-1,-1,
16263,-1,392,203,70,40,0.486,-1,-1,-1,
16263,-1,1824,546,90,173,0.227,-1,-1,-1,
16263,-1,529,176,207,216,0.935,-1,-1,-1,
16263,-1,1155,235,124,103,0.216,-1,-1,-1,
16264,-1,1087,680,318,240,0.991,-1,-1,-1,
16264,-1,1383,70,81,56,0.659,-1,-1,-1,
16264,-1,1154,233,119,98,0.629,-1,-1,-1,
16264,-1,393,203,70,40,0.488,-1,-1,-1,
16264,-1,1825,546,89,173,0.218,-1,-1,-1,
16264,-1,526,174,207,221,0.953,-1,-1,-1,
16264,-1,1155,231,121,101,0.23,-1,-1,-1,
16265,-1,1093,669,306,230,0.996,-1,-1,-1,
16265,-1,1149,232,121,95,0.615,-1,-1,-1,
16265,-1,1372,69,84,59,0.602,-1,-1,-1,
16265,-1,393,203,70,40,0.483,-1,-1,-1,
16265,-1,1824,547,90,173,0.237,-1,-1,-1,
16265,-1,526,170,208,232,0.951,-1,-1,-1,
16266,-1,1087,653,308,236,0.991,-1,-1,-1,
16266,-1,1369,70,76,57,0.561,-1,-1,-1,
16266,-1,393,203,70,41,0.507,-1,-1,-1,
16266,-1,1141,222,115,98,0.469,-1,-1,-1,
16266,-1,1824,547,90,174,0.233,-1,-1,-1,
16266,-1,517,174,220,228,0.939,-1,-1,-1,
16267,-1,1089,647,297,226,0.995,-1,-1,-1,
16267,-1,1364,72,73,56,0.724,-1,-1,-1,
16267,-1,393,203,70,40,0.501,-1,-1,-1,
16267,-1,1139,218,116,101,0.371,-1,-1,-1,
16267,-1,1825,547,89,173,0.245,-1,-1,-1,
16267,-1,511,179,224,225,0.955,-1,-1,-1,
16268,-1,1086,641,292,222,0.996,-1,-1,-1,
16268,-1,1359,74,69,54,0.746,-1,-1,-1,
16268,-1,1135,213,119,102,0.538,-1,-1,-1,
16268,-1,393,202,71,41,0.492,-1,-1,-1,
16268,-1,1824,547,90,173,0.228,-1,-1,-1,
16268,-1,510,186,224,222,0.918,-1,-1,-1,
16269,-1,1083,633,291,218,0.997,-1,-1,-1,
16269,-1,1136,211,114,98,0.625,-1,-1,-1,
16269,-1,1346,73,75,53,0.616,-1,-1,-1,
16269,-1,392,202,71,41,0.489,-1,-1,-1,
16269,-1,1824,547,90,173,0.23,-1,-1,-1,
16269,-1,509,193,234,225,0.945,-1,-1,-1,
16270,-1,1080,622,288,218,0.996,-1,-1,-1,
16270,-1,1133,208,114,96,0.631,-1,-1,-1,
16270,-1,1337,74,74,58,0.507,-1,-1,-1,
16270,-1,392,202,71,41,0.49,-1,-1,-1,
16270,-1,849,72,82,45,0.312,-1,-1,-1,
16270,-1,1824,547,90,173,0.243,-1,-1,-1,
16270,-1,507,194,236,232,0.918,-1,-1,-1,
16271,-1,1078,612,278,218,0.987,-1,-1,-1,
16271,-1,1337,78,65,45,0.676,-1,-1,-1,
16271,-1,1134,205,109,97,0.64,-1,-1,-1,
16271,-1,392,202,73,42,0.544,-1,-1,-1,
16271,-1,504,196,233,233,0.92,-1,-1,-1,
16272,-1,1078,604,273,213,0.995,-1,-1,-1,
16272,-1,1130,201,113,100,0.578,-1,-1,-1,
16272,-1,1323,71,73,69,0.55,-1,-1,-1,
16272,-1,392,203,72,41,0.549,-1,-1,-1,
16272,-1,876,71,69,44,0.289,-1,-1,-1,
16272,-1,1823,544,91,176,0.208,-1,-1,-1,
16272,-1,498,199,236,234,0.96,-1,-1,-1,
16273,-1,1071,597,270,205,0.992,-1,-1,-1,
16273,-1,1128,198,112,96,0.685,-1,-1,-1,
16273,-1,392,203,72,41,0.552,-1,-1,-1,
16273,-1,1316,76,72,66,0.469,-1,-1,-1,
16273,-1,1823,544,92,176,0.212,-1,-1,-1,
16273,-1,881,70,67,45,0.201,-1,-1,-1,
16273,-1,497,200,240,239,0.958,-1,-1,-1,
16274,-1,1073,595,253,201,0.987,-1,-1,-1,
16274,-1,1131,196,106,94,0.697,-1,-1,-1,
16274,-1,393,203,71,41,0.559,-1,-1,-1,
16274,-1,1307,75,68,67,0.491,-1,-1,-1,
16274,-1,1823,544,91,176,0.221,-1,-1,-1,
16274,-1,495,204,242,236,0.948,-1,-1,-1,
16275,-1,1064,588,254,196,0.982,-1,-1,-1,
16275,-1,1129,195,108,90,0.638,-1,-1,-1,
16275,-1,1299,77,70,61,0.624,-1,-1,-1,
16275,-1,392,203,72,40,0.559,-1,-1,-1,
16275,-1,963,89,44,39,0.27,-1,-1,-1,
16275,-1,1823,544,91,176,0.204,-1,-1,-1,
16275,-1,490,206,244,243,0.903,-1,-1,-1,
16276,-1,1061,580,254,191,0.992,-1,-1,-1,
16276,-1,1289,80,83,61,0.657,-1,-1,-1,
16276,-1,1128,188,110,96,0.645,-1,-1,-1,
16276,-1,393,203,71,40,0.554,-1,-1,-1,
16276,-1,975,86,49,43,0.378,-1,-1,-1,
16276,-1,489,203,247,257,0.767,-1,-1,-1,
16277,-1,1061,572,249,191,0.992,-1,-1,-1,
16277,-1,1130,185,108,95,0.702,-1,-1,-1,
16277,-1,1285,79,64,57,0.597,-1,-1,-1,
16277,-1,393,204,71,40,0.553,-1,-1,-1,
16277,-1,977,85,53,48,0.507,-1,-1,-1,
16277,-1,922,68,104,64,0.287,-1,-1,-1,
16277,-1,472,211,234,252,0.897,-1,-1,-1,
16278,-1,1062,568,237,184,0.993,-1,-1,-1,
16278,-1,1274,79,70,61,0.677,-1,-1,-1,
16278,-1,1130,182,109,94,0.612,-1,-1,-1,
16278,-1,393,204,72,40,0.539,-1,-1,-1,
16278,-1,974,80,65,51,0.404,-1,-1,-1,
16278,-1,469,221,231,250,0.96,-1,-1,-1,
16278,-1,941,66,94,66,0.202,-1,-1,-1,
16279,-1,1060,562,233,180,0.993,-1,-1,-1,
16279,-1,1257,81,88,60,0.741,-1,-1,-1,
16279,-1,1132,179,107,91,0.715,-1,-1,-1,
16279,-1,953,68,94,60,0.596,-1,-1,-1,
16279,-1,393,204,71,40,0.534,-1,-1,-1,
16279,-1,463,221,233,255,0.973,-1,-1,-1,
16280,-1,1054,551,236,180,0.988,-1,-1,-1,
16280,-1,1247,83,92,58,0.783,-1,-1,-1,
16280,-1,961,65,97,63,0.719,-1,-1,-1,
16280,-1,1135,179,107,87,0.677,-1,-1,-1,
16280,-1,393,203,71,40,0.537,-1,-1,-1,
16280,-1,458,226,240,251,0.977,-1,-1,-1,
16281,-1,1058,545,222,177,0.978,-1,-1,-1,
16281,-1,1233,85,94,58,0.858,-1,-1,-1,
16281,-1,968,64,99,63,0.713,-1,-1,-1,
16281,-1,1138,177,106,87,0.663,-1,-1,-1,
16281,-1,392,204,71,40,0.528,-1,-1,-1,
16281,-1,1825,546,90,172,0.259,-1,-1,-1,
16281,-1,445,234,250,247,0.964,-1,-1,-1,
16282,-1,1055,538,218,177,0.986,-1,-1,-1,
16282,-1,1225,86,93,58,0.842,-1,-1,-1,
16282,-1,974,65,102,65,0.792,-1,-1,-1,
16282,-1,1143,173,103,87,0.704,-1,-1,-1,
16282,-1,393,204,69,39,0.521,-1,-1,-1,
16282,-1,1825,546,90,172,0.255,-1,-1,-1,
16282,-1,441,236,252,249,0.981,-1,-1,-1,
16283,-1,1054,538,213,165,0.981,-1,-1,-1,
16283,-1,977,65,106,64,0.797,-1,-1,-1,
16283,-1,1217,88,90,59,0.723,-1,-1,-1,
16283,-1,1144,170,107,89,0.594,-1,-1,-1,
16283,-1,393,204,69,39,0.52,-1,-1,-1,
16283,-1,1825,547,90,172,0.251,-1,-1,-1,
16283,-1,436,242,251,258,0.97,-1,-1,-1,
16284,-1,1053,532,212,163,0.983,-1,-1,-1,
16284,-1,985,65,108,66,0.764,-1,-1,-1,
16284,-1,1149,168,110,87,0.681,-1,-1,-1,
16284,-1,1208,89,87,57,0.632,-1,-1,-1,
16284,-1,393,204,69,40,0.51,-1,-1,-1,
16284,-1,1825,546,90,172,0.263,-1,-1,-1,
16284,-1,431,245,254,260,0.963,-1,-1,-1,
16285,-1,1052,522,213,163,0.968,-1,-1,-1,
16285,-1,993,64,107,69,0.747,-1,-1,-1,
16285,-1,1193,89,90,61,0.731,-1,-1,-1,
16285,-1,1153,165,110,89,0.719,-1,-1,-1,
16285,-1,393,203,69,40,0.509,-1,-1,-1,
16285,-1,1826,546,89,172,0.242,-1,-1,-1,
16285,-1,431,244,254,270,0.947,-1,-1,-1,
16286,-1,1055,518,201,157,0.971,-1,-1,-1,
16286,-1,1157,160,111,90,0.764,-1,-1,-1,
16286,-1,1006,65,100,68,0.717,-1,-1,-1,
16286,-1,1184,88,88,63,0.71,-1,-1,-1,
16286,-1,393,203,69,39,0.506,-1,-1,-1,
16286,-1,1826,546,89,172,0.24,-1,-1,-1,
16286,-1,429,244,254,278,0.884,-1,-1,-1,
16287,-1,1054,511,198,154,0.966,-1,-1,-1,
16287,-1,1174,90,90,63,0.848,-1,-1,-1,
16287,-1,1163,159,110,90,0.773,-1,-1,-1,
16287,-1,1012,66,101,68,0.718,-1,-1,-1,
16287,-1,392,203,69,40,0.492,-1,-1,-1,
16287,-1,1825,546,90,172,0.238,-1,-1,-1,
16287,-1,414,238,260,293,0.865,-1,-1,-1,
16288,-1,1054,504,197,157,0.959,-1,-1,-1,
16288,-1,1160,92,91,63,0.906,-1,-1,-1,
16288,-1,1167,162,111,83,0.793,-1,-1,-1,
16288,-1,1021,67,99,66,0.784,-1,-1,-1,
16288,-1,393,203,69,40,0.501,-1,-1,-1,
16288,-1,1826,546,90,172,0.233,-1,-1,-1,
16288,-1,423,267,253,266,0.835,-1,-1,-1,
16289,-1,1043,499,204,154,0.942,-1,-1,-1,
16289,-1,1150,95,91,63,0.864,-1,-1,-1,
16289,-1,1174,162,108,78,0.746,-1,-1,-1,
16289,-1,1030,69,95,64,0.682,-1,-1,-1,
16289,-1,392,204,70,39,0.507,-1,-1,-1,
16289,-1,1826,546,89,173,0.26,-1,-1,-1,
16289,-1,407,249,258,295,0.863,-1,-1,-1,
16290,-1,1053,490,196,157,0.95,-1,-1,-1,
16290,-1,1134,97,94,61,0.916,-1,-1,-1,
16290,-1,1180,157,114,83,0.776,-1,-1,-1,
16290,-1,1043,73,83,64,0.644,-1,-1,-1,
16290,-1,392,204,69,39,0.503,-1,-1,-1,
16290,-1,1826,546,89,173,0.26,-1,-1,-1,
16290,-1,399,255,261,297,0.846,-1,-1,-1,
16291,-1,1043,483,201,155,0.978,-1,-1,-1,
16291,-1,1189,156,113,81,0.881,-1,-1,-1,
16291,-1,1122,100,94,61,0.845,-1,-1,-1,
16291,-1,1043,73,88,65,0.646,-1,-1,-1,
16291,-1,393,204,68,39,0.514,-1,-1,-1,
16291,-1,1823,546,91,174,0.256,-1,-1,-1,
16291,-1,397,258,256,304,0.824,-1,-1,-1,
16292,-1,1042,473,205,156,0.973,-1,-1,-1,
16292,-1,1102,99,97,63,0.881,-1,-1,-1,
16292,-1,1197,152,116,82,0.811,-1,-1,-1,
16292,-1,1050,74,88,64,0.542,-1,-1,-1,
16292,-1,393,204,67,39,0.518,-1,-1,-1,
16292,-1,1823,546,91,174,0.26,-1,-1,-1,
16292,-1,395,259,262,305,0.913,-1,-1,-1,
16293,-1,1043,465,191,154,0.962,-1,-1,-1,
16293,-1,1081,90,104,72,0.864,-1,-1,-1,
16293,-1,1207,149,111,79,0.771,-1,-1,-1,
16293,-1,1056,75,95,66,0.527,-1,-1,-1,
16293,-1,392,203,69,40,0.513,-1,-1,-1,
16293,-1,386,269,264,302,0.934,-1,-1,-1,
16294,-1,1043,459,181,155,0.973,-1,-1,-1,
16294,-1,1065,88,104,82,0.918,-1,-1,-1,
16294,-1,1218,144,111,83,0.695,-1,-1,-1,
16294,-1,392,203,69,40,0.52,-1,-1,-1,
16294,-1,1066,75,72,42,0.259,-1,-1,-1,
16294,-1,378,271,268,306,0.935,-1,-1,-1,
16294,-1,1214,138,154,87,0.289,-1,-1,-1,
16295,-1,1044,455,182,147,0.986,-1,-1,-1,
16295,-1,1061,87,97,83,0.784,-1,-1,-1,
16295,-1,1227,143,110,84,0.576,-1,-1,-1,
16295,-1,392,203,69,40,0.54,-1,-1,-1,
16295,-1,375,275,265,308,0.894,-1,-1,-1,
16295,-1,1226,139,147,84,0.233,-1,-1,-1,
16296,-1,1044,450,188,144,0.982,-1,-1,-1,
16296,-1,1040,93,102,80,0.847,-1,-1,-1,
16296,-1,1236,142,114,80,0.661,-1,-1,-1,
16296,-1,392,203,69,40,0.544,-1,-1,-1,
16296,-1,368,285,274,309,0.928,-1,-1,-1,
16297,-1,1048,443,190,142,0.978,-1,-1,-1,
16297,-1,1029,101,103,73,0.806,-1,-1,-1,
16297,-1,1244,139,111,81,0.753,-1,-1,-1,
16297,-1,1057,78,99,81,0.545,-1,-1,-1,
16297,-1,392,203,69,40,0.521,-1,-1,-1,
16297,-1,369,287,269,318,0.92,-1,-1,-1,
16298,-1,1051,437,182,142,0.96,-1,-1,-1,
16298,-1,1012,111,96,68,0.908,-1,-1,-1,
16298,-1,1254,138,110,82,0.654,-1,-1,-1,
16298,-1,392,203,69,41,0.522,-1,-1,-1,
16298,-1,1075,79,79,69,0.444,-1,-1,-1,
16298,-1,366,293,275,320,0.881,-1,-1,-1,
16299,-1,1058,434,170,138,0.971,-1,-1,-1,
16299,-1,1003,114,97,66,0.822,-1,-1,-1,
16299,-1,1262,133,110,83,0.778,-1,-1,-1,
16299,-1,392,203,69,40,0.538,-1,-1,-1,
16299,-1,1075,79,79,67,0.486,-1,-1,-1,
16299,-1,360,295,279,323,0.948,-1,-1,-1,
16300,-1,1060,427,170,135,0.987,-1,-1,-1,
16300,-1,983,117,99,68,0.929,-1,-1,-1,
16300,-1,1275,130,110,83,0.687,-1,-1,-1,
16300,-1,392,203,69,40,0.529,-1,-1,-1,
16300,-1,1075,79,79,67,0.517,-1,-1,-1,
16300,-1,354,284,278,344,0.926,-1,-1,-1,
16301,-1,1065,418,175,136,0.984,-1,-1,-1,
16301,-1,970,116,98,70,0.803,-1,-1,-1,
16301,-1,1282,125,110,87,0.674,-1,-1,-1,
16301,-1,1077,80,79,66,0.541,-1,-1,-1,
16301,-1,392,203,70,41,0.527,-1,-1,-1,
16301,-1,353,289,279,347,0.883,-1,-1,-1,
16301,-1,1283,126,111,87,0.222,-1,-1,-1,
16302,-1,1068,408,175,136,0.986,-1,-1,-1,
16302,-1,951,121,105,68,0.932,-1,-1,-1,
16302,-1,1075,81,80,67,0.561,-1,-1,-1,
16302,-1,391,203,71,40,0.54,-1,-1,-1,
16302,-1,1296,125,93,83,0.297,-1,-1,-1,
16302,-1,343,304,295,340,0.942,-1,-1,-1,
16302,-1,1307,97,177,115,0.349,-1,-1,-1,
16302,-1,1298,126,91,80,0.241,-1,-1,-1,
16303,-1,1076,409,170,131,0.985,-1,-1,-1,
16303,-1,940,122,104,69,0.902,-1,-1,-1,
16303,-1,391,203,71,40,0.538,-1,-1,-1,
16303,-1,1075,81,81,68,0.459,-1,-1,-1,
16303,-1,1302,118,115,88,0.333,-1,-1,-1,
16303,-1,332,301,301,347,0.89,-1,-1,-1,
16303,-1,1314,93,170,116,0.38,-1,-1,-1,
16303,-1,1302,118,115,88,0.231,-1,-1,-1,
16304,-1,1078,404,174,126,0.99,-1,-1,-1,
16304,-1,923,123,103,70,0.948,-1,-1,-1,
16304,-1,1072,83,83,68,0.58,-1,-1,-1,
16304,-1,391,203,70,40,0.541,-1,-1,-1,
16304,-1,1315,122,114,81,0.298,-1,-1,-1,
16304,-1,331,317,305,338,0.938,-1,-1,-1,
16304,-1,1320,93,166,112,0.541,-1,-1,-1,
16305,-1,1083,399,176,126,0.99,-1,-1,-1,
16305,-1,907,126,106,70,0.921,-1,-1,-1,
16305,-1,392,203,70,40,0.537,-1,-1,-1,
16305,-1,1072,83,83,67,0.526,-1,-1,-1,
16305,-1,1328,126,108,74,0.26,-1,-1,-1,
16305,-1,325,316,315,351,0.939,-1,-1,-1,
16305,-1,1326,121,114,80,0.4,-1,-1,-1,
16305,-1,1320,70,163,125,0.225,-1,-1,-1,
16306,-1,1090,392,174,127,0.992,-1,-1,-1,
16306,-1,889,130,111,68,0.949,-1,-1,-1,
16306,-1,1337,126,105,72,0.642,-1,-1,-1,
16306,-1,1071,85,80,72,0.605,-1,-1,-1,
16306,-1,391,203,71,41,0.545,-1,-1,-1,
16306,-1,323,324,319,347,0.964,-1,-1,-1,
16306,-1,1326,106,145,93,0.322,-1,-1,-1,
16307,-1,1103,381,172,126,0.991,-1,-1,-1,
16307,-1,878,132,104,69,0.875,-1,-1,-1,
16307,-1,1349,123,103,74,0.656,-1,-1,-1,
16307,-1,1071,85,78,72,0.641,-1,-1,-1,
16307,-1,391,203,70,41,0.538,-1,-1,-1,
16307,-1,306,328,336,345,0.98,-1,-1,-1,
16307,-1,1342,121,113,78,0.24,-1,-1,-1,
16308,-1,1115,377,165,122,0.955,-1,-1,-1,
16308,-1,865,131,107,76,0.922,-1,-1,-1,
16308,-1,1347,120,117,76,0.735,-1,-1,-1,
16308,-1,1067,85,79,73,0.708,-1,-1,-1,
16308,-1,391,203,70,41,0.541,-1,-1,-1,
16308,-1,305,336,339,346,0.988,-1,-1,-1,
16308,-1,1346,109,136,88,0.352,-1,-1,-1,
16309,-1,1119,372,170,121,0.986,-1,-1,-1,
16309,-1,852,132,103,75,0.877,-1,-1,-1,
16309,-1,1062,85,83,74,0.76,-1,-1,-1,
16309,-1,1358,118,107,73,0.605,-1,-1,-1,
16309,-1,391,203,71,41,0.537,-1,-1,-1,
16309,-1,301,339,340,350,0.993,-1,-1,-1,
16309,-1,1357,106,130,90,0.257,-1,-1,-1,
16310,-1,1126,368,173,120,0.987,-1,-1,-1,
16310,-1,835,132,109,75,0.901,-1,-1,-1,
16310,-1,1369,115,104,76,0.784,-1,-1,-1,
16310,-1,1058,87,83,74,0.758,-1,-1,-1,
16310,-1,391,203,71,41,0.54,-1,-1,-1,
16310,-1,287,343,356,353,0.996,-1,-1,-1,
