01930ee8-58a0-4442-91a3-800afef8d2fb.mov-0001.jpg,-1,29.517578,139.69304,71.837,79.66972,-1,truck,0.6043301
01930ee8-58a0-4442-91a3-800afef8d2fb.mov-0001.jpg,-1,28.51831,142.26869,33.24487,16.47498,-1,car,0.5908767
01930ee8-58a0-4442-91a3-800afef8d2fb.mov-0001.jpg,-1,24.251974,130.83376,33.108543,72.643936,-1,car,0.58683413
01930ee8-58a0-4442-91a3-800afef8d2fb.mov-0001.jpg,-1,38.655457,84.03584,29.539034,37.61366,-1,bus,0.57732964
01930ee8-58a0-4442-91a3-800afef8d2fb.mov-0001.jpg,-1,32.082127,206.65068,35.021027,61.845028,-1,label,0.56844276
01930ee8-58a0-4442-91a3-800afef8d2fb.mov-0001.jpg,-1,37.98177,145.0772,36.78692,36.65165,-1,pickup_truck,0.5667652
01930ee8-58a0-4442-91a3-800afef8d2fb.mov-0001.jpg,-1,26.122875,30.08631,40.789787,25.730162,-1,bus,0.5666802
01930ee8-58a0-4442-91a3-800afef8d2fb.mov-0001.jpg,-1,29.928015,85.037735,39.13377,19.14342,-1,bus,0.56163543
01930ee8-58a0-4442-91a3-800afef8d2fb.mov-0001.jpg,-1,28.569666,82.05448,81.837,46.17188,-1,car,0.5583368
01930ee8-58a0-4442-91a3-800afef8d2fb.mov-0001.jpg,-1,28.097212,151.21219,17.212088,38.13321,-1,label,0.55720365
01930ee8-58a0-4442-91a3-800afef8d2fb.mov-0001.jpg,-1,26.21597,203.90298,17.411434,40.67312,-1,label,0.5534443
01930ee8-58a0-4442-91a3-800afef8d2fb.mov-0001.jpg,-1,28.180845,87.32312,18.7908,41.576454,-1,car,0.5531901
01930ee8-58a0-4442-91a3-800afef8d2fb.mov-0001.jpg,-1,38.123196,190.67154,38.59165,34.344013,-1,bus,0.55311626
01930ee8-58a0-4442-91a3-800afef8d2fb.mov-0001.jpg,-1,35.716774,82.812996,44.82085,56.4256,-1,pickup_truck,0.5514476
01930ee8-58a0-4442-91a3-800afef8d2fb.mov-0001.jpg,-1,20.464455,137.95059,90.93646,39.96987,-1,car,0.550028
01930ee8-58a0-4442-91a3-800afef8d2fb.mov-0001.jpg,-1,26.389797,31.058432,89.95813,35.716858,-1,car,0.5492739
01930ee8-58a0-4442-91a3-800afef8d2fb.mov-0001.jpg,-1,21.766363,24.65835,75.81415,91.23496,-1,car,0.54718465
01930ee8-58a0-4442-91a3-800afef8d2fb.mov-0001.jpg,-1,25.596376,198.06616,54.554993,25.171398,-1,bus,0.54640186
01930ee8-58a0-4442-91a3-800afef8d2fb.mov-0001.jpg,-1,26.311077,31.708916,20.922832,38.877613,-1,car,0.5414797
01930ee8-58a0-4442-91a3-800afef8d2fb.mov-0001.jpg,-1,34.25707,196.69348,38.92192,15.878157,-1,bus,0.5404761
01930ee8-58a0-4442-91a3-800afef8d2fb.mov-0001.jpg,-1,20.969273,186.7376,86.18245,47.578186,-1,label,0.53459984
01930ee8-58a0-4442-91a3-800afef8d2fb.mov-0001.jpg,-1,136.67651,75.14935,39.079,40.123024,-1,car,0.53132373
01930ee8-58a0-4442-91a3-800afef8d2fb.mov-0001.jpg,-1,19.417152,36.02217,29.284458,60.25421,-1,car,0.5227232
01930ee8-58a0-4442-91a3-800afef8d2fb.mov-0001.jpg,-1,26.193985,23.00305,42.13299,67.74657,-1,pickup_truck,0.52193314
01930ee8-58a0-4442-91a3-800afef8d2fb.mov-0001.jpg,-1,139.5242,26.163546,40.395584,17.857452,-1,van,0.5208237
01930ee8-58a0-4442-91a3-800afef8d2fb.mov-0001.jpg,-1,147.84688,94.20881,47.66574,48.56017,-1,pickup_truck,0.51866806
01930ee8-58a0-4442-91a3-800afef8d2fb.mov-0001.jpg,-1,83.87777,201.17998,20.453257,55.58002,-1,car,0.5184416
01930ee8-58a0-4442-91a3-800afef8d2fb.mov-0001.jpg,-1,196.09009,197.49657,76.59686,46.59129,-1,car,0.51531214
01930ee8-58a0-4442-91a3-800afef8d2fb.mov-0001.jpg,-1,136.15648,212.00085,30.954336,54.862164,-1,bus,0.51387775
01930ee8-58a0-4442-91a3-800afef8d2fb.mov-0001.jpg,-1,106.986404,112.57053,160.5582,80.39887,-1,bus,0.5127922
01930ee8-58a0-4442-91a3-800afef8d2fb.mov-0001.jpg,-1,144.44408,198.17474,43.80531,86.22806,-1,label,0.5102022
01930ee8-58a0-4442-91a3-800afef8d2fb.mov-0001.jpg,-1,106.275475,116.18968,238.75757,109.99227,-1,car,0.50914186
01930ee8-58a0-4442-91a3-800afef8d2fb.mov-0001.jpg,-1,138.02727,198.33261,72.20919,40.14633,-1,bus,0.5046995
01930ee8-58a0-4442-91a3-800afef8d2fb.mov-0001.jpg,-1,205.51996,27.46407,63.975822,35.01718,-1,car,0.50347435
01930ee8-58a0-4442-91a3-800afef8d2fb.mov-0001.jpg,-1,58.93691,52.99472,80.591805,79.03305,-1,label,0.50259
01930ee8-58a0-4442-91a3-800afef8d2fb.mov-0001.jpg,-1,131.30557,40.228714,66.32014,61.28653,-1,truck,0.5025819
01930ee8-58a0-4442-91a3-800afef8d2fb.mov-0001.jpg,-1,140.08237,17.205534,60.600605,76.96369,-1,truck,0.5024521
01930ee8-58a0-4442-91a3-800afef8d2fb.mov-0001.jpg,-1,198.63904,208.15016,28.07655,56.840633,-1,van,0.48159403
01930ee8-58a0-4442-91a3-800afef8d2fb.mov-0001.jpg,-1,191.95723,157.30246,67.44379,58.81712,-1,pickup_truck,0.47941083
01930ee8-58a0-4442-91a3-800afef8d2fb.mov-0001.jpg,-1,43.797623,168.19797,79.650665,40.626312,-1,label,0.4752023
