1 0.02109 0.54537 0.04115 0.13519
1 0.46224 0.22222 0.03281 0.02037
1 0.74062 0.26806 0.06667 0.04907
4 0.55365 0.39028 0.24375 0.15648
4 0.57005 0.21065 0.02552 0.03056
4 0.7026 0.24167 0.03958 0.03704
