1 0.46797 0.22222 0.02031 0.01852
2 0.96693 0.35926 0.05677 0.13148
1 0.74245 0.26852 0.06406 0.04444
4 0.58281 0.21944 0.01354 0.02037
4 0.70234 0.24074 0.03906 0.03519
4 0.10026 0.41296 0.19115 0.16852
1 0.02083 0.54583 0.04062 0.14352
