4 0.01667 0.41898 0.03021 0.08426
1 0.74271 0.26759 0.06458 0.04444
2 0.93255 0.31852 0.12552 0.22778
4 0.70234 0.24213 0.0401 0.03611
4 0.58229 0.21759 0.01562 0.02593
1 0.02083 0.54815 0.04062 0.14074
4 0.96589 0.38333 0.0651 0.13704
1 0.46771 0.22269 0.01979 0.01759
