1 0.5526 0.38843 0.08438 0.11759
1 0.59062 0.21204 0.00938 0.01481
4 0.46693 0.22222 0.02031 0.02037
1 0.46745 0.2787 0.03698 0.0537
1 0.74245 0.26759 0.06302 0.04444
4 0.52943 0.23009 0.02135 0.02685
4 0.73802 0.26574 0.05729 0.03889
4 0.50182 0.33426 0.06719 0.09815
4 0.46901 0.24259 0.02135 0.02037
