1 0.4974 0.33333 0.05104 0.07963
4 0.63672 0.59491 0.32656 0.21759
1 0.46719 0.22222 0.02396 0.02037
4 0.70234 0.23935 0.03594 0.03426
1 0.74167 0.26713 0.06146 0.04352
1 0.58359 0.33241 0.05573 0.07778
