1 0.58359 0.33194 0.05573 0.07685
4 0.46771 0.22222 0.02396 0.02222
1 0.03958 0.64074 0.07812 0.17593
1 0.74245 0.26852 0.06406 0.04444
1 0.49714 0.33333 0.05052 0.07963
4 0.70208 0.23935 0.0375 0.03426
