4 0.70286 0.24074 0.03906 0.03519
4 0.46849 0.22176 0.02135 0.01759
1 0.55443 0.21481 0.00885 0.01481
1 0.56432 0.20972 0.01927 0.02315
1 0.02526 0.48519 0.05052 0.11481
1 0.74115 0.26759 0.06771 0.0463
