4 0.7026 0.24074 0.03854 0.03519
1 0.56354 0.21157 0.01771 0.02315
4 0.46875 0.22176 0.02083 0.01759
1 0.02526 0.48565 0.05052 0.11389
1 0.74245 0.26806 0.06823 0.04352
1 0.55286 0.22037 0.01406 0.02037
