1 0.56927 0.21065 0.01042 0.01389
1 0.54766 0.21991 0.01302 0.01759
4 0.46823 0.22269 0.01979 0.01759
1 0.53047 0.23519 0.01927 0.02963
1 0.02526 0.48565 0.05052 0.11389
1 0.74245 0.26806 0.06823 0.04352
4 0.70234 0.24167 0.03802 0.03519
