1 0.02526 0.48565 0.05052 0.11389
1 0.55807 0.21713 0.01615 0.01759
4 0.7026 0.24074 0.03854 0.03519
1 0.54896 0.22037 0.01458 0.02037
1 0.74245 0.26806 0.06823 0.04352
4 0.46849 0.22176 0.02031 0.01759
