4 0.46875 0.22176 0.02083 0.01759
1 0.56458 0.21019 0.01771 0.02222
4 0.7026 0.24074 0.03854 0.03519
1 0.55156 0.21991 0.01458 0.0213
1 0.74245 0.26806 0.06823 0.04352
1 0.02526 0.48565 0.05052 0.11389
