1 0.64688 0.09167 0.05729 0.05556
1 0.65104 0.40093 0.08542 0.11481
4 0.13516 0.89676 0.2474 0.19907
1 0.2224 0.20648 0.03854 0.03889
1 0.66354 0.09352 0.03438 0.0463
4 0.8263 0.71713 0.20573 0.31204
