1 0.74323 0.10694 0.04688 0.06204
4 0.13516 0.89676 0.2474 0.19907
1 0.08177 0.81528 0.15833 0.18981
1 0.97448 0.5875 0.04688 0.16204
1 0.22214 0.20694 0.03698 0.03796
1 0.80052 0.63981 0.13229 0.17407
